{
  "folder": "TyYruoWurwpkxeA6",
  "name": "1 Círculo",
  "sorting": "a",
  "type": "Item",
  "_id": "bqJPqUN7JkJ6M8UE",
  "sort": 0,
  "flags": {},
  "_stats": {
    "systemId": null,
    "systemVersion": null,
    "coreVersion": null,
    "createdTime": null,
    "modifiedTime": null,
    "lastModifiedBy": null
  },
  "_key": "!folders!bqJPqUN7JkJ6M8UE"
}
