{
  "folder": "NJZvWdbv8A8K3VB8",
  "name": "2 Círculo",
  "sorting": "a",
  "type": "Item",
  "_id": "WLMWYYg9fshNSVpV",
  "sort": 0,
  "flags": {},
  "_stats": {
    "systemId": null,
    "systemVersion": null,
    "coreVersion": null,
    "createdTime": null,
    "modifiedTime": null,
    "lastModifiedBy": null
  },
  "_key": "!folders!WLMWYYg9fshNSVpV"
}
