{
  "folder": "TyYruoWurwpkxeA6",
  "name": "3 Círculo",
  "sorting": "a",
  "type": "Item",
  "_id": "uw89cTPX5Q8UWnO6",
  "sort": 0,
  "flags": {},
  "_stats": {
    "systemId": null,
    "systemVersion": null,
    "coreVersion": null,
    "createdTime": null,
    "modifiedTime": null,
    "lastModifiedBy": null
  },
  "_key": "!folders!uw89cTPX5Q8UWnO6"
}
