{
  "folder": "Q3hAJfyREN8jORts",
  "name": "4 Círculo",
  "sorting": "a",
  "type": "Item",
  "_id": "3vLGG9iTfdcoZaTn",
  "sort": 0,
  "flags": {},
  "_stats": {
    "systemId": null,
    "systemVersion": null,
    "coreVersion": null,
    "createdTime": null,
    "modifiedTime": null,
    "lastModifiedBy": null
  },
  "_key": "!folders!3vLGG9iTfdcoZaTn"
}
