{
  "folder": "RBZAuchWiAVeyFjL",
  "name": "A1 Ilusão",
  "sorting": "a",
  "type": "Item",
  "_id": "eOR9yLzI2EByQRJv",
  "sort": 0,
  "flags": {},
  "_stats": {
    "systemId": null,
    "systemVersion": null,
    "coreVersion": null,
    "createdTime": null,
    "modifiedTime": null,
    "lastModifiedBy": null
  },
  "_key": "!folders!eOR9yLzI2EByQRJv"
}
