{
  "folder": "AoAHv0ZA4Zxi4wFN",
  "name": "A2 Necromancia",
  "sorting": "a",
  "type": "Item",
  "_id": "hgVJ2SkCy4c6y6u1",
  "sort": 0,
  "flags": {},
  "_stats": {
    "systemId": null,
    "systemVersion": null,
    "coreVersion": null,
    "createdTime": null,
    "modifiedTime": null,
    "lastModifiedBy": null
  },
  "_key": "!folders!hgVJ2SkCy4c6y6u1"
}
