{
  "folder": "2G9nqjSzgxMa2POf",
  "name": "A3 Abjuração",
  "sorting": "a",
  "type": "Item",
  "_id": "uwdflCMp3DmBY55C",
  "sort": 0,
  "flags": {},
  "_stats": {
    "systemId": null,
    "systemVersion": null,
    "coreVersion": null,
    "createdTime": null,
    "modifiedTime": null,
    "lastModifiedBy": null
  },
  "_key": "!folders!uwdflCMp3DmBY55C"
}
