{
  "folder": "QDn7esOh9g6RxjtZ",
  "name": "A5 Ilusão",
  "sorting": "a",
  "type": "Item",
  "_id": "isWhPI19rDVeq0NV",
  "sort": 0,
  "flags": {},
  "_stats": {
    "systemId": null,
    "systemVersion": null,
    "coreVersion": null,
    "createdTime": null,
    "modifiedTime": null,
    "lastModifiedBy": null
  },
  "_key": "!folders!isWhPI19rDVeq0NV"
}
