{
  "_id": "xfYTGGsdd81Pa0AN",
  "name": "Adaga Mental",
  "type": "magia",
  "img": "systems/tormenta20/icons/magias/adaga-mental.webp",
  "effects": [
    {
      "_id": "fORHsYOz2U1D8N5k",
      "flags": {
        "t20": null,
        "tormenta20": {
          "onuse": true,
          "self": true,
          "custo": "1",
          "aumenta": false,
          "attack": false,
          "skill": false,
          "ability": false,
          "power": false,
          "spell": false,
          "consumable": false,
          "durationScene": false
        }
      },
      "changes": [],
      "disabled": true,
      "duration": {
        "startTime": null,
        "seconds": null,
        "combat": null,
        "rounds": null,
        "turns": null,
        "startRound": null,
        "startTurn": null
      },
      "icon": "icons/svg/upgrade.svg",
      "label": "você lança a magia sem gesticular ou\npronunciar palavras (o que permite lançar essa magia de armadura) e a adaga se torna invisível. Se o alvo falhar no teste de resistência, não percebe que você lançou uma magia\ncontra ele.",
      "origin": "Item.IQrZTuimhJHEW9at",
      "transfer": false,
      "tint": null,
      "_key": "!items.effects!xfYTGGsdd81Pa0AN.fORHsYOz2U1D8N5k"
    },
    {
      "_id": "EkX61NpwVj1yC0Mo",
      "flags": {
        "t20": null,
        "tormenta20": {
          "onuse": true,
          "self": true,
          "custo": "2",
          "aumenta": false,
          "attack": false,
          "skill": false,
          "ability": false,
          "power": false,
          "spell": false,
          "consumable": false,
          "durationScene": false
        }
      },
      "changes": [
        {
          "key": "duracao",
          "value": "1 dia",
          "mode": 5,
          "priority": null
        }
      ],
      "disabled": true,
      "duration": {
        "startTime": null,
        "seconds": null,
        "combat": null,
        "rounds": null,
        "turns": null,
        "startRound": null,
        "startTurn": null
      },
      "icon": "icons/svg/upgrade.svg",
      "label": "muda a duração para 1 dia. Além do normal, você “finca” a adaga na mente do alvo. Enquanto a magia durar, você sabe a direção e localização do alvo, desde que ele esteja no mesmo mundo.",
      "origin": "Item.IQrZTuimhJHEW9at",
      "tint": null,
      "transfer": false,
      "_key": "!items.effects!xfYTGGsdd81Pa0AN.EkX61NpwVj1yC0Mo"
    },
    {
      "_id": "MeJCcH3OCS1Y12zZ",
      "flags": {
        "t20": null,
        "tormenta20": {
          "onuse": true,
          "self": true,
          "custo": "2",
          "aumenta": true,
          "attack": false,
          "skill": false,
          "ability": false,
          "power": false,
          "spell": false,
          "consumable": false,
          "durationScene": false
        }
      },
      "changes": [
        {
          "key": "dano",
          "value": "1d6",
          "mode": 0,
          "priority": null
        }
      ],
      "disabled": true,
      "duration": {
        "startTime": null,
        "seconds": null,
        "combat": null,
        "rounds": null,
        "turns": null,
        "startRound": null,
        "startTurn": null
      },
      "icon": "icons/svg/upgrade.svg",
      "label": "aumenta o dano em +1d6.",
      "origin": "Item.IQrZTuimhJHEW9at",
      "tint": null,
      "transfer": false,
      "_key": "!items.effects!xfYTGGsdd81Pa0AN.MeJCcH3OCS1Y12zZ"
    },
    {
      "label": "Adaga Mental (Atordoado)",
      "icon": "systems/tormenta20/icons/magias/adaga-mental.webp",
      "origin": "Item.xfYTGGsdd81Pa0AN",
      "tint": "#FFFFFF",
      "flags": {
        "tormenta20": {
          "onuse": false,
          "durationScene": false
        }
      },
      "duration": {
        "rounds": 1,
        "startTime": null,
        "seconds": null,
        "combat": null,
        "turns": null,
        "startRound": null,
        "startTurn": null
      },
      "disabled": false,
      "_id": "ZxOXWudyRQXekB6L",
      "changes": [],
      "transfer": false,
      "_key": "!items.effects!xfYTGGsdd81Pa0AN.ZxOXWudyRQXekB6L"
    }
  ],
  "folder": "wqRfH0bDNPgI8ZTq",
  "sort": 0,
  "flags": {
    "core": {
      "sourceId": "Item.E9UitKPfwJPDlA04"
    }
  },
  "system": {
    "description": {
      "value": "<p style=\"text-align: justify;\">Voc&ecirc; manifesta e dispara uma adaga imaterial contra a mente do alvo, que sofre 2d6 pontos de dano ps&iacute;quico e fica @UUID[JournalEntry.s15J5SOYixL3Ajzr.JournalEntryPage.bD6XAyHQrWYr0BTQ]{Atordoado} por uma rodada. Se passar no teste de resist&ecirc;ncia, sofre apenas metade do dano e evita a condi&ccedil;&atilde;o. Uma criatura s&oacute; pode ficar atordoada por esta magia uma vez por cena.</p>",
      "chat": "",
      "unidentified": ""
    },
    "source": "T20, pg. 184 (JdA)",
    "ativacao": {
      "execucao": "action",
      "custo": 1,
      "qtd": "",
      "condicao": "",
      "special": ""
    },
    "duracao": {
      "value": 0,
      "units": "inst",
      "special": ""
    },
    "target": {
      "value": null,
      "width": null,
      "units": "",
      "type": ""
    },
    "range": {
      "value": null,
      "units": ""
    },
    "consume": {
      "type": "",
      "target": "",
      "amount": null,
      "mpMultiplier": false
    },
    "efeito": "",
    "alcance": "short",
    "alvo": "1 criatura",
    "area": "",
    "resistencia": {
      "pericia": "",
      "atributo": "int",
      "bonus": 0,
      "txt": "Vontade parcial"
    },
    "rolls": [
      {
        "name": "Dano",
        "key": "dano0",
        "type": "dano",
        "parts": [
          [
            "2d6",
            "psiquico",
            ""
          ]
        ],
        "versatil": ""
      }
    ],
    "tipo": "arc",
    "circulo": "1",
    "preparada": false,
    "escola": "enc",
    "chatFlavor": "",
    "tags": [
      "AdagaMental",
      "Encantamento"
    ],
    "origin": "",
    "chatGif": ""
  },
  "ownership": {
    "default": 0
  },
  "_stats": {
    "systemId": "tormenta20",
    "systemVersion": "1.4.116",
    "coreVersion": "11.298",
    "createdTime": 1664310462906,
    "modifiedTime": 1684622830660,
    "lastModifiedBy": "ZWR5Tn3AhSIFqwp6"
  },
  "_key": "!items!xfYTGGsdd81Pa0AN"
}
