{
  "folder": "WLMWYYg9fshNSVpV",
  "name": "D2 Convocação",
  "sorting": "a",
  "type": "Item",
  "_id": "Indi4GXQ8YvRMITr",
  "sort": 0,
  "flags": {},
  "_stats": {
    "systemId": null,
    "systemVersion": null,
    "coreVersion": null,
    "createdTime": null,
    "modifiedTime": null,
    "lastModifiedBy": null
  },
  "_key": "!folders!Indi4GXQ8YvRMITr"
}
