{
  "folder": "dsLi9u9ytNSYWd13",
  "name": "D4 Adivinhação",
  "sorting": "a",
  "type": "Item",
  "_id": "78LeOG7QisbLvEbQ",
  "sort": 0,
  "flags": {},
  "_stats": {
    "systemId": null,
    "systemVersion": null,
    "coreVersion": null,
    "createdTime": null,
    "modifiedTime": null,
    "lastModifiedBy": null
  },
  "_key": "!folders!78LeOG7QisbLvEbQ"
}
