{
  "_id": "RsT4ntlPaT0TrGEW",
  "name": "Guardião Divino",
  "type": "magia",
  "img": "systems/tormenta20/icons/magias/guardiao-divino.webp",
  "effects": [],
  "folder": "uss0qXMJ5VlkxEFb",
  "sort": 0,
  "flags": {
    "core": {
      "sourceId": "Item.wVmQKbHf025udZn1"
    }
  },
  "system": {
    "description": {
      "value": "<p style=\"text-align:justify;\">A magia invoca um elemental Pequeno, com a forma de um orbe feito de luz divina. A criatura é incorpórea, imune a dano e ilumina como uma tocha. O elemental tem 100 pontos de luz.</p><p style=\"text-align:justify;\">Uma vez por rodada, durante o seu turno, o elemental pode se movimentar (deslocamento de voo 18m) e gastar quantos pontos de luz quiser para curar dano ou condições de criaturas em alcance curto, à taxa de 1 PV por 1 ponto de luz ou uma condição por 3 pontos de luz (entre abalado, apavorado, alquebrado, atordoado, cego, confuso, debilitado, enjoado, esmorecido, exausto, fascinado, fatigado, fraco, frustrado, ofuscado, pasmo, sangrando, surdo ou vulnerável). A magia é encerrada quando o elemental fica sem pontos de luz.</p>",
      "chat": "",
      "unidentified": ""
    },
    "source": "T20, pg. 196 (JdA)",
    "ativacao": {
      "execucao": "action",
      "custo": 10,
      "qtd": "",
      "condicao": "",
      "special": ""
    },
    "duracao": {
      "value": 0,
      "units": "special",
      "special": "Cena ou até ser descarregado"
    },
    "target": {
      "value": null,
      "width": null,
      "units": "",
      "type": ""
    },
    "range": {
      "value": null,
      "units": ""
    },
    "consume": {
      "type": "",
      "target": "",
      "amount": null,
      "mpMultiplier": false
    },
    "efeito": "elemental de luz invocado",
    "alcance": "short",
    "alvo": "",
    "area": "",
    "resistencia": {
      "pericia": "",
      "atributo": "sab",
      "bonus": 0,
      "txt": ""
    },
    "rolls": [],
    "tipo": "div",
    "circulo": "4",
    "preparada": false,
    "escola": "con",
    "chatFlavor": "",
    "origin": "",
    "tags": [],
    "chatGif": ""
  },
  "ownership": {
    "default": 0
  },
  "_stats": {
    "systemId": "tormenta20",
    "systemVersion": "1.4.116",
    "coreVersion": "11.298",
    "createdTime": 1664310461910,
    "modifiedTime": 1684622830660,
    "lastModifiedBy": "ZWR5Tn3AhSIFqwp6"
  },
  "_key": "!items!RsT4ntlPaT0TrGEW"
}
