{
  "_id": "g48EeeYhek5Wh5Ll",
  "name": "Leque Cromático",
  "type": "magia",
  "img": "systems/tormenta20/icons/magias/leque-cromatico.webp",
  "effects": [
    {
      "_id": "uePHR4uObPuqI2va",
      "flags": {
        "t20": null,
        "tormenta20": {
          "onuse": true,
          "self": true,
          "custo": "2",
          "aumenta": true,
          "attack": false,
          "skill": false,
          "ability": false,
          "power": false,
          "spell": false,
          "consumable": false,
          "items": "",
          "durationScene": false
        }
      },
      "changes": [],
      "disabled": true,
      "duration": {
        "startTime": null,
        "seconds": null,
        "combat": null,
        "rounds": null,
        "turns": null,
        "startRound": null,
        "startTurn": null
      },
      "icon": "icons/svg/upgrade.svg",
      "label": "além do normal, as criaturas afetadas ficam vulneráveis pela cena.",
      "origin": "Compendium.tormenta20.magias.g48EeeYhek5Wh5Ll",
      "transfer": false,
      "tint": null,
      "_key": "!items.effects!g48EeeYhek5Wh5Ll.uePHR4uObPuqI2va"
    },
    {
      "_id": "jQmTpSkGboy8hYWX",
      "flags": {
        "t20": null,
        "tormenta20": {
          "onuse": true,
          "self": true,
          "custo": "2",
          "aumenta": false,
          "attack": false,
          "skill": false,
          "ability": false,
          "power": false,
          "spell": false,
          "consumable": false,
          "items": "",
          "durationScene": false
        }
      },
      "changes": [],
      "disabled": true,
      "duration": {
        "startTime": null,
        "seconds": null,
        "combat": null,
        "rounds": null,
        "turns": null,
        "startRound": null,
        "startTurn": null
      },
      "icon": "icons/svg/upgrade.svg",
      "label": "também afeta espíritos e monstros na área. Requer 2º círculo.",
      "origin": "Compendium.tormenta20.magias.g48EeeYhek5Wh5Ll",
      "transfer": false,
      "tint": null,
      "_key": "!items.effects!g48EeeYhek5Wh5Ll.jQmTpSkGboy8hYWX"
    },
    {
      "_id": "EzD4s83A7fyffuFS",
      "flags": {
        "t20": null,
        "tormenta20": {
          "onuse": true,
          "self": true,
          "custo": "5",
          "aumenta": false,
          "attack": false,
          "skill": false,
          "ability": false,
          "power": false,
          "spell": false,
          "consumable": false,
          "items": "",
          "durationScene": false
        }
      },
      "changes": [],
      "disabled": true,
      "duration": {
        "startTime": null,
        "seconds": null,
        "combat": null,
        "rounds": null,
        "turns": null,
        "startRound": null,
        "startTurn": null
      },
      "icon": "icons/svg/upgrade.svg",
      "label": "também afeta construtos, espíritos, monstros e mortos-vivos na área. Requer 3º círculo.",
      "origin": "Compendium.tormenta20.magias.g48EeeYhek5Wh5Ll",
      "transfer": false,
      "tint": null,
      "_key": "!items.effects!g48EeeYhek5Wh5Ll.EzD4s83A7fyffuFS"
    },
    {
      "_id": "Htr7D9DLeTYoJMah",
      "changes": [],
      "disabled": false,
      "duration": {
        "rounds": 1,
        "startTime": null,
        "seconds": null,
        "combat": null,
        "turns": null,
        "startRound": null,
        "startTurn": null
      },
      "icon": "systems/tormenta20/icons/magias/leque-cromatico.webp",
      "label": "Leque Cromático",
      "origin": "Item.aUvSqSllFALQh4kY",
      "transfer": false,
      "flags": {
        "tormenta20": {
          "onuse": false,
          "durationScene": false
        }
      },
      "tint": null,
      "_key": "!items.effects!g48EeeYhek5Wh5Ll.Htr7D9DLeTYoJMah"
    }
  ],
  "folder": "eOR9yLzI2EByQRJv",
  "sort": 0,
  "flags": {
    "core": {
      "sourceId": "Item.HDEibR9EGszmWbQ2"
    }
  },
  "system": {
    "description": {
      "value": "<p style=\"text-align: justify;\">Um cone de luzes brilhantes surge das suas m&atilde;os, deixando os animais e humanoides na &aacute;rea atordoados por 1 rodada (apenas uma vez por cena, Vontade anula) e ofuscados pela cena.</p>",
      "chat": "",
      "unidentified": ""
    },
    "source": "T20, pg. 196 (JdA)",
    "ativacao": {
      "execucao": "action",
      "custo": 1,
      "qtd": "",
      "condicao": "",
      "special": ""
    },
    "duracao": {
      "value": 0,
      "units": "inst",
      "special": ""
    },
    "target": {
      "value": null,
      "width": null,
      "units": "",
      "type": ""
    },
    "range": {
      "value": null,
      "units": ""
    },
    "consume": {
      "type": "",
      "target": "",
      "amount": null,
      "mpMultiplier": false
    },
    "efeito": "",
    "alcance": "self",
    "alvo": "",
    "area": "cone de 4,5m",
    "resistencia": {
      "pericia": "",
      "atributo": "int",
      "bonus": 0,
      "txt": "Vontade parcial"
    },
    "rolls": [],
    "tipo": "arc",
    "circulo": "1",
    "preparada": false,
    "escola": "ilu",
    "chatFlavor": "",
    "origin": "",
    "tags": [],
    "chatGif": ""
  },
  "ownership": {
    "default": 0
  },
  "_stats": {
    "systemId": "tormenta20",
    "systemVersion": "1.4.116",
    "coreVersion": "11.298",
    "createdTime": 1664310462778,
    "modifiedTime": 1684622830660,
    "lastModifiedBy": "ZWR5Tn3AhSIFqwp6"
  },
  "_key": "!items!g48EeeYhek5Wh5Ll"
}
