{
  "_id": "fOtHLMKZGMFEgSsT",
  "name": "Ligação Telepática",
  "type": "magia",
  "img": "systems/tormenta20/icons/magias/ligacao-telepatica.webp",
  "effects": [
    {
      "_id": "b4u7QIBaHFQ2BZBZ",
      "flags": {
        "t20": null,
        "tormenta20": {
          "onuse": true,
          "self": true,
          "custo": "2",
          "aumenta": true
        }
      },
      "changes": [],
      "disabled": true,
      "duration": {
        "startTime": null,
        "seconds": null,
        "combat": null,
        "rounds": null,
        "turns": null,
        "startRound": null,
        "startTurn": null
      },
      "icon": "icons/svg/upgrade.svg",
      "label": "aumenta o número de alvos em +1.",
      "origin": "Compendium.tormenta20.magias.fOtHLMKZGMFEgSsT",
      "transfer": false,
      "tint": null,
      "_key": "!items.effects!fOtHLMKZGMFEgSsT.b4u7QIBaHFQ2BZBZ"
    },
    {
      "_id": "OCtwpi8UMs93xwSt",
      "flags": {
        "t20": null,
        "tormenta20": {
          "onuse": true,
          "self": true,
          "custo": "3",
          "aumenta": false
        }
      },
      "changes": [
        {
          "key": "alvo",
          "value": "1 criatura",
          "mode": 5,
          "priority": null
        }
      ],
      "disabled": true,
      "duration": {
        "startTime": null,
        "seconds": null,
        "combat": null,
        "rounds": null,
        "turns": null,
        "startRound": null,
        "startTurn": null
      },
      "icon": "icons/svg/upgrade.svg",
      "label": "muda o alvo para 1 criatura. Em vez do normal, você cria um elo mental que permite que você veja e ouça pelos sentidos da criatura, se gastar uma ação de movimento. Uma criatura involuntária pode fazer um teste de Vontade para suprimir a magia por uma hora. Requer 3º círculo.",
      "origin": "Compendium.tormenta20.magias.fOtHLMKZGMFEgSsT",
      "transfer": false,
      "tint": null,
      "_key": "!items.effects!fOtHLMKZGMFEgSsT.OCtwpi8UMs93xwSt"
    },
    {
      "_id": "2uezfZ2hiCwgaNgN",
      "changes": [],
      "disabled": false,
      "duration": {
        "rounds": 1,
        "startTime": null,
        "seconds": null,
        "combat": null,
        "turns": null,
        "startRound": null,
        "startTurn": null
      },
      "icon": "systems/tormenta20/icons/magias/ligacao-telepatica.webp",
      "label": "Ligação Telepática",
      "origin": "Item.Ba97gKikgZPILIju",
      "transfer": false,
      "flags": {
        "tormenta20": {
          "onuse": false,
          "durationScene": true
        }
      },
      "tint": null,
      "_key": "!items.effects!fOtHLMKZGMFEgSsT.2uezfZ2hiCwgaNgN"
    }
  ],
  "folder": "5rVbqxmmCk2RmOYE",
  "sort": 0,
  "flags": {
    "core": {
      "sourceId": "Item.H5pPo6oVQkupWarO"
    }
  },
  "system": {
    "description": {
      "value": "<p style=\"text-align: justify;\">Voc&ecirc; cria um elo mental entre duas criaturas com Intelig&ecirc;ncia -3 ou maior (voc&ecirc; pode ser uma delas). As criaturas podem se comunicar independente de idioma ou dist&acirc;ncia, mas n&atilde;o em mundos diferentes.</p>",
      "chat": "",
      "unidentified": ""
    },
    "source": "T20, pg. 197 (JdA)",
    "ativacao": {
      "execucao": "action",
      "custo": 3,
      "qtd": "",
      "condicao": "",
      "special": ""
    },
    "duracao": {
      "value": 1,
      "units": "day",
      "special": ""
    },
    "target": {
      "value": null,
      "width": null,
      "units": "",
      "type": ""
    },
    "range": {
      "value": null,
      "units": ""
    },
    "consume": {
      "type": "",
      "target": "",
      "amount": null,
      "mpMultiplier": false
    },
    "efeito": "",
    "alcance": "touch",
    "alvo": "2 criaturas voluntárias",
    "area": "",
    "resistencia": {
      "pericia": "",
      "atributo": "int",
      "bonus": 0,
      "txt": ""
    },
    "rolls": [],
    "tipo": "arc",
    "circulo": "2",
    "preparada": false,
    "escola": "adv",
    "chatFlavor": "",
    "origin": "",
    "tags": [],
    "chatGif": ""
  },
  "ownership": {
    "default": 0
  },
  "_stats": {
    "systemId": "tormenta20",
    "systemVersion": "1.4.116",
    "coreVersion": "11.298",
    "createdTime": 1664310462776,
    "modifiedTime": 1684622830660,
    "lastModifiedBy": "ZWR5Tn3AhSIFqwp6"
  },
  "_key": "!items!fOtHLMKZGMFEgSsT"
}
