{
  "_id": "BfYpxjs0NeqhAs8q",
  "name": "Relâmpago",
  "type": "magia",
  "img": "systems/tormenta20/icons/magias/relampago.webp",
  "effects": [
    {
      "_id": "XIxcAX2dWaFDGsfG",
      "flags": {
        "t20": null,
        "tormenta20": {
          "onuse": true,
          "self": true,
          "custo": "2",
          "aumenta": true,
          "attack": false,
          "skill": false,
          "ability": false,
          "power": false,
          "spell": false,
          "consumable": false,
          "durationScene": false
        }
      },
      "changes": [
        {
          "key": "dano",
          "mode": 0,
          "value": "2d6",
          "priority": null
        }
      ],
      "disabled": true,
      "duration": {
        "startTime": null,
        "seconds": null,
        "combat": null,
        "rounds": null,
        "turns": null,
        "startRound": null,
        "startTurn": null
      },
      "icon": "icons/svg/upgrade.svg",
      "label": "aumenta o dano em +2d6.",
      "origin": "Compendium.tormenta20.magias.BfYpxjs0NeqhAs8q",
      "transfer": false,
      "tint": null,
      "_key": "!items.effects!BfYpxjs0NeqhAs8q.XIxcAX2dWaFDGsfG"
    },
    {
      "_id": "UbfkJ2MbLTgN5Aci",
      "flags": {
        "t20": null,
        "tormenta20": {
          "onuse": true,
          "self": true,
          "custo": "3",
          "aumenta": false
        }
      },
      "changes": [
        {
          "key": "area",
          "value": "alvo (criaturas escolhidas)",
          "mode": 5,
          "priority": null
        },
        {
          "key": "dano",
          "value": "6d6",
          "mode": 0,
          "priority": null
        }
      ],
      "disabled": true,
      "duration": {
        "startTime": null,
        "seconds": null,
        "combat": null,
        "rounds": null,
        "turns": null,
        "startRound": null,
        "startTurn": null
      },
      "icon": "icons/svg/upgrade.svg",
      "label": "muda a área para alvo (criaturas escolhidas). Em vez do normal, você dispara vários relâmpagos, um para cada alvo escolhido, causando 6d6 pontos de dano de eletricidade. Requer 3º círculo.",
      "origin": "Compendium.tormenta20.magias.BfYpxjs0NeqhAs8q",
      "transfer": false,
      "tint": null,
      "_key": "!items.effects!BfYpxjs0NeqhAs8q.UbfkJ2MbLTgN5Aci"
    }
  ],
  "folder": "C4AaVHB8ALOWtksj",
  "sort": 0,
  "flags": {
    "core": {
      "sourceId": "Item.9jTiP3egh02qOole"
    }
  },
  "system": {
    "description": {
      "value": "<p style=\"text-align:justify;\">Você dispara um poderoso raio que causa 6d6 pontos de dano de eletricidade em todas as criaturas e objetos livres na área.</p>",
      "chat": "",
      "unidentified": ""
    },
    "source": "T20, pg. 203 (JdA)",
    "ativacao": {
      "execucao": "action",
      "custo": 3,
      "qtd": "",
      "condicao": "",
      "special": ""
    },
    "duracao": {
      "value": 0,
      "units": "inst",
      "special": ""
    },
    "target": {
      "value": null,
      "width": null,
      "units": "",
      "type": ""
    },
    "range": {
      "value": null,
      "units": ""
    },
    "consume": {
      "type": "",
      "target": "",
      "amount": null,
      "mpMultiplier": false
    },
    "efeito": "",
    "alcance": "medium",
    "alvo": "",
    "area": "linha",
    "resistencia": {
      "pericia": "",
      "atributo": "int",
      "bonus": 0,
      "txt": "Reflexos reduz à metade"
    },
    "rolls": [
      {
        "name": "Dano",
        "key": "dano0",
        "type": "dano",
        "parts": [
          [
            "6d6",
            "eletricidade",
            ""
          ]
        ],
        "versatil": ""
      }
    ],
    "tipo": "arc",
    "circulo": "2",
    "preparada": false,
    "escola": "evo",
    "chatFlavor": "",
    "origin": "",
    "tags": [],
    "chatGif": ""
  },
  "ownership": {
    "default": 0
  },
  "_stats": {
    "systemId": "tormenta20",
    "systemVersion": "1.4.116",
    "coreVersion": "11.298",
    "createdTime": 1664310461777,
    "modifiedTime": 1684622830660,
    "lastModifiedBy": "ZWR5Tn3AhSIFqwp6"
  },
  "_key": "!items!BfYpxjs0NeqhAs8q"
}
