{
  "_id": "rQ44Cz2gJdt86jFL",
  "name": "Toque da Morte",
  "type": "magia",
  "img": "systems/tormenta20/icons/magias/toque-da-morte.webp",
  "effects": [
    {
      "_id": "3Ivodo4341tW7cj8",
      "flags": {
        "t20": null,
        "tormenta20": {
          "onuse": true,
          "self": true,
          "custo": "2",
          "aumenta": false
        }
      },
      "changes": [
        {
          "key": "alcance",
          "value": "curto",
          "mode": 5,
          "priority": null
        }
      ],
      "disabled": true,
      "duration": {
        "startTime": null,
        "seconds": null,
        "combat": null,
        "rounds": null,
        "turns": null,
        "startRound": null,
        "startTurn": null
      },
      "icon": "icons/svg/upgrade.svg",
      "label": "muda o alcance para curto. Em vez de tocar no alvo, você dispara um raio púrpura da ponta de seu dedo indicador.",
      "origin": "Compendium.tormenta20.magias.rQ44Cz2gJdt86jFL",
      "transfer": false,
      "tint": null,
      "_key": "!items.effects!rQ44Cz2gJdt86jFL.3Ivodo4341tW7cj8"
    },
    {
      "_id": "IDwvmjisl8U6TBXN",
      "flags": {
        "t20": null,
        "tormenta20": {
          "onuse": true,
          "self": true,
          "custo": "10",
          "aumenta": false
        }
      },
      "changes": [
        {
          "key": "alcance",
          "value": "curto",
          "mode": 5,
          "priority": null
        },
        {
          "key": "alvo",
          "value": "inimigos no alcance",
          "mode": 5,
          "priority": null
        }
      ],
      "disabled": true,
      "duration": {
        "startTime": null,
        "seconds": null,
        "combat": null,
        "rounds": null,
        "turns": null,
        "startRound": null,
        "startTurn": null
      },
      "icon": "icons/svg/upgrade.svg",
      "label": "muda o alcance para curto e o alvo para inimigos no alcance. Em vez de tocar no alvo, você dispara raios púrpuras da ponta de seus dedos.",
      "origin": "Compendium.tormenta20.magias.rQ44Cz2gJdt86jFL",
      "transfer": false,
      "tint": null,
      "_key": "!items.effects!rQ44Cz2gJdt86jFL.IDwvmjisl8U6TBXN"
    }
  ],
  "folder": "P0UceOxL7WH3yyPb",
  "sort": 0,
  "flags": {
    "core": {
      "sourceId": "Item.qvu2YUpgSU6ex75r"
    }
  },
  "system": {
    "description": {
      "value": "<p style=\"text-align: justify;\">Sua m&atilde;o exala energias letais. A criatura sofre 10d8+10 pontos de dano de trevas. Se estiver com menos da metade de seus PV, em vez disso deve fazer um teste de Fortitude. Se passar, sofre o dano normal. Se falhar, seus PV s&atilde;o reduzidos a &ndash;10.</p>",
      "chat": "",
      "unidentified": ""
    },
    "source": "T20, pg. 209 (JdA)",
    "ativacao": {
      "execucao": "action",
      "custo": 15,
      "qtd": "",
      "condicao": "",
      "special": ""
    },
    "duracao": {
      "value": 0,
      "units": "inst",
      "special": ""
    },
    "target": {
      "value": null,
      "width": null,
      "units": "",
      "type": ""
    },
    "range": {
      "value": null,
      "units": ""
    },
    "consume": {
      "type": "",
      "target": "",
      "amount": null,
      "mpMultiplier": false
    },
    "efeito": "",
    "alcance": "touch",
    "alvo": "1 criatura",
    "area": "",
    "resistencia": {
      "pericia": "",
      "atributo": "sab",
      "bonus": 0,
      "txt": "Veja texto"
    },
    "rolls": [
      {
        "name": "Dano",
        "key": "dano0",
        "type": "dano",
        "parts": [
          [
            "10d8",
            "trevas",
            ""
          ]
        ],
        "versatil": ""
      }
    ],
    "tipo": "uni",
    "circulo": "5",
    "preparada": false,
    "escola": "nec",
    "chatFlavor": "",
    "origin": "",
    "tags": [],
    "chatGif": ""
  },
  "ownership": {
    "default": 0
  },
  "_stats": {
    "systemId": "tormenta20",
    "systemVersion": "1.4.116",
    "coreVersion": "11.298",
    "createdTime": 1664310462815,
    "modifiedTime": 1684622830660,
    "lastModifiedBy": "ZWR5Tn3AhSIFqwp6"
  },
  "_key": "!items!rQ44Cz2gJdt86jFL"
}
