{
  "_id": "6KvwDBikOdbzhRGv",
  "name": "Toque Vampírico",
  "type": "magia",
  "img": "systems/tormenta20/icons/magias/toque-vampirico.webp",
  "effects": [
    {
      "_id": "5E8DwOxwvQNlJJN4",
      "flags": {
        "t20": null,
        "tormenta20": {
          "onuse": true,
          "self": true,
          "custo": "2",
          "aumenta": false,
          "attack": false,
          "skill": false,
          "ability": false,
          "power": false,
          "spell": false,
          "consumable": false,
          "items": "",
          "durationScene": false,
          "equipment": false
        }
      },
      "changes": [],
      "disabled": true,
      "duration": {
        "startTime": null,
        "seconds": null,
        "combat": null,
        "rounds": null,
        "turns": null,
        "startRound": null,
        "startTurn": null
      },
      "icon": "icons/svg/upgrade.svg",
      "label": "muda a resistência para nenhum. Como parte da execução da magia, você pode fazer um ataque corpo a corpo contra o alvo. Se acertar, causa o dano do ataque e da magia, e recupera pontos de vida iguais à metade do dano da magia.",
      "origin": "Compendium.tormenta20.magias.6KvwDBikOdbzhRGv",
      "transfer": false,
      "tint": null,
      "_key": "!items.effects!6KvwDBikOdbzhRGv.5E8DwOxwvQNlJJN4"
    },
    {
      "_id": "Fp3cotDEql0E2Dur",
      "flags": {
        "t20": null,
        "tormenta20": {
          "onuse": true,
          "self": true,
          "custo": "2",
          "aumenta": true
        }
      },
      "changes": [
        {
          "key": "dano",
          "value": "2d6",
          "mode": 0,
          "priority": null
        }
      ],
      "disabled": true,
      "duration": {
        "startTime": null,
        "seconds": null,
        "combat": null,
        "rounds": null,
        "turns": null,
        "startRound": null,
        "startTurn": null
      },
      "icon": "icons/svg/upgrade.svg",
      "label": "aumenta o dano em +2d6.",
      "origin": "Compendium.tormenta20.magias.6KvwDBikOdbzhRGv",
      "transfer": false,
      "tint": null,
      "_key": "!items.effects!6KvwDBikOdbzhRGv.Fp3cotDEql0E2Dur"
    },
    {
      "_id": "F7eldvQNlVrQTK7z",
      "flags": {
        "t20": null,
        "tormenta20": {
          "onuse": true,
          "self": true,
          "custo": "2",
          "aumenta": false
        }
      },
      "changes": [
        {
          "key": "alcance",
          "value": "pessoal",
          "mode": 5,
          "priority": null
        },
        {
          "key": "alvo",
          "value": "você",
          "mode": 5,
          "priority": null
        },
        {
          "key": "duracao",
          "value": "Cena",
          "mode": 5,
          "priority": null
        },
        {
          "key": "dano",
          "value": "3d6",
          "mode": 0,
          "priority": null
        }
      ],
      "disabled": true,
      "duration": {
        "startTime": null,
        "seconds": null,
        "combat": null,
        "rounds": null,
        "turns": null,
        "startRound": null,
        "startTurn": null
      },
      "icon": "icons/svg/upgrade.svg",
      "label": "muda o alcance para pessoal, o alvo para você e a duração para cena. Em vez do normal, a cada rodada você pode gastar uma ação padrão para tocar 1 criatura e causar 3d6 pontos de dano. Você recupera pontos de vida iguais à metade do dano causado. Requer 3º círculo.",
      "origin": "Compendium.tormenta20.magias.6KvwDBikOdbzhRGv",
      "transfer": false,
      "tint": null,
      "_key": "!items.effects!6KvwDBikOdbzhRGv.F7eldvQNlVrQTK7z"
    },
    {
      "label": "Toque Vampírico (Cena)",
      "icon": "systems/tormenta20/icons/magias/toque-vampirico.webp",
      "origin": "Item.6KvwDBikOdbzhRGv",
      "tint": "#FFFFFF",
      "flags": {
        "tormenta20": {
          "onuse": false,
          "durationScene": true
        }
      },
      "duration": {
        "rounds": 1,
        "startTime": null,
        "seconds": null,
        "combat": null,
        "turns": null,
        "startRound": null,
        "startTurn": null
      },
      "disabled": false,
      "_id": "RB6jjU1XtXMWaS9K",
      "changes": [],
      "transfer": false,
      "_key": "!items.effects!6KvwDBikOdbzhRGv.RB6jjU1XtXMWaS9K"
    }
  ],
  "folder": "hgVJ2SkCy4c6y6u1",
  "sort": 0,
  "flags": {
    "core": {
      "sourceId": "Item.pXsAXnZf1UW8Jc1z"
    }
  },
  "system": {
    "description": {
      "value": "<p style=\"text-align:justify;\">Sua mão brilha com energia sombria, causando 6d6 pontos de dano de trevas. Você recupera pontos de vida iguais à metade do dano causado (se causou algum dano).</p>",
      "chat": "",
      "unidentified": ""
    },
    "source": "T20, pg. 209 (JdA)",
    "ativacao": {
      "execucao": "action",
      "custo": 3,
      "qtd": "",
      "condicao": "",
      "special": ""
    },
    "duracao": {
      "value": 0,
      "units": "inst",
      "special": ""
    },
    "target": {
      "value": null,
      "width": null,
      "units": "",
      "type": ""
    },
    "range": {
      "value": null,
      "units": ""
    },
    "consume": {
      "type": "",
      "target": "",
      "amount": null,
      "mpMultiplier": false
    },
    "efeito": "",
    "alcance": "touch",
    "alvo": "1 criatura",
    "area": "",
    "resistencia": {
      "pericia": "",
      "atributo": "int",
      "bonus": 0,
      "txt": "Fortitude reduz à metade"
    },
    "rolls": [
      {
        "name": "Dano",
        "key": "dano0",
        "type": "dano",
        "parts": [
          [
            "6d6",
            "trevas",
            ""
          ]
        ],
        "versatil": ""
      }
    ],
    "tipo": "arc",
    "circulo": "2",
    "preparada": false,
    "escola": "nec",
    "chatFlavor": "",
    "origin": "",
    "tags": [],
    "chatGif": ""
  },
  "ownership": {
    "default": 0
  },
  "_stats": {
    "systemId": "tormenta20",
    "systemVersion": "1.4.116",
    "coreVersion": "11.298",
    "createdTime": 1664310461763,
    "modifiedTime": 1684622830660,
    "lastModifiedBy": "ZWR5Tn3AhSIFqwp6"
  },
  "_key": "!items!6KvwDBikOdbzhRGv"
}
