{
  "folder": "bqJPqUN7JkJ6M8UE",
  "name": "U1 Adivinhação",
  "sorting": "a",
  "type": "Item",
  "_id": "OhlDY7Kb0SwIJ11P",
  "sort": 0,
  "flags": {},
  "_stats": {
    "systemId": null,
    "systemVersion": null,
    "coreVersion": null,
    "createdTime": null,
    "modifiedTime": null,
    "lastModifiedBy": null
  },
  "_key": "!folders!OhlDY7Kb0SwIJ11P"
}
