{
  "folder": "uw89cTPX5Q8UWnO6",
  "name": "U3 Transmutação",
  "sorting": "a",
  "type": "Item",
  "_id": "8bvHLehANNwcPFiQ",
  "sort": 0,
  "flags": {},
  "_stats": {
    "systemId": null,
    "systemVersion": null,
    "coreVersion": null,
    "createdTime": null,
    "modifiedTime": null,
    "lastModifiedBy": null
  },
  "_key": "!folders!8bvHLehANNwcPFiQ"
}
