{
  "_id": "y0AkIvcwBstmPcpX",
  "name": "Vidência",
  "type": "magia",
  "img": "systems/tormenta20/icons/magias/videncia.webp",
  "effects": [],
  "folder": "HyfzyzZmGAlHTRd3",
  "sort": 0,
  "flags": {
    "core": {
      "sourceId": "Item.ywVzwB6WnEOGBTlX"
    }
  },
  "system": {
    "description": {
      "value": "<p style=\"text-align:justify;\">Através de uma superfície reflexiva (bacia de água benta para clérigos, lago para druidas, bola de cristal para magos, espelho para feiticeiros etc.) você pode ver e ouvir uma criatura escolhida e seus arredores (cerca de 6m em qualquer direção), mesmo que ela se mova. O alvo pode estar a qualquer distância, mas se passar em um teste de Vontade, a magia falha. A vítima recebe bônus ou penalidades em seu teste de resistência, dependendo do conhecimento que você tiver dela.</p><ul><li>Não conhece o alvo: +10.</li><li>Ouviu falar do alvo: +5.</li><li>O alvo está em outro plano ou mundo: +5.</li><li>Já encontrou o alvo pessoalmente: +0.</li><li>Tem uma pintura, escultura ou outra representação do alvo: –2.</li><li>Conhece bem o alvo: –5.</li><li>Tem um pertence pessoal ou peça de roupa do alvo: –5.</li><li>Tem uma parte do corpo do alvo (unhas, cabelos...): –10.</li></ul></p>",
      "chat": "",
      "unidentified": ""
    },
    "source": "T20, pg. 211 (JdA)",
    "ativacao": {
      "execucao": "full",
      "custo": 6,
      "qtd": "",
      "condicao": "",
      "special": ""
    },
    "duracao": {
      "value": 0,
      "units": "sust",
      "special": ""
    },
    "target": {
      "value": null,
      "width": null,
      "units": "",
      "type": ""
    },
    "range": {
      "value": null,
      "units": ""
    },
    "consume": {
      "type": "",
      "target": "",
      "amount": null,
      "mpMultiplier": false
    },
    "efeito": "",
    "alcance": "any",
    "alvo": "1 criatura",
    "area": "",
    "resistencia": {
      "pericia": "",
      "atributo": "sab",
      "bonus": 0,
      "txt": "Vontade anula"
    },
    "rolls": [],
    "tipo": "uni",
    "circulo": "3",
    "preparada": false,
    "escola": "adv",
    "chatFlavor": "",
    "origin": "",
    "tags": [],
    "chatGif": ""
  },
  "ownership": {
    "default": 0
  },
  "_stats": {
    "systemId": "tormenta20",
    "systemVersion": "1.4.116",
    "coreVersion": "11.298",
    "createdTime": 1664310462907,
    "modifiedTime": 1684622830660,
    "lastModifiedBy": "ZWR5Tn3AhSIFqwp6"
  },
  "_key": "!items!y0AkIvcwBstmPcpX"
}
