{
  "_id": "GDlkTth7oEnb5d0Y",
  "name": "Visão Mística",
  "type": "magia",
  "img": "systems/tormenta20/icons/magias/visao-mistica.webp",
  "effects": [
    {
      "_id": "eCU8aGE8aijCkLQz",
      "flags": {
        "t20": null,
        "tormenta20": {
          "onuse": true,
          "self": true,
          "custo": "1",
          "aumenta": false,
          "attack": false,
          "skill": false,
          "ability": false,
          "power": false,
          "equipment": false,
          "spell": false,
          "consumable": false,
          "items": "",
          "durationScene": false
        }
      },
      "changes": [
        {
          "key": "system.attributes.sentidos.value adicionar",
          "mode": 2,
          "value": "escuro",
          "priority": 0
        }
      ],
      "disabled": true,
      "duration": {
        "startTime": null,
        "seconds": null,
        "combat": null,
        "rounds": null,
        "turns": null,
        "startRound": null,
        "startTurn": null
      },
      "icon": "icons/svg/upgrade.svg",
      "label": "recebe visão no escuro.",
      "origin": "Compendium.tormenta20.magias.GDlkTth7oEnb5d0Y",
      "transfer": false,
      "tint": null,
      "_key": "!items.effects!GDlkTth7oEnb5d0Y.eCU8aGE8aijCkLQz"
    },
    {
      "_id": "H8kJ7pjbXZ5GHul1",
      "flags": {
        "t20": null,
        "tormenta20": {
          "onuse": true,
          "self": true,
          "custo": "2",
          "aumenta": false
        }
      },
      "changes": [
        {
          "key": "duracao",
          "value": "1 dia",
          "mode": 5,
          "priority": null
        }
      ],
      "disabled": true,
      "duration": {
        "startTime": null,
        "seconds": null,
        "combat": null,
        "rounds": null,
        "turns": null,
        "startRound": null,
        "startTurn": null
      },
      "icon": "icons/svg/upgrade.svg",
      "label": "muda a duração para 1 dia.",
      "origin": "Compendium.tormenta20.magias.GDlkTth7oEnb5d0Y",
      "transfer": false,
      "tint": null,
      "_key": "!items.effects!GDlkTth7oEnb5d0Y.H8kJ7pjbXZ5GHul1"
    },
    {
      "_id": "h2HgQs3BgaLA36Iq",
      "flags": {
        "t20": null,
        "tormenta20": {
          "onuse": true,
          "self": true,
          "custo": "2",
          "aumenta": false
        }
      },
      "changes": [],
      "disabled": true,
      "duration": {
        "startTime": null,
        "seconds": null,
        "combat": null,
        "rounds": null,
        "turns": null,
        "startRound": null,
        "startTurn": null
      },
      "icon": "icons/svg/upgrade.svg",
      "label": "também pode enxergar objetos e criaturas invisíveis. Eles aparecem como formas translúcidas.",
      "origin": "Compendium.tormenta20.magias.GDlkTth7oEnb5d0Y",
      "transfer": false,
      "tint": null,
      "_key": "!items.effects!GDlkTth7oEnb5d0Y.h2HgQs3BgaLA36Iq"
    },
    {
      "_id": "CbJYK47QeZh8jjXN",
      "changes": [],
      "disabled": false,
      "duration": {
        "rounds": 1,
        "startTime": null,
        "seconds": null,
        "combat": null,
        "turns": null,
        "startRound": null,
        "startTurn": null
      },
      "icon": "systems/tormenta20/icons/magias/visao-mistica.webp",
      "label": "Visão Mística",
      "origin": "Item.PCaHH8sXU1qHJvSm",
      "transfer": false,
      "flags": {
        "tormenta20": {
          "onuse": false,
          "durationScene": true
        }
      },
      "tint": null,
      "_key": "!items.effects!GDlkTth7oEnb5d0Y.CbJYK47QeZh8jjXN"
    }
  ],
  "folder": "OhlDY7Kb0SwIJ11P",
  "sort": 0,
  "flags": {
    "core": {
      "sourceId": "Item.W5otW3BpG0GfKGF1"
    },
    "cf": null
  },
  "system": {
    "description": {
      "value": "<p style=\"text-align:justify;\">Seus olhos brilham com uma luz azul e passam a enxergar auras mágicas. Este efeito é similar ao uso de Misticismo para detectar magia, mas você detecta todas as auras mágicas em alcance médio e recebe todas as informações sobre elas sem gastar ações. Além disso, você pode gastar uma ação de movimento para descobrir se uma criatura que possa perceber em alcance médio é capaz de lançar magias e qual a aura gerada pelas magias de círculo mais alto que ela pode lançar.</p>",
      "chat": "",
      "unidentified": ""
    },
    "source": "T20, pg. 211 (JdA)",
    "ativacao": {
      "execucao": "action",
      "custo": 1,
      "qtd": "",
      "condicao": "",
      "special": ""
    },
    "duracao": {
      "value": 0,
      "units": "scene",
      "special": ""
    },
    "target": {
      "value": null,
      "width": null,
      "units": "",
      "type": ""
    },
    "range": {
      "value": null,
      "units": ""
    },
    "consume": {
      "type": "",
      "target": "",
      "amount": null,
      "mpMultiplier": false
    },
    "efeito": "",
    "alcance": "self",
    "alvo": "você",
    "area": "",
    "resistencia": {
      "pericia": "",
      "atributo": "sab",
      "bonus": 0,
      "txt": ""
    },
    "rolls": [],
    "tipo": "uni",
    "circulo": "1",
    "preparada": false,
    "escola": "adv",
    "chatFlavor": "",
    "origin": "",
    "tags": [],
    "chatGif": ""
  },
  "ownership": {
    "default": 0
  },
  "_stats": {
    "systemId": "tormenta20",
    "systemVersion": "1.4.116",
    "coreVersion": "11.298",
    "createdTime": 1664310461811,
    "modifiedTime": 1684622830660,
    "lastModifiedBy": "ZWR5Tn3AhSIFqwp6"
  },
  "_key": "!items!GDlkTth7oEnb5d0Y"
}
