{
  "_id": "505PykOz1CmG2CU3",
  "name": "Vitalidade Fantasma",
  "type": "magia",
  "img": "systems/tormenta20/icons/magias/vitalidade-fantasma.webp",
  "effects": [
    {
      "_id": "8ky11WxusJyBeRiV",
      "flags": {
        "t20": null,
        "tormenta20": {
          "onuse": true,
          "self": true,
          "custo": "2",
          "aumenta": true,
          "attack": false,
          "skill": false,
          "ability": false,
          "power": false,
          "spell": false,
          "consumable": false,
          "items": "",
          "durationScene": false,
          "equipment": false
        }
      },
      "changes": [
        {
          "key": "dano",
          "mode": 0,
          "value": "1d10",
          "priority": 0
        }
      ],
      "disabled": true,
      "duration": {
        "startTime": null,
        "seconds": null,
        "combat": null,
        "rounds": null,
        "turns": null,
        "startRound": null,
        "startTurn": null
      },
      "icon": "icons/svg/upgrade.svg",
      "label": "aumenta os PV temporários recebidos em +1d10. Caso a magia cause dano, em vez disso aumenta o dano causado em +1d10.",
      "origin": "Compendium.tormenta20.magias.505PykOz1CmG2CU3",
      "transfer": false,
      "tint": null,
      "_key": "!items.effects!505PykOz1CmG2CU3.8ky11WxusJyBeRiV"
    },
    {
      "_id": "FQSR5xVzMWSV6cjs",
      "flags": {
        "t20": null,
        "tormenta20": {
          "onuse": true,
          "self": true,
          "custo": "5",
          "aumenta": false,
          "attack": false,
          "skill": false,
          "ability": false,
          "power": false,
          "equipment": false,
          "spell": false,
          "consumable": false,
          "items": "",
          "durationScene": false
        }
      },
      "changes": [
        {
          "key": "alvo",
          "mode": 5,
          "value": "área: esfera com 6m de raio centrada em você",
          "priority": 0
        },
        {
          "key": "resistencia",
          "mode": 5,
          "value": "Fortitude reduz à metade",
          "priority": 0
        },
        {
          "key": "dano",
          "mode": 0,
          "value": "1d8",
          "priority": 0
        }
      ],
      "disabled": true,
      "duration": {
        "startTime": null,
        "seconds": null,
        "combat": null,
        "rounds": null,
        "turns": null,
        "startRound": null,
        "startTurn": null
      },
      "icon": "icons/svg/upgrade.svg",
      "label": "muda o alvo para área: esfera com 6m de raio centrada em você e a resistência para Fortitude reduz à metade. Em vez do normal, você suga energia das criaturas vivas na área, causando 1d10 pontos de dano de trevas e recebendo PV temporários iguais ao dano total causado. Os PV temporários desaparecem ao final da cena. Requer 2º círculo.",
      "origin": "Compendium.tormenta20.magias.505PykOz1CmG2CU3",
      "transfer": false,
      "tint": null,
      "_key": "!items.effects!505PykOz1CmG2CU3.FQSR5xVzMWSV6cjs"
    }
  ],
  "folder": "Bqm3t71TUGy5F5OI",
  "sort": 0,
  "flags": {
    "core": {
      "sourceId": "Item.7FppkWUX7ku2V1qt"
    }
  },
  "system": {
    "description": {
      "value": "<p style=\"text-align: justify;\">Voc&ecirc; suga energia vital da terra, recebendo 2d10 pontos de vida tempor&aacute;rios. Os PV tempor&aacute;rios desaparecem ao final da cena.</p>",
      "chat": "",
      "unidentified": ""
    },
    "source": "T20, pg. 211 (JdA)",
    "ativacao": {
      "execucao": "action",
      "custo": 1,
      "qtd": "",
      "condicao": "",
      "special": ""
    },
    "duracao": {
      "value": 0,
      "units": "inst",
      "special": ""
    },
    "target": {
      "value": null,
      "width": null,
      "units": "",
      "type": ""
    },
    "range": {
      "value": null,
      "units": ""
    },
    "consume": {
      "type": "",
      "target": "",
      "amount": null,
      "mpMultiplier": false
    },
    "efeito": "",
    "alcance": "self",
    "alvo": "você",
    "area": "",
    "resistencia": {
      "pericia": "",
      "atributo": "int",
      "bonus": 0,
      "txt": ""
    },
    "rolls": [
      {
        "name": "Pontos de Vida Temporários",
        "key": "dano0",
        "type": "dano",
        "parts": [
          [
            "2d10",
            "curatpv",
            ""
          ]
        ],
        "versatil": ""
      }
    ],
    "tipo": "arc",
    "circulo": "1",
    "preparada": false,
    "escola": "nec",
    "chatFlavor": "",
    "origin": "",
    "tags": [],
    "chatGif": ""
  },
  "ownership": {
    "default": 0
  },
  "_stats": {
    "systemId": "tormenta20",
    "systemVersion": "1.4.116",
    "coreVersion": "11.298",
    "createdTime": 1664310461759,
    "modifiedTime": 1684622830660,
    "lastModifiedBy": "ZWR5Tn3AhSIFqwp6"
  },
  "_key": "!items!505PykOz1CmG2CU3"
}
