{
  "name": "Acessórios",
  "sorting": "a",
  "folder": null,
  "type": "Item",
  "_id": "BgJUCrqjG6EVBIfP",
  "sort": 0,
  "color": null,
  "flags": {},
  "_stats": {
    "systemId": null,
    "systemVersion": null,
    "coreVersion": null,
    "createdTime": null,
    "modifiedTime": null,
    "lastModifiedBy": null
  },
  "_key": "!folders!BgJUCrqjG6EVBIfP"
}
