{
  "name": "Armaduras & Escudos",
  "sorting": "a",
  "folder": null,
  "type": "Item",
  "_id": "SkZDe8cUamd0vHjD",
  "sort": 0,
  "color": null,
  "flags": {},
  "_stats": {
    "systemId": null,
    "systemVersion": null,
    "coreVersion": null,
    "createdTime": null,
    "modifiedTime": null,
    "lastModifiedBy": null
  },
  "_key": "!folders!SkZDe8cUamd0vHjD"
}
