{
  "_id": "xasIzkosQaQ0Ln3Y",
  "name": "Espelho da Oposição",
  "type": "equipamento",
  "img": "systems/tormenta20/icons/itens/itens-magicos/espelho-da-oposicao.webp",
  "effects": [],
  "folder": "BgJUCrqjG6EVBIfP",
  "sort": 2800000,
  "flags": {},
  "system": {
    "description": {
      "value": "<p>Este item lembra um espelho normal com cerca de 1m de comprimento e 1,5m de altura. Pode ser fixado em qualquer superf&iacute;cie e ativado (ou desativado) com um comando. Quando uma criatura observa seu reflexo, o espelho cria uma c&oacute;pia sua, com as mesmas habilidades e equipamento. A duplicata ataca a criatura original; quando um dos dois &eacute; derrotado, a duplicata e seus itens desaparecem.</p>",
      "chat": "",
      "unidentified": ""
    },
    "source": "T20, pg. 344 (JdA)",
    "equipado": false,
    "equipado2": {
      "slot": 0,
      "type": ""
    },
    "carregado": true,
    "peso": 0,
    "espacos": 1,
    "qtd": 1,
    "preco": 75000,
    "pv": {
      "value": 0,
      "min": 0,
      "max": 0
    },
    "rd": 0,
    "tipo": "acessorio",
    "armadura": {
      "value": 0,
      "penalidade": 0,
      "maxAtr": 0
    },
    "origin": "",
    "tags": [],
    "chatFlavor": "",
    "ativacao": {
      "custo": null,
      "condicao": "",
      "execucao": "",
      "qtd": "",
      "special": ""
    },
    "rolls": [],
    "melhorias": {
      "adjusted": null,
      "undermeasure": null,
      "delicate": null,
      "thorny": null,
      "specialmaterial": null,
      "polished": null,
      "reinforced": null,
      "sealed": null,
      "golden": null,
      "gems": null,
      "discreet": null,
      "macabre": null,
      "enhanced": null
    },
    "encantos": {
      "abascanth": null,
      "blessed": null,
      "acrobatic": null,
      "winged": null,
      "frightful": null,
      "caustic": null,
      "defending": null,
      "slick": null,
      "ghostly": null,
      "ortification": null,
      "frost": null,
      "guardian": null,
      "hypnotic": null,
      "illusory": null,
      "incandescent": null,
      "invulnerable": null,
      "opaque": null,
      "protector": null,
      "reflecting": null,
      "lightning": null,
      "blinding": null,
      "shadow": null,
      "zealous": null
    },
    "chatGif": "",
    "upgrades": {
      "melhoria1": "",
      "melhoria2": "",
      "melhoria3": "",
      "melhoria4": "",
      "material": "",
      "encanto1": "",
      "encanto2": "",
      "encanto3": ""
    }
  },
  "ownership": {
    "default": 0
  },
  "_stats": {
    "systemId": "tormenta20",
    "systemVersion": "1.4.116",
    "coreVersion": "11.298",
    "createdTime": 1666280325460,
    "modifiedTime": 1684623039339,
    "lastModifiedBy": "ZWR5Tn3AhSIFqwp6"
  },
  "_key": "!items!xasIzkosQaQ0Ln3Y"
}
