{
  "_id": "BfZoAqLXeM2mBUfi",
  "name": "Manto da Noite",
  "type": "equipamento",
  "img": "systems/tormenta20/icons/itens/itens-magicos/manto-da-noite.webp",
  "effects": [
    {
      "label": "Ajustada",
      "icon": "systems/tormenta20/icons/itens/itens-magicos/manto-da-noite.webp",
      "origin": "Item.BfZoAqLXeM2mBUfi",
      "tint": "#FFFFFF",
      "flags": {
        "tormenta20": {
          "onuse": false,
          "durationScene": false
        }
      },
      "duration": {
        "startTime": null,
        "seconds": null,
        "combat": null,
        "rounds": null,
        "turns": null,
        "startRound": null,
        "startTurn": null
      },
      "disabled": false,
      "_id": "s4NpA1IPwitjdwfg",
      "changes": [
        {
          "key": "system.attributes.defesa.pda",
          "mode": 2,
          "value": "1",
          "priority": null
        }
      ],
      "transfer": true,
      "_key": "!items.effects!BfZoAqLXeM2mBUfi.s4NpA1IPwitjdwfg"
    },
    {
      "label": "Defensora",
      "icon": "systems/tormenta20/icons/itens/itens-magicos/manto-da-noite.webp",
      "origin": "Item.BfZoAqLXeM2mBUfi",
      "tint": "#FFFFFF",
      "flags": {
        "tormenta20": {
          "onuse": false,
          "durationScene": false
        }
      },
      "duration": {
        "startTime": null,
        "seconds": null,
        "combat": null,
        "rounds": null,
        "turns": null,
        "startRound": null,
        "startTurn": null
      },
      "disabled": false,
      "_id": "UUC3uy6ywJX5wFIA",
      "changes": [
        {
          "key": "system.attributes.defesa.bonus",
          "mode": 2,
          "value": "2",
          "priority": null
        }
      ],
      "transfer": true,
      "_key": "!items.effects!BfZoAqLXeM2mBUfi.UUC3uy6ywJX5wFIA"
    },
    {
      "label": "Sombrio",
      "icon": "systems/tormenta20/icons/itens/itens-magicos/manto-da-noite.webp",
      "origin": "Item.BfZoAqLXeM2mBUfi",
      "tint": "#FFFFFF",
      "flags": {
        "tormenta20": {
          "onuse": false,
          "durationScene": false
        }
      },
      "duration": {
        "startTime": null,
        "seconds": null,
        "combat": null,
        "rounds": null,
        "turns": null,
        "startRound": null,
        "startTurn": null
      },
      "disabled": false,
      "_id": "dTACMaXRDlpLRoOA",
      "changes": [
        {
          "key": "system.pericias.furt.bonus",
          "mode": 2,
          "value": "5",
          "priority": null
        }
      ],
      "transfer": true,
      "_key": "!items.effects!BfZoAqLXeM2mBUfi.dTACMaXRDlpLRoOA"
    }
  ],
  "folder": "BgJUCrqjG6EVBIfP",
  "sort": 3800000,
  "flags": {
    "core": {
      "sourceId": "Compendium.tormenta20.equipamentos-magicos.BfZoAqLXeM2mBUfi"
    }
  },
  "system": {
    "description": {
      "value": "<p style=\"text-align:justify;\">Este <strong>couro batido ajustado defensor sombrio</strong> é negro com partes metálicas foscas. Quando usa esta armadura, você não sofre penalidade em testes de Furtividade por se mover em seu deslocamento normal e a penalidade que você sofre em testes de Furtividade por atacar diminui para –10.</p><p style=\"text-align:justify;\"><b>Ajustada</b> Feito com extremo cuidado e peças medidas com precisão, o item tem a sua penalidade de armadura diminuída em 1.</p><p style=\"text-align:justify;\"><b>Defensor</b> O item é encantado para desviar golpes. O bônus na Defesa do item aumenta em +2.</p><p style=\"text-align:justify;\"><b>Sombrio</b> Você recebe +5 em Furtividade e ignora a penalidade de armadura do item para testes dessa perícia. Um item sombrio é escuro, fosco e bem lubrificado, para não fazer barulho.</p>",
      "chat": "",
      "unidentified": ""
    },
    "source": "T20, pg. 340 (JdA)",
    "equipado": false,
    "equipado2": {
      "slot": 0,
      "type": ""
    },
    "carregado": true,
    "peso": 10,
    "espacos": 2,
    "qtd": 1,
    "preco": 45000,
    "pv": {
      "value": 0,
      "min": 0,
      "max": 0
    },
    "rd": 0,
    "tipo": "leve",
    "armadura": {
      "value": 3,
      "penalidade": -1,
      "maxAtr": 0
    },
    "rolls": [],
    "melhorias": {
      "adjusted": null,
      "undermeasure": null,
      "delicate": null,
      "thorny": null,
      "specialmaterial": null,
      "polished": null,
      "reinforced": null,
      "sealed": null,
      "golden": null,
      "gems": null,
      "discreet": null,
      "macabre": null
    },
    "encantos": {
      "abascanth": null,
      "blessed": null,
      "acrobatic": null,
      "winged": null,
      "frightful": null,
      "caustic": null,
      "defending": null,
      "slick": null,
      "ghostly": null,
      "ortification": null,
      "frost": null,
      "guardian": null,
      "hypnotic": null,
      "illusory": null,
      "incandescent": null,
      "invulnerable": null,
      "opaque": null,
      "protector": null,
      "reflecting": null,
      "lightning": null,
      "blinding": null,
      "shadow": null,
      "zealous": null
    },
    "upgrades": {
      "melhoria1": "adjusted",
      "encanto1": "defending",
      "encanto2": "shadow",
      "melhoria2": "",
      "melhoria3": "",
      "melhoria4": "",
      "material": "",
      "encanto3": ""
    },
    "origin": "",
    "tags": [],
    "chatFlavor": "",
    "chatGif": "",
    "ativacao": {
      "custo": 0,
      "condicao": "",
      "execucao": "",
      "qtd": "",
      "special": ""
    }
  },
  "ownership": {
    "default": 0
  },
  "_stats": {
    "systemId": "tormenta20",
    "systemVersion": "1.4.116",
    "coreVersion": "11.298",
    "createdTime": 1664314000091,
    "modifiedTime": 1684623039339,
    "lastModifiedBy": "ZWR5Tn3AhSIFqwp6"
  },
  "_key": "!items!BfZoAqLXeM2mBUfi"
}
