{
  "_id": "sP4Nlz0cFAjxbzg5",
  "name": "Medalhão da deusa da vida",
  "type": "equipamento",
  "img": "systems/tormenta20/icons/itens/itens-magicos/medalhao-deusa-da-vida.webp",
  "effects": [],
  "folder": "BgJUCrqjG6EVBIfP",
  "sort": 4700000,
  "flags": {
    "core": {
      "sourceId": "Compendium.tormenta20.equipamentos-magicos.sP4Nlz0cFAjxbzg5"
    }
  },
  "system": {
    "description": {
      "value": "<p>Quando voc&ecirc; &eacute; reduzido a 0 ou menos PV, esta joia emite uma explos&atilde;o de energia positiva que cura 100 PV (antes que voc&ecirc; caia). Este poder s&oacute; se ativa uma vez por dia.</p>",
      "chat": "",
      "unidentified": ""
    },
    "source": "T20, pg. 345 (JdA)",
    "equipado": false,
    "equipado2": {
      "slot": 0,
      "type": ""
    },
    "carregado": true,
    "peso": 0,
    "espacos": 1,
    "qtd": 1,
    "preco": 30000,
    "pv": {
      "value": 0,
      "min": 0,
      "max": 0
    },
    "rd": 0,
    "tipo": "acessorio",
    "armadura": {
      "value": 0,
      "penalidade": 0,
      "maxAtr": 0
    },
    "rolls": [],
    "melhorias": {
      "enhanced": null,
      "golden": null,
      "gems": null,
      "discreet": null,
      "macabre": null
    },
    "origin": "",
    "tags": [],
    "chatFlavor": "",
    "chatGif": "",
    "ativacao": {
      "custo": 0,
      "condicao": "",
      "execucao": "",
      "qtd": "",
      "special": ""
    },
    "upgrades": {
      "melhoria1": "",
      "melhoria2": "",
      "melhoria3": "",
      "melhoria4": "",
      "material": "",
      "encanto1": "",
      "encanto2": "",
      "encanto3": ""
    },
    "encantos": {}
  },
  "ownership": {
    "default": 0
  },
  "_stats": {
    "systemId": "tormenta20",
    "systemVersion": "1.4.116",
    "coreVersion": "11.298",
    "createdTime": 1664314000116,
    "modifiedTime": 1684623039339,
    "lastModifiedBy": "ZWR5Tn3AhSIFqwp6"
  },
  "_key": "!items!sP4Nlz0cFAjxbzg5"
}
