{
  "_id": "TrQw6O1ebgl4AGvY",
  "name": "Poção de Curar Ferimentos (2d8+2 PV)",
  "type": "consumivel",
  "img": "systems/tormenta20/icons/itens/itens-magicos/pocao.webp",
  "effects": [],
  "folder": null,
  "sort": 0,
  "flags": {
    "importid": "vLjabZkJvi8qyRBq",
    "core": {
      "sourceId": "Compendium.tormenta20.pocoes.TrQw6O1ebgl4AGvY"
    }
  },
  "system": {
    "description": {
      "value": "<p style=\"text-align: justify;\">Voc&ecirc; canaliza energia positiva que recupera 2d8+2 pontos de vida na criatura tocada.</p>",
      "unidentified": ""
    },
    "source": "T20, pg. 189 (JdA)",
    "carregado": true,
    "peso": 0.5,
    "espacos": 0.5,
    "qtd": 1,
    "preco": 30,
    "pv": {
      "value": 0,
      "min": 0,
      "max": 0
    },
    "rd": 0,
    "ativacao": {
      "execucao": "action",
      "custo": 0,
      "qtd": "",
      "condicao": "",
      "special": ""
    },
    "duracao": {
      "value": 0,
      "units": "inst",
      "special": ""
    },
    "target": {
      "value": null,
      "width": null,
      "type": ""
    },
    "range": {
      "value": null,
      "units": ""
    },
    "consume": {
      "type": "",
      "target": "",
      "amount": null,
      "mpMultiplier": false
    },
    "efeito": "2d8+2",
    "alcance": "touch",
    "alvo": "1 criatura",
    "area": "",
    "resistencia": {
      "pericia": "",
      "atributo": "sab",
      "bonus": 0,
      "txt": ""
    },
    "rolls": [
      {
        "name": "Dano",
        "key": "dano0",
        "type": "dano",
        "parts": [
          [
            "2d8+2",
            "curapv",
            ""
          ]
        ],
        "versatil": ""
      }
    ],
    "tipo": "potion",
    "chatFlavor": "",
    "melhorias": {
      "accurate": null,
      "pungent": null,
      "cruel": null,
      "atrocious": null,
      "balanced": null,
      "harmonized": null,
      "injection": null,
      "massive": null,
      "specialmaterial": null,
      "scope": null,
      "precise": null,
      "golden": null,
      "gems": null,
      "discreet": null,
      "macabre": null
    },
    "encantos": {
      "keen": null,
      "bane": null,
      "throwable": null,
      "assassin": null,
      "seeking": null,
      "frost": null,
      "caster": null,
      "corrosive": null,
      "dancing": null,
      "defending": null,
      "destructive": null,
      "lacerating": null,
      "draining": null,
      "shock": null,
      "energy": null,
      "excruciating": null,
      "flaming": null,
      "formidable": null,
      "lancinating": null,
      "magnificent": null,
      "merciful": null,
      "unholy": null,
      "holy": null,
      "bloodthirsty": null,
      "thundering": null,
      "sepulchral": null,
      "speed": null,
      "poisonous": null
    },
    "origin": "",
    "tags": [],
    "chatGif": "",
    "upgrades": {
      "melhoria1": "",
      "melhoria2": "",
      "melhoria3": "",
      "melhoria4": "",
      "material": "",
      "encanto1": "",
      "encanto2": "",
      "encanto3": ""
    },
    "subtipo": ""
  },
  "ownership": {
    "default": 0
  },
  "_stats": {
    "systemId": "tormenta20",
    "systemVersion": "1.4.1008",
    "coreVersion": "10.288",
    "createdTime": 1664314007037,
    "modifiedTime": 1667351628037,
    "lastModifiedBy": "tIn9sSkrT3mDWirx"
  },
  "_key": "!items!TrQw6O1ebgl4AGvY"
}
