{
  "_id": "d5oh4raZ5joNKqS7",
  "name": "Arma Sagrada",
  "type": "poder",
  "img": "systems/tormenta20/icons/classes/paladino.webp",
  "effects": [
    {
      "_id": "Yjpuat1yCNqacmly",
      "changes": [
        {
          "key": "@Golpe Divino#dano",
          "mode": 0,
          "value": "d12",
          "priority": 0
        }
      ],
      "disabled": true,
      "duration": {
        "startTime": null,
        "seconds": null,
        "combat": null,
        "rounds": null,
        "turns": null,
        "startRound": null,
        "startTurn": null
      },
      "icon": "icons/svg/upgrade.svg",
      "label": "Arma Sagrada",
      "origin": "Item.uptEOemeIMOvoApe",
      "transfer": true,
      "flags": {
        "tormenta20": {
          "onuse": true,
          "attack": true,
          "self": false,
          "skill": false,
          "ability": false,
          "power": false,
          "spell": false,
          "consumable": false,
          "aumenta": false,
          "custo": "",
          "durationScene": false,
          "items": "",
          "equipment": false
        }
      },
      "tint": null,
      "_key": "!items.effects!d5oh4raZ5joNKqS7.Yjpuat1yCNqacmly"
    }
  ],
  "folder": "VwM7ZxttHPFuX6M4",
  "sort": 0,
  "flags": {
    "core": {
      "sourceId": "Compendium.tormenta20.poderes.d5oh4raZ5joNKqS7"
    }
  },
  "system": {
    "description": {
      "value": "<p style=\"text-align: justify;\">Quando usa Golpe Divino para atacar com a arma preferida de sua divindade, o dado de dano que voc&ecirc; rola por Golpe Divino aumenta para d12.</p>\n<p style=\"text-align: justify;\"><em>Pr&eacute;-requisito:</em> devoto de uma divindade (exceto Vida e Paz).</p>",
      "chat": "",
      "unidentified": ""
    },
    "source": "T20, pg. 82 (JdA)",
    "ativacao": {
      "execucao": "",
      "custo": 0,
      "qtd": "",
      "condicao": "",
      "special": ""
    },
    "duracao": {
      "value": 0,
      "units": "",
      "special": ""
    },
    "target": {
      "value": null,
      "width": null,
      "units": "",
      "type": ""
    },
    "range": {
      "value": null,
      "units": ""
    },
    "consume": {
      "type": "",
      "target": "",
      "amount": null,
      "mpMultiplier": false
    },
    "efeito": "",
    "alcance": "none",
    "alvo": "",
    "area": "",
    "resistencia": {
      "pericia": "",
      "atributo": "sab",
      "bonus": 0,
      "txt": ""
    },
    "rolls": [],
    "tipo": "classe",
    "subtipo": "Paladino",
    "chatFlavor": "",
    "tags": [
      "magico"
    ],
    "origin": "",
    "chatGif": ""
  },
  "ownership": {
    "default": 0
  },
  "_stats": {
    "systemId": "tormenta20",
    "systemVersion": "1.4.116",
    "coreVersion": "11.298",
    "createdTime": 1664306184743,
    "modifiedTime": 1684630371462,
    "lastModifiedBy": "ZWR5Tn3AhSIFqwp6"
  },
  "_key": "!items!d5oh4raZ5joNKqS7"
}
