{
  "_id": "MkDEOHheMy0AUmOe",
  "name": "Aspecto do Inverno",
  "type": "poder",
  "img": "systems/tormenta20/icons/classes/druida.webp",
  "effects": [
    {
      "_id": "f2kzLOhqsD25i8lQ",
      "changes": [
        {
          "key": "dano",
          "mode": 2,
          "value": "1",
          "priority": 0
        }
      ],
      "disabled": true,
      "duration": {
        "startTime": null,
        "seconds": null,
        "combat": null,
        "rounds": null,
        "turns": null,
        "startRound": null,
        "startTurn": null
      },
      "icon": "icons/svg/upgrade.svg",
      "label": "Aspecto do Inverno: +1 ponto de dano por dado de dano de magias de frio.",
      "origin": "Item.zeAjzQ6QhZDR0xLG",
      "transfer": true,
      "flags": {
        "tormenta20": {
          "onuse": true,
          "spell": true,
          "self": false,
          "attack": false,
          "skill": false,
          "ability": false,
          "power": false,
          "consumable": false,
          "aumenta": true,
          "custo": "0",
          "durationScene": false,
          "items": ""
        }
      },
      "tint": null,
      "_key": "!items.effects!MkDEOHheMy0AUmOe.f2kzLOhqsD25i8lQ"
    },
    {
      "_id": "VsybQuqZptld74KI",
      "changes": [
        {
          "key": "system.tracos.resistencias.frio.value",
          "mode": 2,
          "value": "5",
          "priority": null
        }
      ],
      "disabled": false,
      "duration": {
        "startTime": null,
        "seconds": null,
        "combat": null,
        "rounds": null,
        "turns": null,
        "startRound": null,
        "startTurn": null
      },
      "icon": "systems/tormenta20/icons/classes/druida.webp",
      "label": "Aspecto do Inverno",
      "origin": "Item.zjf8TRI4ovbe675M",
      "transfer": true,
      "flags": {
        "tormenta20": {
          "onuse": false,
          "durationScene": false
        }
      },
      "tint": null,
      "_key": "!items.effects!MkDEOHheMy0AUmOe.VsybQuqZptld74KI"
    }
  ],
  "folder": "8LraP5E2KHsZTAz8",
  "sort": 0,
  "flags": {
    "core": {
      "sourceId": "Compendium.tormenta20.poderes.MkDEOHheMy0AUmOe"
    },
    "cf": null
  },
  "system": {
    "description": {
      "value": "<p style=\"text-align: justify;\">Voc&ecirc; aprende e pode lan&ccedil;ar uma magia de convoca&ccedil;&atilde;o ou evoca&ccedil;&atilde;o, arcana ou divina, de qualquer c&iacute;rculo que possa lan&ccedil;ar. Al&eacute;m disso, recebe redu&ccedil;&atilde;o de frio 5 e suas magias que causam dano de frio causam +1 ponto de dano por dado.</p>",
      "chat": "",
      "unidentified": ""
    },
    "source": "T20, pg. 61 (JdA)",
    "ativacao": {
      "execucao": "",
      "custo": 0,
      "qtd": "",
      "condicao": "",
      "special": ""
    },
    "duracao": {
      "value": 0,
      "units": "",
      "special": ""
    },
    "target": {
      "value": null,
      "width": null,
      "units": "",
      "type": ""
    },
    "range": {
      "value": null,
      "units": ""
    },
    "consume": {
      "type": "",
      "target": "",
      "amount": null,
      "mpMultiplier": false
    },
    "efeito": "",
    "alcance": "none",
    "alvo": "",
    "area": "",
    "resistencia": {
      "pericia": "",
      "atributo": "sab",
      "bonus": 0,
      "txt": ""
    },
    "rolls": [],
    "tipo": "classe",
    "subtipo": "Druida",
    "chatFlavor": "",
    "origin": "",
    "tags": [],
    "chatGif": ""
  },
  "ownership": {
    "default": 0
  },
  "_stats": {
    "systemId": "tormenta20",
    "systemVersion": "1.4.116",
    "coreVersion": "11.298",
    "createdTime": 1664306184249,
    "modifiedTime": 1684630371462,
    "lastModifiedBy": "ZWR5Tn3AhSIFqwp6"
  },
  "_key": "!items!MkDEOHheMy0AUmOe"
}
