{
  "_id": "sE4mWoW3zqLZaCYC",
  "name": "Ataque Furtivo",
  "type": "poder",
  "img": "systems/tormenta20/icons/poderes/classes/especialistas/ataque-furtivo.webp",
  "effects": [
    {
      "_id": "8MmqKdLLDDMdVoD9",
      "flags": {
        "t20": null,
        "ActiveAuras": {
          "isAura": false,
          "ignoreSelf": false,
          "hidden": false,
          "height": false,
          "aura": "None",
          "radius": null
        },
        "tormenta20": {
          "onuse": true,
          "self": false,
          "attack": true,
          "skill": false,
          "ability": false,
          "power": false,
          "spell": false,
          "consumable": false,
          "aumenta": false,
          "custo": "",
          "durationScene": false,
          "items": "",
          "equipment": false
        }
      },
      "changes": [
        {
          "key": "dano",
          "mode": 2,
          "value": "roll",
          "priority": 0
        }
      ],
      "disabled": true,
      "duration": {
        "startTime": null,
        "seconds": null,
        "combat": null,
        "rounds": null,
        "turns": null,
        "startRound": null,
        "startTurn": null
      },
      "icon": "systems/tormenta20/icons/classes/ladino.webp",
      "label": "Ataque Furtivo",
      "origin": "Item.WckfPJDamZiOv1Hx",
      "tint": null,
      "transfer": true,
      "_key": "!items.effects!sE4mWoW3zqLZaCYC.8MmqKdLLDDMdVoD9"
    }
  ],
  "folder": "E9EyD0Wrr8C91ZpV",
  "sort": 0,
  "flags": {
    "core": {
      "sourceId": "Compendium.tormenta20.poderes.sE4mWoW3zqLZaCYC"
    }
  },
  "system": {
    "description": {
      "value": "<p style=\"text-align: justify;\">Voc&ecirc; sabe atingir os pontos vitais de inimigos distra&iacute;dos. Uma vez por rodada, quando atinge uma criatura <a class=\"content-link\" draggable=\"true\" data-uuid=\"Compendium.tormenta20.condicoes.QBpAB16MIn9BVLNw\" data-id=\"QBpAB16MIn9BVLNw\" data-type=\"JournalEntry\" data-pack=\"tormenta20.condicoes\" data-tooltip=\"Registro de Di&aacute;rio\">Desprevenido</a><span style=\"white-space: nowrap; background-color: rgb(221, 221, 221);\"> </span>com um ataque corpo a corpo ou em alcance curto, ou uma criatura que esteja flanqueado, voc&ecirc; causa 1d6 pontos de dano extra. A cada dois n&iacute;veis, esse dano extra aumenta em +1d6. Uma criatura imune a acertos cr&iacute;ticos tamb&eacute;m &eacute; imune a ataques furtivos.</p>",
      "chat": "",
      "unidentified": ""
    },
    "source": "T20, pg. 73 (JdA)",
    "ativacao": {
      "execucao": "passive",
      "custo": 0,
      "qtd": "",
      "condicao": "",
      "special": ""
    },
    "duracao": {
      "value": 0,
      "units": "",
      "special": ""
    },
    "target": {
      "value": null,
      "width": null,
      "units": "",
      "type": ""
    },
    "range": {
      "value": null,
      "units": ""
    },
    "consume": {
      "type": "",
      "target": "",
      "amount": null,
      "mpMultiplier": false
    },
    "efeito": "",
    "alcance": "none",
    "alvo": "",
    "area": "",
    "resistencia": {
      "pericia": "",
      "atributo": "sab",
      "bonus": 0,
      "txt": ""
    },
    "rolls": [
      {
        "name": "Dano",
        "key": "dano0",
        "type": "dano",
        "parts": [
          [
            "1d6",
            "dano",
            ""
          ]
        ],
        "versatil": ""
      }
    ],
    "tipo": "ability",
    "subtipo": "Ladino",
    "chatFlavor": "",
    "origin": "",
    "tags": [],
    "chatGif": ""
  },
  "ownership": {
    "default": 0
  },
  "_stats": {
    "systemId": "tormenta20",
    "systemVersion": "1.4.116",
    "coreVersion": "11.298",
    "createdTime": 1664306185645,
    "modifiedTime": 1684630371462,
    "lastModifiedBy": "ZWR5Tn3AhSIFqwp6"
  },
  "_key": "!items!sE4mWoW3zqLZaCYC"
}
