{
  "name": "Atributos - Minotauro",
  "type": "poder",
  "img": "systems/tormenta20/icons/racas/minotauro.webp",
  "effects": [
    {
      "_id": "XPsrEWslVy1Mnx3I",
      "flags": {
        "t20": null,
        "tormenta20": {
          "onuse": false,
          "durationScene": false
        }
      },
      "changes": [
        {
          "key": "system.atributos.for.value",
          "mode": 2,
          "value": "2",
          "priority": null
        },
        {
          "key": "system.atributos.con.value",
          "mode": 2,
          "value": "1",
          "priority": null
        },
        {
          "key": "system.atributos.sab.value",
          "mode": 2,
          "value": "-1",
          "priority": null
        }
      ],
      "disabled": false,
      "duration": {
        "startTime": null,
        "seconds": null,
        "combat": null,
        "rounds": null,
        "turns": null,
        "startRound": null,
        "startTurn": null
      },
      "icon": "systems/tormenta20/icons/racas/minotauro.webp",
      "label": "Atributos - Minotauro",
      "origin": "Item.cAgtUX9ZbywfYglb",
      "tint": null,
      "transfer": true,
      "_key": "!items.effects!NKraHfuUwq1Bduts.XPsrEWslVy1Mnx3I"
    }
  ],
  "flags": {
    "core": {
      "sourceId": "Compendium.tormenta20.poderes.R4mqRNcLHRzrqLly"
    }
  },
  "system": {
    "description": {
      "value": "<p style=\"text-align: justify;\">For&ccedil;a +2, Constitui&ccedil;&atilde;o +1, Sabedoria -1.</p>",
      "chat": "",
      "unidentified": ""
    },
    "source": "T20, pg. 25 (JdA)",
    "ativacao": {
      "execucao": "",
      "custo": 0,
      "qtd": "",
      "condicao": "",
      "special": ""
    },
    "duracao": {
      "value": 0,
      "units": "",
      "special": ""
    },
    "target": {
      "value": null,
      "width": null,
      "units": "",
      "type": ""
    },
    "range": {
      "value": null,
      "units": ""
    },
    "consume": {
      "type": "",
      "target": "",
      "amount": null,
      "mpMultiplier": false
    },
    "efeito": "",
    "alcance": "none",
    "alvo": "",
    "area": "",
    "resistencia": {
      "pericia": "",
      "atributo": "sab",
      "bonus": 0,
      "txt": ""
    },
    "rolls": [],
    "tipo": "racial",
    "subtipo": "Minotauro",
    "chatFlavor": "",
    "origin": "",
    "tags": [],
    "chatGif": ""
  },
  "_stats": {
    "systemId": "tormenta20",
    "systemVersion": "1.4.116",
    "coreVersion": "11.298",
    "createdTime": 1664306184299,
    "modifiedTime": 1684630371462,
    "lastModifiedBy": "ZWR5Tn3AhSIFqwp6"
  },
  "_id": "NKraHfuUwq1Bduts",
  "folder": "a4zeBAMZyYPB6hKz",
  "sort": 0,
  "ownership": {
    "default": 0,
    "tIn9sSkrT3mDWirx": 3
  },
  "_key": "!items!NKraHfuUwq1Bduts"
}
