{
  "_id": "cfV8GthtoVPbREG6",
  "name": "Caminho do Arcanista: Bruxo",
  "type": "poder",
  "img": "systems/tormenta20/icons/poderes/classes/conjuradores/caminho-arcanista-bruxo.webp",
  "effects": [],
  "folder": "dB8yQeNYIsAMdhNN",
  "sort": 0,
  "flags": {
    "core": {
      "sourceId": "Compendium.tormenta20.poderes.cfV8GthtoVPbREG6"
    }
  },
  "system": {
    "description": {
      "value": "<p style=\"text-align:justify;\">Você lança magias através de um foco — uma varinha, cajado, chapéu... Para lançar uma magia, você precisa segurar o foco com uma mão (e gesticular com a outra) ou fazer um teste de Misticismo (CD 20 + o custo em PM da magia; se falhar, a magia não funciona, mas você gasta os PM mesmo assim). O foco tem resistência a dano 10 e PV iguais à metade dos seus, independentemente de seu material ou forma. Se for danificado, é totalmente restaurado na próxima vez que você recuperar seus PM. Se for destruído (reduzido a 0 PV), você fica atordoado por uma rodada. Você pode recuperar um foco destruído ou perdido com uma semana de trabalho e T$ 100. Seu atributo-chave para magias é Inteligência.</p>",
      "chat": "",
      "unidentified": ""
    },
    "source": "T20, pg. 37 (JdA)",
    "ativacao": {
      "execucao": "",
      "custo": 0,
      "qtd": "",
      "condicao": "",
      "special": ""
    },
    "duracao": {
      "value": 0,
      "units": "",
      "special": ""
    },
    "target": {
      "value": null,
      "width": null,
      "units": "",
      "type": ""
    },
    "range": {
      "value": null,
      "units": ""
    },
    "consume": {
      "type": "",
      "target": "",
      "amount": null,
      "mpMultiplier": false
    },
    "efeito": "",
    "alcance": "none",
    "alvo": "",
    "area": "",
    "resistencia": {
      "pericia": "",
      "atributo": "sab",
      "bonus": 0,
      "txt": ""
    },
    "rolls": [],
    "tipo": "ability",
    "subtipo": "Arcanista",
    "chatFlavor": "",
    "tags": [
      "Arcanista"
    ],
    "origin": "",
    "chatGif": ""
  },
  "ownership": {
    "default": 0
  },
  "_stats": {
    "systemId": "tormenta20",
    "systemVersion": "1.4.116",
    "coreVersion": "11.298",
    "createdTime": 1664306184742,
    "modifiedTime": 1684630371462,
    "lastModifiedBy": "ZWR5Tn3AhSIFqwp6"
  },
  "_key": "!items!cfV8GthtoVPbREG6"
}
