{
  "_id": "ebkvViYlLzxFy8XO",
  "name": "Chifres",
  "type": "poder",
  "img": "systems/tormenta20/icons/racas/minotauro.webp",
  "effects": [],
  "folder": "a4zeBAMZyYPB6hKz",
  "sort": 0,
  "flags": {
    "core": {
      "sourceId": "Compendium.tormenta20.poderes.ebkvViYlLzxFy8XO"
    }
  },
  "system": {
    "description": {
      "value": "<p style=\"text-align: justify;\">Voc&ecirc; possui uma arma natural de chifres (dano 1d6, cr&iacute;tico x2, perfura&ccedil;&atilde;o). Uma vez por rodada, quando usa a a&ccedil;&atilde;o agredir para atacar com outra arma, pode gastar 1 PM para fazer um ataque corpo a corpo extra com os chifres.</p>",
      "chat": "",
      "unidentified": ""
    },
    "source": "T20, pg. 25 (JdA)",
    "ativacao": {
      "execucao": "",
      "custo": 1,
      "qtd": "",
      "condicao": "",
      "special": ""
    },
    "duracao": {
      "value": 0,
      "units": "",
      "special": ""
    },
    "target": {
      "value": null,
      "width": null,
      "units": "",
      "type": ""
    },
    "range": {
      "value": null,
      "units": ""
    },
    "consume": {
      "type": "",
      "target": "",
      "amount": null,
      "mpMultiplier": false
    },
    "efeito": "",
    "alcance": "none",
    "alvo": "",
    "area": "",
    "resistencia": {
      "pericia": "",
      "atributo": "sab",
      "bonus": 0,
      "txt": ""
    },
    "rolls": [
      {
        "name": "Ataque",
        "key": "ataque0",
        "type": "ataque",
        "parts": [
          [
            "1d20",
            "",
            ""
          ],
          [
            "luta",
            "",
            ""
          ],
          [
            "",
            "",
            ""
          ]
        ],
        "versatil": ""
      },
      {
        "name": "Dano",
        "key": "dano1",
        "type": "dano",
        "parts": [
          [
            "1d6+@for",
            "perfuracao",
            ""
          ]
        ],
        "versatil": ""
      }
    ],
    "tipo": "racial",
    "subtipo": "Minotauro",
    "chatFlavor": "",
    "origin": "",
    "tags": [],
    "chatGif": ""
  },
  "ownership": {
    "default": 0
  },
  "_stats": {
    "systemId": "tormenta20",
    "systemVersion": "1.4.116",
    "coreVersion": "11.298",
    "createdTime": 1664306184749,
    "modifiedTime": 1684630371462,
    "lastModifiedBy": "ZWR5Tn3AhSIFqwp6"
  },
  "_key": "!items!ebkvViYlLzxFy8XO"
}
