{
  "folder": "vexWaYlAiymaSSpI",
  "name": "Clérigo",
  "sorting": "a",
  "type": "Item",
  "_id": "RDLTxoI4mIyfR6dr",
  "sort": 0,
  "flags": {},
  "_stats": {
    "systemId": null,
    "systemVersion": null,
    "coreVersion": null,
    "createdTime": null,
    "modifiedTime": null,
    "lastModifiedBy": null
  },
  "_key": "!folders!RDLTxoI4mIyfR6dr"
}
