{
  "_id": "Dwbr8XnZGv9XlIYX",
  "name": "Conjurar Arma",
  "type": "poder",
  "img": "systems/tormenta20/icons/poderes/concedidos-guerra.webp",
  "effects": [
    {
      "label": "Arma Corpo a Corpo",
      "icon": "systems/tormenta20/icons/poderes/concedidos-guerra.webp",
      "origin": "Item.Dwbr8XnZGv9XlIYX",
      "tint": "#FFFFFF",
      "flags": {
        "tormenta20": {
          "onuse": false,
          "durationScene": true
        }
      },
      "duration": {
        "rounds": 1,
        "startTime": null,
        "seconds": null,
        "combat": null,
        "turns": null,
        "startRound": null,
        "startTurn": null
      },
      "disabled": false,
      "_id": "24ZYYXZa7dS1EMT9",
      "changes": [
        {
          "key": "system.modificadores.ataque.cac",
          "mode": 2,
          "value": "1",
          "priority": null
        },
        {
          "key": "system.modificadores.dano.cac",
          "mode": 2,
          "value": "1",
          "priority": null
        }
      ],
      "transfer": false,
      "_key": "!items.effects!Dwbr8XnZGv9XlIYX.24ZYYXZa7dS1EMT9"
    },
    {
      "label": "Arma de Arremesso ou Munições",
      "icon": "systems/tormenta20/icons/poderes/concedidos-guerra.webp",
      "origin": "Item.Dwbr8XnZGv9XlIYX",
      "tint": "#FFFFFF",
      "flags": {
        "tormenta20": {
          "onuse": false,
          "durationScene": true
        }
      },
      "duration": {
        "rounds": 1,
        "startTime": null,
        "seconds": null,
        "combat": null,
        "turns": null,
        "startRound": null,
        "startTurn": null
      },
      "disabled": false,
      "_id": "vT0N8Sq7sBibN9Ya",
      "changes": [
        {
          "key": "system.modificadores.ataque.ad",
          "mode": 2,
          "value": "1",
          "priority": null
        },
        {
          "key": "system.modificadores.dano.ad",
          "mode": 2,
          "value": "1",
          "priority": null
        }
      ],
      "transfer": false,
      "_key": "!items.effects!Dwbr8XnZGv9XlIYX.vT0N8Sq7sBibN9Ya"
    }
  ],
  "folder": "kdQy5G7zb5MvHB7N",
  "sort": 0,
  "flags": {
    "core": {
      "sourceId": "Compendium.tormenta20.poderes.Dwbr8XnZGv9XlIYX"
    },
    "cf": null
  },
  "system": {
    "description": {
      "value": "<p style=\"text-align: justify;\">Voc&ecirc; pode gastar 1 PM para invocar uma arma corpo a corpo ou de arremesso com a qual seja proficiente. A arma surge em sua m&atilde;o, recebe um b&ocirc;nus de +1 em testes de ataque e rolagens de dano, &eacute; considerada m&aacute;gica e dura pela cena. Voc&ecirc; n&atilde;o pode criar armas de disparo, mas pode criar 20 muni&ccedil;&otilde;es.</p>",
      "chat": "",
      "unidentified": ""
    },
    "source": "T20, pg. 132 (JdA)",
    "ativacao": {
      "execucao": "",
      "custo": 1,
      "qtd": "",
      "condicao": "",
      "special": ""
    },
    "duracao": {
      "value": 0,
      "units": "scene",
      "special": ""
    },
    "target": {
      "value": null,
      "width": null,
      "units": "",
      "type": ""
    },
    "range": {
      "value": null,
      "units": ""
    },
    "consume": {
      "type": "",
      "target": "",
      "amount": null,
      "mpMultiplier": false
    },
    "efeito": "",
    "alcance": "none",
    "alvo": "",
    "area": "",
    "resistencia": {
      "pericia": "",
      "atributo": "sab",
      "bonus": 0,
      "txt": ""
    },
    "rolls": [],
    "tipo": "concedido",
    "subtipo": "Guerra",
    "chatFlavor": "",
    "origin": "",
    "tags": [],
    "chatGif": ""
  },
  "ownership": {
    "default": 0
  },
  "_stats": {
    "systemId": "tormenta20",
    "systemVersion": "1.4.116",
    "coreVersion": "11.298",
    "createdTime": 1664306183826,
    "modifiedTime": 1684630371462,
    "lastModifiedBy": "ZWR5Tn3AhSIFqwp6"
  },
  "_key": "!items!Dwbr8XnZGv9XlIYX"
}
