{
  "_id": "dGMrbRgfwB3mDK7a",
  "name": "Cria Monstruosa",
  "type": "poder",
  "img": "systems/tormenta20/icons/racas/medusa.webp",
  "effects": [],
  "folder": "WBW7mJa7n0MHwWe7",
  "sort": 0,
  "flags": {
    "core": {
      "sourceId": "Compendium.tormenta20.poderes.gVCByaX4oNhQGUso"
    }
  },
  "system": {
    "description": {
      "value": "<p style=\"text-align:justify;\">Você é uma criatura do tipo monstro e recebe visão no escuro.</p>",
      "chat": "",
      "unidentified": ""
    },
    "source": "T20, pg. 29 (JdA)",
    "ativacao": {
      "execucao": "",
      "custo": 0,
      "qtd": "",
      "condicao": "",
      "special": ""
    },
    "duracao": {
      "value": 0,
      "units": "",
      "special": ""
    },
    "target": {
      "value": null,
      "width": null,
      "units": "",
      "type": ""
    },
    "range": {
      "value": null,
      "units": ""
    },
    "consume": {
      "type": "",
      "target": "",
      "amount": null,
      "mpMultiplier": false
    },
    "efeito": "",
    "alcance": "none",
    "alvo": "",
    "area": "",
    "resistencia": {
      "pericia": "",
      "atributo": "sab",
      "bonus": 0,
      "txt": ""
    },
    "rolls": [],
    "tipo": "racial",
    "subtipo": "Medusa",
    "chatFlavor": "",
    "origin": "",
    "tags": [],
    "chatGif": ""
  },
  "ownership": {
    "default": 0,
    "0bS8PF9mUpBd2z0H": 3
  },
  "_stats": {
    "systemId": "tormenta20",
    "systemVersion": "1.4.116",
    "coreVersion": "11.298",
    "createdTime": 1664306184744,
    "modifiedTime": 1684630371462,
    "lastModifiedBy": "ZWR5Tn3AhSIFqwp6"
  },
  "_key": "!items!dGMrbRgfwB3mDK7a"
}
