{
  "_id": "a2c1cG5wrgJDHoKr",
  "name": "Devoto Fiel (Druida)",
  "type": "poder",
  "img": "systems/tormenta20/icons/poderes/classes/conjuradores/devoto-d.webp",
  "effects": [],
  "folder": "8LraP5E2KHsZTAz8",
  "sort": 0,
  "flags": {
    "core": {
      "sourceId": "Compendium.tormenta20.poderes.a2c1cG5wrgJDHoKr"
    }
  },
  "system": {
    "description": {
      "value": "<p style=\"text-align: justify;\">Voc&ecirc; se torna devoto de um deus dispon&iacute;vel para druidas (Allihanna, Megalokk ou Oceano). Veja as regras de devotos na p&aacute;gina 96. Ao contr&aacute;rio de devotos normais, voc&ecirc; recebe dois poderes concedidos por se tornar devoto, em vez de apenas um.</p>",
      "chat": "",
      "unidentified": ""
    },
    "source": "T20, pg. 62 (JdA)",
    "ativacao": {
      "execucao": "",
      "custo": 0,
      "qtd": "",
      "condicao": "",
      "special": ""
    },
    "duracao": {
      "value": 0,
      "units": "",
      "special": ""
    },
    "target": {
      "value": null,
      "width": null,
      "units": "",
      "type": ""
    },
    "range": {
      "value": null,
      "units": ""
    },
    "consume": {
      "type": "",
      "target": "",
      "amount": null,
      "mpMultiplier": false
    },
    "efeito": "",
    "alcance": "none",
    "alvo": "",
    "area": "",
    "resistencia": {
      "pericia": "",
      "atributo": "sab",
      "bonus": 0,
      "txt": ""
    },
    "rolls": [],
    "tipo": "ability",
    "subtipo": "Druida",
    "chatFlavor": "",
    "origin": "",
    "tags": [],
    "chatGif": ""
  },
  "ownership": {
    "default": 0
  },
  "_stats": {
    "systemId": "tormenta20",
    "systemVersion": "1.4.116",
    "coreVersion": "11.298",
    "createdTime": 1664306184735,
    "modifiedTime": 1684630371462,
    "lastModifiedBy": "ZWR5Tn3AhSIFqwp6"
  },
  "_key": "!items!a2c1cG5wrgJDHoKr"
}
