{
  "_id": "mNeLncOZHhKVE5Zc",
  "name": "Dom Artístico",
  "type": "poder",
  "img": "systems/tormenta20/icons/poderes/origem.webp",
  "effects": [],
  "folder": "O7XebEr47qNV8g6X",
  "sort": 0,
  "flags": {
    "core": {
      "sourceId": "Compendium.tormenta20.poderes.mNeLncOZHhKVE5Zc"
    }
  },
  "system": {
    "description": {
      "value": "<p style=\"text-align: justify;\">Voc&ecirc; recebe +2 em testes de @UUID[Compendium.tormenta20.basico.gPPLzgFvC0JKi5UE.JournalEntryPage.ZTsOxj5RZPayHIFX]{Atua&ccedil;&atilde;o}, e recebe o dobro de tibares em apresenta&ccedil;&otilde;es.</p>",
      "chat": "",
      "unidentified": ""
    },
    "source": "T20, pg. 87 (JdA)",
    "ativacao": {
      "execucao": "",
      "custo": 0,
      "qtd": "",
      "condicao": "",
      "special": ""
    },
    "duracao": {
      "value": 0,
      "units": "",
      "special": ""
    },
    "target": {
      "value": null,
      "width": null,
      "units": "",
      "type": ""
    },
    "range": {
      "value": null,
      "units": ""
    },
    "consume": {
      "type": "",
      "target": "",
      "amount": null,
      "mpMultiplier": false
    },
    "efeito": "",
    "alcance": "none",
    "alvo": "",
    "area": "",
    "resistencia": {
      "pericia": "",
      "atributo": "sab",
      "bonus": 0,
      "txt": ""
    },
    "rolls": [],
    "tipo": "origem",
    "subtipo": "Artista",
    "origin": "",
    "tags": [],
    "chatFlavor": "",
    "chatGif": ""
  },
  "ownership": {
    "default": 0
  },
  "_stats": {
    "systemId": "tormenta20",
    "systemVersion": "1.4.116",
    "coreVersion": "11.298",
    "createdTime": 1664306185147,
    "modifiedTime": 1684630371462,
    "lastModifiedBy": "ZWR5Tn3AhSIFqwp6"
  },
  "_key": "!items!mNeLncOZHhKVE5Zc"
}
