{
  "_id": "xWWtgcHqV6PvElXX",
  "name": "Duro como Pedra",
  "type": "poder",
  "img": "systems/tormenta20/icons/racas/anao.webp",
  "effects": [],
  "folder": "QXmpsdR2yksENTdS",
  "sort": 0,
  "flags": {
    "core": {
      "sourceId": "Compendium.tormenta20.poderes.xWWtgcHqV6PvElXX"
    }
  },
  "system": {
    "description": {
      "value": "<p style=\"text-align:justify;\">Você recebe +3 pontos de vida no 1º nível e +1 por nível seguinte.</p>",
      "chat": "",
      "unidentified": ""
    },
    "source": "T20, pg. 20 (JdA)",
    "ativacao": {
      "execucao": "",
      "custo": 0,
      "qtd": "",
      "condicao": "",
      "special": ""
    },
    "duracao": {
      "value": 0,
      "units": "",
      "special": ""
    },
    "target": {
      "value": null,
      "width": null,
      "units": "",
      "type": ""
    },
    "range": {
      "value": null,
      "units": ""
    },
    "consume": {
      "type": "",
      "target": "",
      "amount": null,
      "mpMultiplier": false
    },
    "efeito": "",
    "alcance": "none",
    "alvo": "",
    "area": "",
    "resistencia": {
      "pericia": "",
      "atributo": "sab",
      "bonus": 0,
      "txt": ""
    },
    "rolls": [],
    "tipo": "racial",
    "subtipo": "Anão",
    "origin": "",
    "tags": [],
    "chatFlavor": "",
    "chatGif": ""
  },
  "ownership": {
    "default": 0
  },
  "_stats": {
    "systemId": "tormenta20",
    "systemVersion": "1.4.116",
    "coreVersion": "11.298",
    "createdTime": 1664306185700,
    "modifiedTime": 1684630371462,
    "lastModifiedBy": "ZWR5Tn3AhSIFqwp6"
  },
  "_key": "!items!xWWtgcHqV6PvElXX"
}
