{
  "name": "Ferreiro",
  "type": "poder",
  "img": "icons/commodities/tech/cog-brass.webp",
  "effects": [
    {
      "label": "Ferreiro",
      "icon": "icons/svg/upgrade.svg",
      "origin": "Item.4FWvcrP6aXQIH4L8",
      "tint": "#FFFFFF",
      "flags": {
        "tormenta20": {
          "onuse": true,
          "durationScene": false,
          "self": false,
          "attack": true,
          "skill": false,
          "ability": false,
          "power": false,
          "spell": false,
          "consumable": false,
          "items": "",
          "aumenta": false,
          "custo": ""
        }
      },
      "duration": {
        "startTime": null,
        "seconds": null,
        "combat": null,
        "rounds": null,
        "turns": null,
        "startRound": null,
        "startTurn": null
      },
      "disabled": true,
      "_id": "Me3eOcFZnqlgYBOf",
      "changes": [
        {
          "key": "passos",
          "mode": 2,
          "value": "1",
          "priority": 0
        }
      ],
      "transfer": true,
      "_key": "!items.effects!4FWvcrP6aXQIH4L8.Me3eOcFZnqlgYBOf"
    }
  ],
  "flags": {
    "scene-packer": {
      "sourceId": "Item.q23HNld6PL6iI5Im",
      "defaultPermission": 3,
      "hash": "d218a0679a7b1025ac1fe0118d0e73c923192aa8"
    },
    "cf": null,
    "core": {
      "sourceId": "Compendium.world.world-arielton-1663050699947.lqtTUHKFD902roAN"
    }
  },
  "system": {
    "description": {
      "value": "<p style=\"text-align: justify;\">Quando usa uma arma corpo a corpo feita por voc&ecirc; mesmo, o dano dela aumenta em um passo.</p>\n<p style=\"text-align: justify;\"><em>Pr&eacute;-requisitos: </em>Armeiro, 5&ordm; n&iacute;vel de inventor.</p>",
      "chat": "",
      "unidentified": ""
    },
    "source": "T20, pg. 69 (JdA)",
    "ativacao": {
      "execucao": "",
      "custo": 0,
      "qtd": "",
      "condicao": "",
      "special": ""
    },
    "duracao": {
      "value": 0,
      "units": "",
      "special": ""
    },
    "target": {
      "value": null,
      "width": null,
      "units": "",
      "type": ""
    },
    "range": {
      "value": null,
      "units": ""
    },
    "consume": {
      "type": "",
      "target": "",
      "amount": null,
      "mpMultiplier": false
    },
    "efeito": "",
    "alcance": "none",
    "alvo": "",
    "area": "",
    "resistencia": {
      "pericia": "",
      "atributo": "",
      "bonus": 0,
      "txt": ""
    },
    "rolls": [],
    "tipo": "classe",
    "subtipo": "inventor",
    "chatFlavor": "",
    "origin": "",
    "tags": [],
    "chatGif": ""
  },
  "_stats": {
    "systemId": "tormenta20",
    "systemVersion": "1.4.116",
    "coreVersion": "11.298",
    "createdTime": 1663051644821,
    "modifiedTime": 1684630371462,
    "lastModifiedBy": "ZWR5Tn3AhSIFqwp6"
  },
  "_id": "4FWvcrP6aXQIH4L8",
  "folder": "iHjbUWZ9cRzIVZ3E",
  "sort": 0,
  "ownership": {
    "default": 0,
    "tIn9sSkrT3mDWirx": 3
  },
  "_key": "!items!4FWvcrP6aXQIH4L8"
}
