{
  "_id": "K8Wy8fozgA2sA5se",
  "name": "Força dos Penhascos",
  "type": "poder",
  "img": "systems/tormenta20/icons/classes/druida.webp",
  "effects": [
    {
      "label": "Força dos Penhascos",
      "icon": "systems/tormenta20/icons/classes/druida.webp",
      "origin": "Item.K8Wy8fozgA2sA5se",
      "tint": "#FFFFFF",
      "flags": {
        "tormenta20": {
          "onuse": false,
          "durationScene": false
        }
      },
      "duration": {
        "startTime": null,
        "seconds": null,
        "combat": null,
        "rounds": null,
        "turns": null,
        "startRound": null,
        "startTurn": null
      },
      "disabled": false,
      "_id": "H4yVWSAlqsKEmGZl",
      "changes": [
        {
          "key": "system.pericias.fort.bonus",
          "mode": 2,
          "value": "2",
          "priority": null
        }
      ],
      "transfer": true,
      "_key": "!items.effects!K8Wy8fozgA2sA5se.H4yVWSAlqsKEmGZl"
    },
    {
      "label": "Reduz o dano em 10 para cada PM gasto.",
      "icon": "icons/svg/upgrade.svg",
      "origin": "Item.K8Wy8fozgA2sA5se",
      "tint": "#FFFFFF",
      "flags": {
        "tormenta20": {
          "onuse": true,
          "durationScene": false,
          "self": true,
          "attack": false,
          "skill": false,
          "ability": false,
          "power": false,
          "spell": false,
          "consumable": false,
          "items": "",
          "aumenta": true,
          "custo": "1"
        }
      },
      "duration": {
        "startTime": null,
        "seconds": null,
        "combat": null,
        "rounds": null,
        "turns": null,
        "startRound": null,
        "startTurn": null
      },
      "disabled": true,
      "_id": "5x3PGd3qyvEgpBmp",
      "changes": [],
      "transfer": false,
      "_key": "!items.effects!K8Wy8fozgA2sA5se.5x3PGd3qyvEgpBmp"
    }
  ],
  "folder": "8LraP5E2KHsZTAz8",
  "sort": 0,
  "flags": {
    "core": {
      "sourceId": "Compendium.tormenta20.poderes.K8Wy8fozgA2sA5se"
    }
  },
  "system": {
    "description": {
      "value": "<p style=\"text-align: justify;\">Voc&ecirc; recebe +2 em Fortitude. Quando sofre dano enquanto em contato com o solo ou uma superf&iacute;cie de pedra, pode gastar uma quantidade de PM limitada por sua Sabedoria. Para cada PM gasto, reduz esse dano em 10. Pr&eacute;-requisito: 4&ordm; n&iacute;vel de Druida.&nbsp;</p>\n<p style=\"text-align: justify;\">&nbsp;</p>",
      "chat": "",
      "unidentified": ""
    },
    "source": "T20, pg. 62 (JdA)",
    "ativacao": {
      "execucao": "reaction",
      "custo": 1,
      "qtd": "",
      "condicao": "",
      "special": ""
    },
    "duracao": {
      "value": 0,
      "units": "",
      "special": ""
    },
    "target": {
      "value": null,
      "width": null,
      "units": "",
      "type": ""
    },
    "range": {
      "value": null,
      "units": ""
    },
    "consume": {
      "type": "",
      "target": "",
      "amount": null,
      "mpMultiplier": false
    },
    "efeito": "",
    "alcance": "none",
    "alvo": "",
    "area": "",
    "resistencia": {
      "pericia": "",
      "atributo": "sab",
      "bonus": 0,
      "txt": ""
    },
    "rolls": [],
    "tipo": "classe",
    "subtipo": "Druida",
    "origin": "",
    "tags": [],
    "chatFlavor": "",
    "chatGif": ""
  },
  "ownership": {
    "default": 0
  },
  "_stats": {
    "systemId": "tormenta20",
    "systemVersion": "1.4.116",
    "coreVersion": "11.298",
    "createdTime": 1664306183912,
    "modifiedTime": 1684630371462,
    "lastModifiedBy": "ZWR5Tn3AhSIFqwp6"
  },
  "_key": "!items!K8Wy8fozgA2sA5se"
}
