{
  "_id": "zbL2TOmlYaZzkQyi",
  "name": "Fulgor Divino",
  "type": "poder",
  "img": "systems/tormenta20/icons/classes/paladino.webp",
  "effects": [
    {
      "label": "Fulgor Divino.",
      "icon": "icons/svg/upgrade.svg",
      "origin": "Item.zbL2TOmlYaZzkQyi",
      "tint": "#FFFFFF",
      "flags": {
        "tormenta20": {
          "onuse": true,
          "durationScene": false,
          "self": false,
          "attack": true,
          "skill": false,
          "ability": false,
          "power": false,
          "spell": false,
          "consumable": false,
          "items": "",
          "aumenta": false,
          "custo": ""
        }
      },
      "duration": {
        "startTime": null,
        "seconds": null,
        "combat": null,
        "rounds": null,
        "turns": null,
        "startRound": null,
        "startTurn": null
      },
      "disabled": true,
      "_id": "uIpTWeuS4H6kSnqs",
      "changes": [],
      "transfer": true,
      "_key": "!items.effects!zbL2TOmlYaZzkQyi.uIpTWeuS4H6kSnqs"
    }
  ],
  "folder": "VwM7ZxttHPFuX6M4",
  "sort": 0,
  "flags": {
    "core": {
      "sourceId": "Compendium.tormenta20.poderes.zbL2TOmlYaZzkQyi"
    }
  },
  "system": {
    "description": {
      "value": "<p style=\"text-align:justify;\">Quando usa Golpe Divino, todos os inimigos em alcance curto ficam ofuscados até o início do seu próximo turno.</p>",
      "chat": "",
      "unidentified": ""
    },
    "source": "T20, pg. 83 (JdA)",
    "ativacao": {
      "execucao": "",
      "custo": 0,
      "qtd": "",
      "condicao": "",
      "special": ""
    },
    "duracao": {
      "value": 0,
      "units": "",
      "special": ""
    },
    "target": {
      "value": null,
      "width": null,
      "units": "",
      "type": ""
    },
    "range": {
      "value": null,
      "units": ""
    },
    "consume": {
      "type": "",
      "target": "",
      "amount": null,
      "mpMultiplier": false
    },
    "efeito": "",
    "alcance": "none",
    "alvo": "",
    "area": "",
    "resistencia": {
      "pericia": "",
      "atributo": "sab",
      "bonus": 0,
      "txt": ""
    },
    "rolls": [],
    "tipo": "classe",
    "subtipo": "Paladino",
    "origin": "",
    "tags": [],
    "chatFlavor": "",
    "chatGif": ""
  },
  "ownership": {
    "default": 0
  },
  "_stats": {
    "systemId": "tormenta20",
    "systemVersion": "1.4.116",
    "coreVersion": "11.298",
    "createdTime": 1664306185707,
    "modifiedTime": 1684630371462,
    "lastModifiedBy": "ZWR5Tn3AhSIFqwp6"
  },
  "_key": "!items!zbL2TOmlYaZzkQyi"
}
