{
  "folder": "VzNpCz1wSE1Ln6lH",
  "name": "Goblinóides e Monstros",
  "sorting": "a",
  "type": "Item",
  "_id": "AIQ50r5qEV9wfpvP",
  "sort": 0,
  "flags": {},
  "_stats": {
    "systemId": null,
    "systemVersion": null,
    "coreVersion": null,
    "createdTime": null,
    "modifiedTime": null,
    "lastModifiedBy": null
  },
  "_key": "!folders!AIQ50r5qEV9wfpvP"
}
