{
  "folder": "QGUINw3j11V74Mmz",
  "name": "Golem",
  "sorting": "a",
  "type": "Item",
  "_id": "JbWoTw5WRQStJu6M",
  "sort": 0,
  "flags": {},
  "_stats": {
    "systemId": null,
    "systemVersion": null,
    "coreVersion": null,
    "createdTime": null,
    "modifiedTime": null,
    "lastModifiedBy": null
  },
  "_key": "!folders!JbWoTw5WRQStJu6M"
}
