{
  "name": "Granadeiro",
  "type": "poder",
  "img": "icons/commodities/tech/cog-brass.webp",
  "effects": [],
  "flags": {
    "scene-packer": {
      "sourceId": "Item.zsoIEBCeDpk6zOrI",
      "defaultPermission": 3,
      "hash": "35f360d9c0bc93231b7f4e47fc216b1f683149aa"
    },
    "cf": null,
    "core": {
      "sourceId": "Compendium.world.world-arielton-1663050699947.yrWYA4xnGna3WaXF"
    }
  },
  "system": {
    "description": {
      "value": "<p style=\"text-align: justify;\">Voc&ecirc; pode arremessar itens alqu&iacute;micos e po&ccedil;&otilde;es em alcance m&eacute;dio. Voc&ecirc; pode usar sua Intelig&ecirc;ncia em vez de Destreza para calcular a CD do teste de resist&ecirc;ncia desses itens.</p>\n<p style=\"text-align: justify;\"><em>Pr&eacute;-requisito:</em> Alquimista de Batalha.</p>",
      "chat": "",
      "unidentified": ""
    },
    "source": "T20, pg. 69 (JdA)",
    "ativacao": {
      "execucao": "",
      "custo": 0,
      "qtd": "",
      "condicao": "",
      "special": ""
    },
    "duracao": {
      "value": 0,
      "units": "",
      "special": ""
    },
    "target": {
      "value": null,
      "width": null,
      "units": "",
      "type": ""
    },
    "range": {
      "value": null,
      "units": ""
    },
    "consume": {
      "type": "",
      "target": "",
      "amount": null,
      "mpMultiplier": false
    },
    "efeito": "",
    "alcance": "none",
    "alvo": "",
    "area": "",
    "resistencia": {
      "pericia": "",
      "atributo": "",
      "bonus": 0,
      "txt": ""
    },
    "rolls": [],
    "tipo": "classe",
    "subtipo": "inventor",
    "chatFlavor": "",
    "origin": "",
    "tags": [],
    "chatGif": ""
  },
  "_stats": {
    "systemId": "tormenta20",
    "systemVersion": "1.4.116",
    "coreVersion": "11.298",
    "createdTime": 1663051645028,
    "modifiedTime": 1684630371462,
    "lastModifiedBy": "ZWR5Tn3AhSIFqwp6"
  },
  "_id": "uYxG1qSZfjnVw904",
  "folder": "iHjbUWZ9cRzIVZ3E",
  "sort": 0,
  "ownership": {
    "default": 0,
    "tIn9sSkrT3mDWirx": 3
  },
  "_key": "!items!uYxG1qSZfjnVw904"
}
