{
  "folder": "vexWaYlAiymaSSpI",
  "name": "Guerreiro",
  "sorting": "a",
  "type": "Item",
  "_id": "LJQ1SKk2Y0QmZI03",
  "sort": 0,
  "flags": {},
  "_stats": {
    "systemId": null,
    "systemVersion": null,
    "coreVersion": null,
    "createdTime": null,
    "modifiedTime": null,
    "lastModifiedBy": null
  },
  "_key": "!folders!LJQ1SKk2Y0QmZI03"
}
