{
  "_id": "HK0MNc7j4rjDDbA9",
  "name": "Inspiração Marcial",
  "type": "poder",
  "img": "systems/tormenta20/icons/classes/bardo.webp",
  "effects": [
    {
      "label": "Inspiração Marcial",
      "icon": "icons/svg/upgrade.svg",
      "origin": "Item.BUXCrWU8Z4ESIyZS",
      "tint": "#FFFFFF",
      "flags": {
        "tormenta20": {
          "onuse": true,
          "durationScene": false,
          "self": false,
          "attack": false,
          "skill": false,
          "ability": false,
          "power": true,
          "spell": false,
          "consumable": false,
          "items": "Inspiração",
          "aumenta": true,
          "custo": ""
        }
      },
      "duration": {
        "startTime": null,
        "seconds": null,
        "combat": null,
        "rounds": null,
        "turns": null,
        "startRound": null,
        "startTurn": null
      },
      "disabled": true,
      "_id": "8pYTk7r2AD2AY2hL",
      "changes": [
        {
          "key": "system.modificadores.dano.geral",
          "mode": 2,
          "value": "1",
          "priority": 0
        }
      ],
      "transfer": true,
      "_key": "!items.effects!HK0MNc7j4rjDDbA9.8pYTk7r2AD2AY2hL"
    }
  ],
  "folder": "vXRLLa3BIKBZdiua",
  "sort": 0,
  "flags": {
    "core": {
      "sourceId": "Compendium.tormenta20.poderes.HK0MNc7j4rjDDbA9"
    }
  },
  "system": {
    "description": {
      "value": "<p style=\"text-align: justify;\">Quando voc&ecirc; usa Inspira&ccedil;&atilde;o, voc&ecirc; e seus aliados aplicam o b&ocirc;nus recebido em rolagens de dano (al&eacute;m de testes de per&iacute;cia).</p>\n<p style=\"text-align: justify;\">&nbsp;</p>\n<p style=\"text-align: justify;\">&nbsp;</p>",
      "chat": "",
      "unidentified": ""
    },
    "source": "T20, pg. 45 (JdA)",
    "ativacao": {
      "execucao": "",
      "custo": 0,
      "qtd": "",
      "condicao": "",
      "special": ""
    },
    "duracao": {
      "value": 0,
      "units": "",
      "special": ""
    },
    "target": {
      "value": null,
      "width": null,
      "units": "",
      "type": ""
    },
    "range": {
      "value": null,
      "units": ""
    },
    "consume": {
      "type": "",
      "target": "",
      "amount": null,
      "mpMultiplier": false
    },
    "efeito": "",
    "alcance": "none",
    "alvo": "",
    "area": "",
    "resistencia": {
      "pericia": "",
      "atributo": "sab",
      "bonus": 0,
      "txt": ""
    },
    "rolls": [],
    "tipo": "classe",
    "subtipo": "Bardo",
    "chatFlavor": "",
    "origin": "",
    "tags": [],
    "chatGif": ""
  },
  "ownership": {
    "default": 0
  },
  "_stats": {
    "systemId": "tormenta20",
    "systemVersion": "1.4.116",
    "coreVersion": "11.298",
    "createdTime": 1658361716923,
    "modifiedTime": 1684630371462,
    "lastModifiedBy": "ZWR5Tn3AhSIFqwp6"
  },
  "_key": "!items!HK0MNc7j4rjDDbA9"
}
