{
  "_id": "Uv6GW8R54wUtv3sm",
  "name": "Inspiração",
  "type": "poder",
  "img": "systems/tormenta20/icons/poderes/classes/especialistas/inspiracao.webp",
  "effects": [
    {
      "_id": "zu05LDvZp2oOnZMJ",
      "flags": {
        "t20": null,
        "ActiveAuras": {
          "isAura": false,
          "ignoreSelf": false,
          "hidden": false,
          "height": false,
          "aura": "None",
          "radius": null
        },
        "tormenta20": {
          "onuse": false,
          "durationScene": true
        }
      },
      "changes": [
        {
          "key": "system.modificadores.pericias.geral",
          "mode": 2,
          "value": "1",
          "priority": null
        },
        {
          "key": "system.modificadores.dano.geral",
          "mode": 2,
          "value": "0",
          "priority": null
        }
      ],
      "disabled": false,
      "duration": {
        "startTime": null,
        "rounds": 999,
        "seconds": null,
        "combat": null,
        "turns": null,
        "startRound": null,
        "startTurn": null
      },
      "icon": "systems/tormenta20/icons/poderes/classes/conjuradores/inspiracao.webp",
      "label": "Inspiração",
      "origin": "Item.wZLmEMGDL4Qxli5r",
      "tint": null,
      "transfer": false,
      "_key": "!items.effects!Uv6GW8R54wUtv3sm.zu05LDvZp2oOnZMJ"
    },
    {
      "_id": "gpuEqXYdlZr1nrNK",
      "flags": {
        "t20": null,
        "ActiveAuras": {
          "isAura": false,
          "ignoreSelf": false,
          "hidden": false,
          "height": false,
          "aura": "None",
          "radius": null
        },
        "tormenta20": {
          "onuse": true,
          "self": true,
          "attack": false,
          "skill": false,
          "ability": false,
          "power": false,
          "spell": false,
          "consumable": false,
          "aumenta": true,
          "custo": "2",
          "durationScene": false,
          "items": ""
        }
      },
      "changes": [
        {
          "key": "system.modificadores.pericias.geral",
          "mode": 2,
          "value": "1",
          "priority": 0
        }
      ],
      "disabled": true,
      "duration": {
        "startTime": null,
        "seconds": null,
        "combat": null,
        "rounds": null,
        "turns": null,
        "startRound": null,
        "startTurn": null
      },
      "icon": "icons/svg/upgrade.svg",
      "label": "aumenta o bônus em +1.",
      "origin": "Item.wZLmEMGDL4Qxli5r",
      "tint": null,
      "transfer": false,
      "_key": "!items.effects!Uv6GW8R54wUtv3sm.gpuEqXYdlZr1nrNK"
    }
  ],
  "folder": "vXRLLa3BIKBZdiua",
  "sort": 0,
  "flags": {
    "core": {
      "sourceId": "Compendium.tormenta20.poderes.Uv6GW8R54wUtv3sm"
    },
    "cf": null
  },
  "system": {
    "description": {
      "value": "<p style=\"text-align: justify;\">Voc&ecirc; pode gastar uma a&ccedil;&atilde;o padr&atilde;o e 2 PM para inspirar as pessoas com sua arte. Voc&ecirc; e todos os seus aliados em alcance curto ganham +1 em testes de per&iacute;cia at&eacute; o fim da cena. A cada quatro n&iacute;veis, pode gastar +2 PM para aumentar o b&ocirc;nus em +1.</p>\n<p style=\"text-align: justify;\">&nbsp;</p>\n<p style=\"text-align: justify;\">&nbsp;</p>",
      "chat": "",
      "unidentified": ""
    },
    "source": "T20, pg. 44 (JdA)",
    "ativacao": {
      "execucao": "action",
      "custo": 2,
      "qtd": "",
      "condicao": "",
      "special": ""
    },
    "duracao": {
      "value": 0,
      "units": "",
      "special": ""
    },
    "target": {
      "value": null,
      "width": null,
      "units": "",
      "type": ""
    },
    "range": {
      "value": null,
      "units": ""
    },
    "consume": {
      "type": "",
      "target": "",
      "amount": null,
      "mpMultiplier": false
    },
    "efeito": "",
    "alcance": "short",
    "alvo": "",
    "area": "",
    "resistencia": {
      "pericia": "",
      "atributo": "sab",
      "bonus": 0,
      "txt": ""
    },
    "rolls": [],
    "tipo": "ability",
    "subtipo": "Bardo",
    "chatFlavor": "",
    "origin": "",
    "tags": [],
    "chatGif": ""
  },
  "ownership": {
    "default": 0
  },
  "_stats": {
    "systemId": "tormenta20",
    "systemVersion": "1.4.116",
    "coreVersion": "11.298",
    "createdTime": 1658361717063,
    "modifiedTime": 1684630371462,
    "lastModifiedBy": "ZWR5Tn3AhSIFqwp6"
  },
  "_key": "!items!Uv6GW8R54wUtv3sm"
}
