{
  "_id": "F1NR4OMUI5MO4Pq4",
  "name": "Investida Imprudente",
  "type": "poder",
  "img": "systems/tormenta20/icons/classes/barbaro.webp",
  "effects": [
    {
      "_id": "fwMfzTwb3p9cctIX",
      "changes": [
        {
          "key": "dano",
          "mode": 2,
          "value": "1d12",
          "priority": 0
        }
      ],
      "disabled": true,
      "duration": {
        "startTime": null,
        "seconds": null,
        "combat": null,
        "rounds": null,
        "turns": null,
        "startRound": null,
        "startTurn": null
      },
      "icon": "icons/svg/upgrade.svg",
      "label": "Investida Imprudente",
      "origin": "Compendium.tormenta20.poderes.F1NR4OMUI5MO4Pq4",
      "transfer": true,
      "flags": {
        "tormenta20": {
          "onuse": true,
          "attack": true,
          "self": false,
          "skill": false,
          "ability": false,
          "power": false,
          "spell": false,
          "consumable": false,
          "aumenta": false,
          "custo": "",
          "durationScene": false,
          "items": ""
        }
      },
      "tint": null,
      "_key": "!items.effects!F1NR4OMUI5MO4Pq4.fwMfzTwb3p9cctIX"
    }
  ],
  "folder": "UhsYJ0BvPTkMyG53",
  "sort": 0,
  "flags": {
    "core": {
      "sourceId": "Compendium.tormenta20.poderes.F1NR4OMUI5MO4Pq4"
    }
  },
  "system": {
    "description": {
      "value": "<p style=\"text-align: justify;\">Quando faz uma inves- tida, voc&ecirc; pode aumentar sua penalidade na Defesa pela investida para &ndash;5 para receber um b&ocirc;nus de +1d12 na rolagem de dano deste ataque.</p>\n<p style=\"text-align: justify;\">&nbsp;</p>\n<p style=\"text-align: justify;\">&nbsp;</p>",
      "chat": "",
      "unidentified": ""
    },
    "source": "T20, pg. 42 (JdA)",
    "ativacao": {
      "execucao": "",
      "custo": 0,
      "qtd": "",
      "condicao": "",
      "special": ""
    },
    "duracao": {
      "value": 0,
      "units": "",
      "special": ""
    },
    "target": {
      "value": null,
      "width": null,
      "units": "",
      "type": ""
    },
    "range": {
      "value": null,
      "units": ""
    },
    "consume": {
      "type": "",
      "target": "",
      "amount": null,
      "mpMultiplier": false
    },
    "efeito": "",
    "alcance": "none",
    "alvo": "",
    "area": "",
    "resistencia": {
      "pericia": "",
      "atributo": "sab",
      "bonus": 0,
      "txt": ""
    },
    "rolls": [],
    "tipo": "classe",
    "subtipo": "Bárbaro",
    "chatFlavor": "",
    "origin": "",
    "tags": [],
    "chatGif": ""
  },
  "ownership": {
    "default": 0
  },
  "_stats": {
    "systemId": "tormenta20",
    "systemVersion": "1.4.116",
    "coreVersion": "11.298",
    "createdTime": 1658361716914,
    "modifiedTime": 1684630371462,
    "lastModifiedBy": "ZWR5Tn3AhSIFqwp6"
  },
  "_key": "!items!F1NR4OMUI5MO4Pq4"
}
