{
  "folder": "vexWaYlAiymaSSpI",
  "name": "Ladino",
  "sorting": "a",
  "type": "Item",
  "_id": "E9EyD0Wrr8C91ZpV",
  "sort": 0,
  "flags": {},
  "_stats": {
    "systemId": null,
    "systemVersion": null,
    "coreVersion": null,
    "createdTime": null,
    "modifiedTime": null,
    "lastModifiedBy": null
  },
  "_key": "!folders!E9EyD0Wrr8C91ZpV"
}
