{
  "name": "Linhagem Rubra Superior",
  "type": "poder",
  "img": "systems/tormenta20/icons/poderes/classes/conjuradores/linhagem-rubra.webp",
  "effects": [],
  "folder": "dB8yQeNYIsAMdhNN",
  "sort": 0,
  "flags": {
    "core": {
      "sourceId": "Compendium.tormenta20.poderes.mxfiUS6qhgYrQdtT"
    }
  },
  "_id": "B7NtJu97UJyyN0xi",
  "system": {
    "description": {
      "value": "<p style=\"text-align: justify;\">Seu sangue foi corrompido pela Tormenta.</p>\n<ul>\n<li style=\"text-align: justify;\">Superior. Voc&ecirc; recebe +4 PM para cada poder da Tormenta que tiver. Esta heran&ccedil;a conta como um poder da Tormenta. (exceto para perda de Carisma).</li>\n</ul>\n<p>&nbsp;</p>",
      "chat": "",
      "unidentified": ""
    },
    "source": "Tormenta 20 Básico - Edição do Ano, pág. 39.",
    "ativacao": {
      "execucao": "",
      "custo": 0,
      "qtd": "",
      "condicao": "",
      "special": ""
    },
    "duracao": {
      "value": 0,
      "units": "",
      "special": ""
    },
    "target": {
      "value": null,
      "width": null,
      "units": "",
      "type": ""
    },
    "range": {
      "value": null,
      "units": ""
    },
    "consume": {
      "type": "",
      "target": "",
      "amount": null,
      "mpMultiplier": false
    },
    "efeito": "",
    "alcance": "none",
    "alvo": "",
    "area": "",
    "resistencia": {
      "pericia": "",
      "atributo": "sab",
      "bonus": 0,
      "txt": ""
    },
    "rolls": [],
    "tipo": "ability",
    "subtipo": "Arcanista",
    "tags": [
      "Arcanista"
    ],
    "origin": "",
    "chatFlavor": "",
    "chatGif": ""
  },
  "ownership": {
    "default": 0,
    "0bS8PF9mUpBd2z0H": 3
  },
  "_stats": {
    "systemId": "tormenta20",
    "systemVersion": "1.4.116",
    "coreVersion": "11.298",
    "createdTime": 1664306183809,
    "modifiedTime": 1684630371462,
    "lastModifiedBy": "ZWR5Tn3AhSIFqwp6"
  },
  "_key": "!items!B7NtJu97UJyyN0xi"
}
