{
  "name": "Linhagem Feérica Superior",
  "type": "poder",
  "img": "systems/tormenta20/icons/poderes/classes/conjuradores/linhagem-feerica.webp",
  "effects": [
    {
      "label": "Linhagem Feérica Superior",
      "icon": "systems/tormenta20/icons/poderes/classes/conjuradores/linhagem-feerica.webp",
      "origin": "Item.BDwaFhE2OBfqMYZC",
      "tint": "#FFFFFF",
      "flags": {
        "tormenta20": {
          "onuse": false,
          "durationScene": false
        }
      },
      "duration": {
        "startTime": null,
        "seconds": null,
        "combat": null,
        "rounds": null,
        "turns": null,
        "startRound": null,
        "startTurn": null
      },
      "disabled": false,
      "_id": "cx3zAhpYBpVzQ5oS",
      "changes": [
        {
          "key": "system.atributos.car.value",
          "mode": 2,
          "value": "2",
          "priority": null
        }
      ],
      "transfer": true,
      "_key": "!items.effects!BDwaFhE2OBfqMYZC.cx3zAhpYBpVzQ5oS"
    }
  ],
  "folder": "dB8yQeNYIsAMdhNN",
  "sort": 0,
  "flags": {
    "core": {
      "sourceId": "Compendium.tormenta20.poderes.UB3sYP3377eAPcN2"
    }
  },
  "_id": "BDwaFhE2OBfqMYZC",
  "system": {
    "description": {
      "value": "<p style=\"text-align: justify;\">Seu sangue foi tocado pelas fadas.</p>\n<ul>\n<li style=\"text-align: justify;\">Superior. Voc&ecirc; recebe +2 em Carisma. Se uma criatura passar no teste de resist&ecirc;ncia contra uma magia de encantamento ou ilus&atilde;o lan&ccedil;ada por voc&ecirc;, voc&ecirc; fica alquebrado at&eacute; o final da cena.</li>\n</ul>\n<p>&nbsp;</p>",
      "chat": "",
      "unidentified": ""
    },
    "source": "T20, pg. 39 (JdA)",
    "ativacao": {
      "execucao": "",
      "custo": 0,
      "qtd": "",
      "condicao": "",
      "special": ""
    },
    "duracao": {
      "value": 0,
      "units": "",
      "special": ""
    },
    "target": {
      "value": null,
      "width": null,
      "units": "",
      "type": ""
    },
    "range": {
      "value": null,
      "units": ""
    },
    "consume": {
      "type": "",
      "target": "",
      "amount": null,
      "mpMultiplier": false
    },
    "efeito": "",
    "alcance": "none",
    "alvo": "",
    "area": "",
    "resistencia": {
      "pericia": "",
      "atributo": "sab",
      "bonus": 0,
      "txt": ""
    },
    "rolls": [],
    "tipo": "ability",
    "subtipo": "Arcanista",
    "origin": "",
    "tags": [],
    "chatFlavor": "",
    "chatGif": ""
  },
  "ownership": {
    "default": 0,
    "0bS8PF9mUpBd2z0H": 3
  },
  "_stats": {
    "systemId": "tormenta20",
    "systemVersion": "1.4.116",
    "coreVersion": "11.298",
    "createdTime": 1664306183810,
    "modifiedTime": 1684630371462,
    "lastModifiedBy": "ZWR5Tn3AhSIFqwp6"
  },
  "_key": "!items!BDwaFhE2OBfqMYZC"
}
