{
  "name": "Linhagem Dracônica Básica",
  "type": "poder",
  "img": "systems/tormenta20/icons/poderes/classes/conjuradores/linhagem-draconica.webp",
  "effects": [
    {
      "label": "Linhagem Dracônica Básica",
      "icon": "systems/tormenta20/icons/poderes/classes/conjuradores/linhagem-draconica.webp",
      "origin": "Item.zN0rhkCdrNYDXb0d",
      "tint": "#FFFFFF",
      "flags": {
        "tormenta20": {
          "onuse": false,
          "durationScene": false
        }
      },
      "duration": {
        "startTime": null,
        "seconds": null,
        "combat": null,
        "rounds": null,
        "turns": null,
        "startRound": null,
        "startTurn": null
      },
      "disabled": false,
      "_id": "SkxNZ7zAwytIgSY8",
      "changes": [
        {
          "key": "system.tracos.resistencias.???.bonus",
          "mode": 2,
          "value": "5",
          "priority": null
        }
      ],
      "transfer": false,
      "_key": "!items.effects!zN0rhkCdrNYDXb0d.SkxNZ7zAwytIgSY8"
    }
  ],
  "folder": "dB8yQeNYIsAMdhNN",
  "sort": 0,
  "flags": {
    "core": {
      "sourceId": "Compendium.tormenta20.poderes.w48gktCMFpuvvHoO"
    }
  },
  "_id": "zN0rhkCdrNYDXb0d",
  "system": {
    "description": {
      "value": "<p style=\"text-align: justify;\">Um de seus antepassados foi um majestoso drag&atilde;o. Escolha um tipo de dano entre &aacute;cido, eletricidade, fogo ou frio.</p>\n<ul>\n<li>B&aacute;sica. Voc&ecirc; soma seu modificador de Carisma em seus pontos de vida iniciais e recebe resist&ecirc;ncia 5 ao tipo de dano escolhido.</li>\n</ul>\n<p>&nbsp;</p>",
      "chat": "",
      "unidentified": ""
    },
    "source": "T20, pg. 39 (JdA)",
    "ativacao": {
      "execucao": "",
      "custo": 0,
      "qtd": "",
      "condicao": "",
      "special": ""
    },
    "duracao": {
      "value": 0,
      "units": "",
      "special": ""
    },
    "target": {
      "value": null,
      "width": null,
      "units": "",
      "type": ""
    },
    "range": {
      "value": null,
      "units": ""
    },
    "consume": {
      "type": "",
      "target": "",
      "amount": null,
      "mpMultiplier": false
    },
    "efeito": "",
    "alcance": "none",
    "alvo": "",
    "area": "",
    "resistencia": {
      "pericia": "",
      "atributo": "sab",
      "bonus": 0,
      "txt": ""
    },
    "rolls": [],
    "tipo": "ability",
    "subtipo": "Arcanista",
    "tags": [
      "Arcanista"
    ],
    "origin": "",
    "chatFlavor": "",
    "chatGif": ""
  },
  "ownership": {
    "default": 0,
    "0bS8PF9mUpBd2z0H": 3
  },
  "_stats": {
    "systemId": "tormenta20",
    "systemVersion": "1.4.116",
    "coreVersion": "11.298",
    "createdTime": 1664306185706,
    "modifiedTime": 1684630371462,
    "lastModifiedBy": "ZWR5Tn3AhSIFqwp6"
  },
  "_key": "!items!zN0rhkCdrNYDXb0d"
}
