{
  "_id": "512ZtmpMoFsTtwuR",
  "name": "Mãos Rápidas",
  "type": "poder",
  "img": "systems/tormenta20/icons/classes/ladino.webp",
  "effects": [
    {
      "_id": "SwQci36SUryriaia",
      "changes": [],
      "disabled": true,
      "duration": {
        "startTime": null,
        "seconds": null,
        "combat": null,
        "rounds": null,
        "turns": null,
        "startRound": null,
        "startTurn": null
      },
      "icon": "icons/svg/upgrade.svg",
      "label": "Mãos Rápidas",
      "origin": "Item.L8wmpNqZJ72wc6fj",
      "transfer": true,
      "flags": {
        "tormenta20": {
          "onuse": true,
          "skill": true,
          "self": false,
          "attack": false,
          "ability": false,
          "power": false,
          "spell": false,
          "consumable": false,
          "aumenta": false,
          "custo": "1",
          "durationScene": false,
          "items": "ladinagem"
        }
      },
      "tint": null,
      "_key": "!items.effects!512ZtmpMoFsTtwuR.SwQci36SUryriaia"
    }
  ],
  "folder": "E9EyD0Wrr8C91ZpV",
  "sort": 0,
  "flags": {
    "core": {
      "sourceId": "Compendium.tormenta20.poderes.512ZtmpMoFsTtwuR"
    },
    "cf": null
  },
  "system": {
    "description": {
      "value": "<p style=\"text-align: justify;\">Uma vez por rodada, ao fazer um teste de <a class=\"content-link\" draggable=\"true\" data-uuid=\"Compendium.tormenta20.pericias.lcgrJelGuEGZ96C0\" data-id=\"lcgrJelGuEGZ96C0\" data-type=\"JournalEntry\" data-pack=\"tormenta20.pericias\" data-tooltip=\"Registro de Di&aacute;rio\">Ladinagem</a><span style=\"white-space: nowrap; background-color: rgb(221, 221, 221);\"> </span>para abrir fechaduras, ocultar item, punga ou sabotar, voc&ecirc; pode pagar 1 PM para faz&ecirc;-lo como uma a&ccedil;&atilde;o livre.</p>\n<p style=\"text-align: justify;\"><em>Pr&eacute;-requisitos:</em> Des 2, treinado em Ladinagem.</p>",
      "chat": "",
      "unidentified": ""
    },
    "source": "T20, pg. 74 (JdA)",
    "ativacao": {
      "execucao": "free",
      "custo": 1,
      "qtd": "",
      "condicao": "",
      "special": ""
    },
    "duracao": {
      "value": 0,
      "units": "",
      "special": ""
    },
    "target": {
      "value": null,
      "width": null,
      "units": "",
      "type": ""
    },
    "range": {
      "value": null,
      "units": ""
    },
    "consume": {
      "type": "",
      "target": "",
      "amount": null,
      "mpMultiplier": false
    },
    "efeito": "",
    "alcance": "none",
    "alvo": "",
    "area": "",
    "resistencia": {
      "pericia": "",
      "atributo": "sab",
      "bonus": 0,
      "txt": ""
    },
    "rolls": [],
    "tipo": "classe",
    "subtipo": "Ladino",
    "chatFlavor": "",
    "origin": "",
    "tags": [],
    "chatGif": ""
  },
  "ownership": {
    "default": 0
  },
  "_stats": {
    "systemId": "tormenta20",
    "systemVersion": "1.4.116",
    "coreVersion": "11.298",
    "createdTime": 1664306183312,
    "modifiedTime": 1684630371462,
    "lastModifiedBy": "ZWR5Tn3AhSIFqwp6"
  },
  "_key": "!items!512ZtmpMoFsTtwuR"
}
