{
  "_id": "B1vQTUXRBiqhcmmH",
  "name": "Magia Ampliada",
  "type": "poder",
  "img": "systems/tormenta20/icons/poderes/magia.webp",
  "effects": [
    {
      "_id": "lhKHwvsMfJds6u7S",
      "flags": {
        "t20": null,
        "tormenta20": {
          "onuse": true,
          "spell": true,
          "self": false,
          "attack": false,
          "skill": false,
          "ability": false,
          "power": false,
          "consumable": false,
          "aumenta": false,
          "custo": "2",
          "durationScene": false
        }
      },
      "changes": [
        {
          "key": "alcance",
          "value": "curto",
          "mode": 2,
          "priority": null
        }
      ],
      "disabled": true,
      "duration": {
        "startTime": null,
        "seconds": null,
        "combat": null,
        "rounds": null,
        "turns": null,
        "startRound": null,
        "startTurn": null
      },
      "icon": "icons/svg/aura.svg",
      "label": "Magia Ampliada",
      "origin": "Item.ZQnVwNLw7MhufCPl",
      "tint": null,
      "transfer": true,
      "_key": "!items.effects!B1vQTUXRBiqhcmmH.lhKHwvsMfJds6u7S"
    }
  ],
  "folder": "Kye2KzNfCgJW92Kb",
  "sort": 0,
  "flags": {
    "core": {
      "sourceId": "Compendium.tormenta20.poderes.B1vQTUXRBiqhcmmH"
    }
  },
  "system": {
    "description": {
      "value": "<p style=\"text-align: justify;\">Aumenta o alcance da magia em um passo (de curto para m&eacute;dio, de m&eacute;dio para longo) ou dobra a &aacute;rea de efeito da magia. Por exemplo, uma <em>Bola de Fogo</em> ampliada tem seu alcance aumentado para longo ou sua &aacute;rea aumentada para 12m de raio.</p>\n<p style=\"text-align: justify;\">Custo: +2 PM.</p>",
      "chat": "",
      "unidentified": ""
    },
    "source": "T20, pg. 131 (JdA)",
    "ativacao": {
      "execucao": "",
      "custo": 2,
      "qtd": "",
      "condicao": "",
      "special": ""
    },
    "duracao": {
      "value": 0,
      "units": "",
      "special": ""
    },
    "target": {
      "value": null,
      "width": null,
      "units": "",
      "type": ""
    },
    "range": {
      "value": null,
      "units": ""
    },
    "consume": {
      "type": "",
      "target": "",
      "amount": null,
      "mpMultiplier": false
    },
    "efeito": "",
    "alcance": "none",
    "alvo": "",
    "area": "",
    "resistencia": {
      "pericia": "",
      "atributo": "sab",
      "bonus": 0,
      "txt": ""
    },
    "rolls": [],
    "tipo": "geral",
    "subtipo": "Magia",
    "origin": "",
    "tags": [],
    "chatFlavor": "",
    "chatGif": ""
  },
  "ownership": {
    "default": 0
  },
  "_stats": {
    "systemId": "tormenta20",
    "systemVersion": "1.4.116",
    "coreVersion": "11.298",
    "createdTime": 1664306183807,
    "modifiedTime": 1684630371462,
    "lastModifiedBy": "ZWR5Tn3AhSIFqwp6"
  },
  "_key": "!items!B1vQTUXRBiqhcmmH"
}
