{
  "_id": "cgYwUcWVGrsAqVWF",
  "name": "Magias (Clérigo)",
  "type": "poder",
  "img": "systems/tormenta20/icons/poderes/classes/conjuradores/magias-c.webp",
  "effects": [],
  "folder": "RDLTxoI4mIyfR6dr",
  "sort": 0,
  "flags": {
    "core": {
      "sourceId": "Compendium.tormenta20.poderes.cgYwUcWVGrsAqVWF"
    }
  },
  "system": {
    "description": {
      "value": "<p style=\"text-align: justify;\">Voc&ecirc; pode lan&ccedil;ar magias divinas de 1&ordm; c&iacute;rculo. A cada quatro n&iacute;veis, pode lan&ccedil;ar magias de um c&iacute;rculo maior (2&ordm; c&iacute;rculo no 5&ordm; n&iacute;vel, 3&ordm; c&iacute;rculo no 9&ordm; n&iacute;vel e assim por diante).</p>\n<p style=\"text-align: justify;\">Voc&ecirc; come&ccedil;a com tr&ecirc;s magias de 1&ordm; c&iacute;rculo. A cada n&iacute;vel, aprende uma magia de qualquer c&iacute;rculo que possa lan&ccedil;ar.</p>\n<p style=\"text-align: justify;\">Seu atributo-chave para lan&ccedil;ar magias &eacute; Sabedoria e voc&ecirc; soma sua Sabedoria no seu total de PM. Veja o Cap&iacute;tulo 4 para as regras de magia.</p>",
      "chat": "",
      "unidentified": ""
    },
    "source": "",
    "ativacao": {
      "execucao": "",
      "custo": 0,
      "qtd": "",
      "condicao": "",
      "special": ""
    },
    "duracao": {
      "value": 0,
      "units": "",
      "special": ""
    },
    "target": {
      "value": null,
      "width": null,
      "units": "",
      "type": ""
    },
    "range": {
      "value": null,
      "units": ""
    },
    "consume": {
      "type": "",
      "target": "",
      "amount": null,
      "mpMultiplier": false
    },
    "efeito": "",
    "alcance": "none",
    "alvo": "",
    "area": "",
    "resistencia": {
      "pericia": "",
      "atributo": "sab",
      "bonus": 0,
      "txt": ""
    },
    "rolls": [],
    "tipo": "ability",
    "subtipo": "Clérigo",
    "origin": "",
    "tags": [],
    "chatFlavor": "",
    "chatGif": ""
  },
  "ownership": {
    "default": 0
  },
  "_stats": {
    "systemId": "tormenta20",
    "systemVersion": "1.4.116",
    "coreVersion": "11.298",
    "createdTime": 1666306933349,
    "modifiedTime": 1684630371462,
    "lastModifiedBy": "ZWR5Tn3AhSIFqwp6"
  },
  "_key": "!items!cgYwUcWVGrsAqVWF"
}
