{
  "folder": "VzNpCz1wSE1Ln6lH",
  "name": "Monstros",
  "sorting": "a",
  "type": "Item",
  "_id": "lKFadrclju4033OJ",
  "sort": 0,
  "flags": {},
  "_stats": {
    "systemId": null,
    "systemVersion": null,
    "coreVersion": null,
    "createdTime": null,
    "modifiedTime": null,
    "lastModifiedBy": null
  },
  "_key": "!folders!lKFadrclju4033OJ"
}
