{
  "_id": "84B6ijPdmLw9Rdsl",
  "name": "Montaria Corajosa",
  "type": "poder",
  "img": "systems/tormenta20/icons/classes/cavaleiro.webp",
  "effects": [
    {
      "label": "Montaria Corajosa",
      "icon": "systems/tormenta20/icons/classes/cavaleiro.webp",
      "origin": "Item.84B6ijPdmLw9Rdsl",
      "tint": "#FFFFFF",
      "flags": {
        "tormenta20": {
          "onuse": false,
          "durationScene": false
        }
      },
      "duration": {
        "startTime": null,
        "seconds": null,
        "combat": null,
        "rounds": null,
        "turns": null,
        "startRound": null,
        "startTurn": null
      },
      "disabled": false,
      "_id": "ZNtksLOVfdawCSlG",
      "changes": [
        {
          "key": "system.modificadores.dano.cac",
          "mode": 2,
          "value": "1d6",
          "priority": null
        }
      ],
      "transfer": true,
      "_key": "!items.effects!84B6ijPdmLw9Rdsl.ZNtksLOVfdawCSlG"
    }
  ],
  "folder": "FOdOQA7oDXTWqj5Z",
  "sort": 0,
  "flags": {
    "core": {
      "sourceId": "Compendium.tormenta20.poderes.84B6ijPdmLw9Rdsl"
    }
  },
  "system": {
    "description": {
      "value": "<p style=\"text-align: justify;\">Sua montaria concede +1d6 em rolagens de dano corpo a corpo (cumulativo com qualquer b&ocirc;nus que ela j&aacute; forne&ccedil;a como parceiro). <em>Pr&eacute;-requisito:</em> Montaria.</p>",
      "chat": "",
      "unidentified": ""
    },
    "source": "T20, pg. 54 (JdA)",
    "ativacao": {
      "execucao": "",
      "custo": 0,
      "qtd": "",
      "condicao": "",
      "special": ""
    },
    "duracao": {
      "value": 0,
      "units": "",
      "special": ""
    },
    "target": {
      "value": null,
      "width": null,
      "units": "",
      "type": ""
    },
    "range": {
      "value": null,
      "units": ""
    },
    "consume": {
      "type": "",
      "target": "",
      "amount": null,
      "mpMultiplier": false
    },
    "efeito": "",
    "alcance": "none",
    "alvo": "",
    "area": "",
    "resistencia": {
      "pericia": "",
      "atributo": "sab",
      "bonus": 0,
      "txt": ""
    },
    "rolls": [],
    "tipo": "classe",
    "subtipo": "Cavaleiro",
    "origin": "",
    "tags": [],
    "chatFlavor": "",
    "chatGif": ""
  },
  "ownership": {
    "default": 0
  },
  "_stats": {
    "systemId": "tormenta20",
    "systemVersion": "1.4.116",
    "coreVersion": "11.298",
    "createdTime": 1664306183330,
    "modifiedTime": 1684630371462,
    "lastModifiedBy": "ZWR5Tn3AhSIFqwp6"
  },
  "_key": "!items!84B6ijPdmLw9Rdsl"
}
