{
  "_id": "KZBYNBs2jj4D0jfn",
  "name": "Palavras de Bondade",
  "type": "poder",
  "img": "systems/tormenta20/icons/poderes/concedidos-paz.webp",
  "effects": [
    {
      "label": "Palavras de Bondade",
      "icon": "icons/svg/upgrade.svg",
      "origin": "Item.KZBYNBs2jj4D0jfn",
      "tint": "#FFFFFF",
      "flags": {
        "tormenta20": {
          "onuse": true,
          "durationScene": false,
          "self": false,
          "attack": false,
          "skill": false,
          "ability": false,
          "power": false,
          "spell": true,
          "consumable": false,
          "items": "enfeiticar",
          "aumenta": false,
          "custo": "-1"
        }
      },
      "duration": {
        "startTime": null,
        "seconds": null,
        "combat": null,
        "rounds": null,
        "turns": null,
        "startRound": null,
        "startTurn": null
      },
      "disabled": true,
      "_id": "uA4cDPuCtoGLApgk",
      "changes": [],
      "transfer": true,
      "_key": "!items.effects!KZBYNBs2jj4D0jfn.uA4cDPuCtoGLApgk"
    }
  ],
  "folder": "3ZaDMvQAI4O8pybK",
  "sort": 0,
  "flags": {
    "core": {
      "sourceId": "Compendium.tormenta20.poderes.KZBYNBs2jj4D0jfn"
    }
  },
  "system": {
    "description": {
      "value": "<p style=\"text-align: justify;\">Voc&ecirc; aprende e pode lan&ccedil;ar <em>Enfeiti&ccedil;ar</em>. Caso aprenda novamente essa magia, seu custo diminui em &ndash;1 PM.</p>",
      "chat": "",
      "unidentified": ""
    },
    "source": "T20, pg. 134 (JdA)",
    "ativacao": {
      "execucao": "",
      "custo": 0,
      "qtd": "",
      "condicao": "",
      "special": ""
    },
    "duracao": {
      "value": 0,
      "units": "",
      "special": ""
    },
    "target": {
      "value": null,
      "width": null,
      "units": "",
      "type": ""
    },
    "range": {
      "value": null,
      "units": ""
    },
    "consume": {
      "type": "",
      "target": "",
      "amount": null,
      "mpMultiplier": false
    },
    "efeito": "",
    "alcance": "none",
    "alvo": "",
    "area": "",
    "resistencia": {
      "pericia": "",
      "atributo": "sab",
      "bonus": 0,
      "txt": ""
    },
    "rolls": [],
    "tipo": "concedido",
    "subtipo": "Paz",
    "origin": "",
    "tags": [],
    "chatFlavor": "",
    "chatGif": ""
  },
  "ownership": {
    "default": 0
  },
  "_stats": {
    "systemId": "tormenta20",
    "systemVersion": "1.4.116",
    "coreVersion": "11.298",
    "createdTime": 1664306184241,
    "modifiedTime": 1684630371462,
    "lastModifiedBy": "ZWR5Tn3AhSIFqwp6"
  },
  "_key": "!items!KZBYNBs2jj4D0jfn"
}
