{
  "folder": "VzNpCz1wSE1Ln6lH",
  "name": "Paz",
  "sorting": "a",
  "type": "Item",
  "_id": "3ZaDMvQAI4O8pybK",
  "sort": 0,
  "flags": {},
  "_stats": {
    "systemId": null,
    "systemVersion": null,
    "coreVersion": null,
    "createdTime": null,
    "modifiedTime": null,
    "lastModifiedBy": null
  },
  "_key": "!folders!3ZaDMvQAI4O8pybK"
}
