{
  "_id": "y0onvqs27lHcbJK5",
  "name": "Peste Esguia",
  "type": "poder",
  "img": "systems/tormenta20/icons/racas/goblin.webp",
  "effects": [
    {
      "_id": "ehybDa2i9Kvt1dkd",
      "changes": [
        {
          "key": "system.attributes.movement.walk",
          "mode": 5,
          "value": "9",
          "priority": null
        },
        {
          "key": "system.tracos.tamanho",
          "mode": 5,
          "value": "peq",
          "priority": null
        }
      ],
      "disabled": false,
      "duration": {
        "startTime": null,
        "seconds": null,
        "combat": null,
        "rounds": null,
        "turns": null,
        "startRound": null,
        "startTurn": null
      },
      "icon": "systems/tormenta20/icons/racas/goblin.webp",
      "label": "Peste Esguia",
      "origin": "Item.MqcETRAFEr4mNDGU",
      "transfer": true,
      "flags": {
        "tormenta20": {
          "onuse": false,
          "durationScene": false
        }
      },
      "tint": null,
      "_key": "!items.effects!y0onvqs27lHcbJK5.ehybDa2i9Kvt1dkd"
    }
  ],
  "folder": "dlQytstdFJCCmHM7",
  "sort": 0,
  "flags": {
    "core": {
      "sourceId": "Compendium.tormenta20.poderes.y0onvqs27lHcbJK5"
    },
    "cf": null
  },
  "system": {
    "description": {
      "value": "<p style=\"text-align:justify;\">Seu tamanho é Pequeno (veja a página 106), mas seu deslocamento se mantém 9m. Apesar de pequenos, goblins são rápidos.</p>",
      "chat": "",
      "unidentified": ""
    },
    "source": "T20, pg. 23 (JdA)",
    "ativacao": {
      "execucao": "",
      "custo": 0,
      "qtd": "",
      "condicao": "",
      "special": ""
    },
    "duracao": {
      "value": 0,
      "units": "",
      "special": ""
    },
    "target": {
      "value": null,
      "width": null,
      "units": "",
      "type": ""
    },
    "range": {
      "value": null,
      "units": ""
    },
    "consume": {
      "type": "",
      "target": "",
      "amount": null,
      "mpMultiplier": false
    },
    "efeito": "",
    "alcance": "none",
    "alvo": "",
    "area": "",
    "resistencia": {
      "pericia": "",
      "atributo": "sab",
      "bonus": 0,
      "txt": ""
    },
    "rolls": [],
    "tipo": "racial",
    "subtipo": "Goblin",
    "chatFlavor": "",
    "origin": "",
    "tags": [],
    "chatGif": ""
  },
  "ownership": {
    "default": 0
  },
  "_stats": {
    "systemId": "tormenta20",
    "systemVersion": "1.4.116",
    "coreVersion": "11.298",
    "createdTime": 1664306185704,
    "modifiedTime": 1684630371462,
    "lastModifiedBy": "ZWR5Tn3AhSIFqwp6"
  },
  "_key": "!items!y0onvqs27lHcbJK5"
}
