{
  "_id": "lRU3pcPPxMFOU58V",
  "name": "Postura de Combate: Foco de Batalha",
  "type": "poder",
  "img": "systems/tormenta20/icons/classes/cavaleiro.webp",
  "effects": [
    {
      "label": "Postura de Combate: Foco de Batalha",
      "icon": "systems/tormenta20/icons/classes/cavaleiro.webp",
      "origin": "Item.lRU3pcPPxMFOU58V",
      "tint": "#FFFFFF",
      "flags": {
        "tormenta20": {
          "onuse": false,
          "durationScene": true
        }
      },
      "duration": {
        "rounds": 1,
        "startTime": null,
        "seconds": null,
        "combat": null,
        "turns": null,
        "startRound": null,
        "startTurn": null
      },
      "disabled": false,
      "_id": "1nSVWvCZH6dwT4sB",
      "changes": [],
      "transfer": false,
      "_key": "!items.effects!lRU3pcPPxMFOU58V.1nSVWvCZH6dwT4sB"
    }
  ],
  "folder": "FOdOQA7oDXTWqj5Z",
  "sort": 0,
  "flags": {
    "core": {
      "sourceId": "Compendium.tormenta20.poderes.lRU3pcPPxMFOU58V"
    }
  },
  "system": {
    "description": {
      "value": "<p style=\"text-align: justify;\">Sempre que um inimigo atac&aacute;-lo, voc&ecirc; recebe 1 PM tempor&aacute;rio. Voc&ecirc; pode ganhar um m&aacute;ximo de PM tempor&aacute;rio por cena igual seu n&iacute;vel. Pontos de mana tempor&aacute;rios desaparecem no final da cena.</p>",
      "chat": "",
      "unidentified": ""
    },
    "source": "T20, pg. 54 (JdA)",
    "ativacao": {
      "execucao": "move",
      "custo": 2,
      "qtd": "",
      "condicao": "",
      "special": ""
    },
    "duracao": {
      "value": 0,
      "units": "",
      "special": ""
    },
    "target": {
      "value": null,
      "width": null,
      "units": "",
      "type": ""
    },
    "range": {
      "value": null,
      "units": ""
    },
    "consume": {
      "type": "",
      "target": "",
      "amount": null,
      "mpMultiplier": false
    },
    "efeito": "",
    "alcance": "none",
    "alvo": "",
    "area": "",
    "resistencia": {
      "pericia": "",
      "atributo": "sab",
      "bonus": 0,
      "txt": ""
    },
    "rolls": [],
    "tipo": "classe",
    "subtipo": "Cavaleiro",
    "origin": "",
    "tags": [],
    "chatFlavor": "",
    "chatGif": ""
  },
  "ownership": {
    "default": 0
  },
  "_stats": {
    "systemId": "tormenta20",
    "systemVersion": "1.4.116",
    "coreVersion": "11.298",
    "createdTime": 1664306185144,
    "modifiedTime": 1684630371462,
    "lastModifiedBy": "ZWR5Tn3AhSIFqwp6"
  },
  "_key": "!items!lRU3pcPPxMFOU58V"
}
