{
  "_id": "mlzUTxfA4loIefuG",
  "name": "Raio Arcano",
  "type": "poder",
  "img": "systems/tormenta20/icons/classes/arcanista.webp",
  "effects": [
    {
      "icon": "icons/svg/upgrade.svg",
      "origin": "Item.mlzUTxfA4loIefuG",
      "tint": "#FFFFFF",
      "flags": {
        "tormenta20": {
          "onuse": true,
          "durationScene": false,
          "self": true,
          "attack": false,
          "skill": false,
          "ability": false,
          "power": false,
          "spell": false,
          "consumable": false,
          "items": "",
          "aumenta": true,
          "custo": "",
          "equipment": false
        }
      },
      "duration": {
        "startTime": null,
        "seconds": null,
        "combat": null,
        "rounds": null,
        "turns": null,
        "startRound": null,
        "startTurn": null
      },
      "disabled": true,
      "_id": "vB29YFPodB7vEd1r",
      "changes": [
        {
          "key": "dano",
          "mode": 0,
          "value": "1d8",
          "priority": 0
        }
      ],
      "transfer": false,
      "name": "Raio Arcano: Aumenta o dano em 1d8 para cada círculo de magia acima do 1º que puder lançar.",
      "description": "",
      "statuses": [],
      "_key": "!items.effects!mlzUTxfA4loIefuG.vB29YFPodB7vEd1r"
    }
  ],
  "folder": "dB8yQeNYIsAMdhNN",
  "sort": 0,
  "flags": {
    "core": {
      "sourceId": "Compendium.tormenta20.poderes.mlzUTxfA4loIefuG"
    }
  },
  "system": {
    "description": {
      "value": "<p style=\"text-align: justify;\">Voc&ecirc; pode gastar uma a&ccedil;&atilde;o padr&atilde;o para causar 1d8 pontos de dano de ess&ecirc;ncia num alvo em alcance curto. Esse dano aumenta em +1d8 para cada c&iacute;rculo de magia acima do 1&ordm; que voc&ecirc; puder lan&ccedil;ar. O alvo pode fazer um teste de Reflexos (CD atributo-chave) para reduzir o dano &agrave; metade. O raio arcano conta como uma magia para efeitos de habilidades e itens que beneficiem suas magias.</p>\n<p style=\"text-align: justify;\">&nbsp;</p>\n<p style=\"text-align: justify;\">&nbsp;</p>",
      "chat": "",
      "unidentified": ""
    },
    "source": "T20, pg. 39 (JdA)",
    "ativacao": {
      "execucao": "action",
      "custo": 0,
      "qtd": "",
      "condicao": "",
      "special": ""
    },
    "duracao": {
      "value": 0,
      "units": "",
      "special": ""
    },
    "target": {
      "value": null,
      "width": null,
      "units": "",
      "type": ""
    },
    "range": {
      "value": null,
      "units": ""
    },
    "consume": {
      "type": "",
      "target": "",
      "amount": null,
      "mpMultiplier": false
    },
    "efeito": "",
    "alcance": "short",
    "alvo": "",
    "area": "",
    "resistencia": {
      "pericia": "",
      "atributo": "",
      "bonus": 0,
      "txt": "Reflexos"
    },
    "rolls": [
      {
        "name": "Dano",
        "key": "dano0",
        "type": "dano",
        "parts": [
          [
            "1d8",
            "essencia",
            ""
          ]
        ]
      }
    ],
    "tipo": "classe",
    "subtipo": "Arcanista",
    "tags": [
      "Arcanista"
    ],
    "origin": "",
    "chatFlavor": "",
    "chatGif": ""
  },
  "ownership": {
    "default": 0
  },
  "_stats": {
    "systemId": "tormenta20",
    "systemVersion": "1.4.201",
    "coreVersion": "11.306",
    "createdTime": 1664306185150,
    "modifiedTime": 1690154786885,
    "lastModifiedBy": "izTN2S0Mlytej3sI"
  },
  "_key": "!items!mlzUTxfA4loIefuG"
}
