{
  "_id": "3AyZ8AOGrzH0rHMw",
  "name": "Reptiliano",
  "type": "poder",
  "img": "systems/tormenta20/icons/racas/trog.webp",
  "effects": [
    {
      "_id": "P9FyEx2kKVCKuHMD",
      "flags": {
        "t20": null,
        "tormenta20": {
          "onuse": false,
          "durationScene": false
        }
      },
      "changes": [
        {
          "key": "system.attributes.defesa.bonus",
          "mode": 2,
          "value": "1",
          "priority": null
        }
      ],
      "disabled": false,
      "duration": {
        "startTime": null,
        "seconds": null,
        "combat": null,
        "rounds": null,
        "turns": null,
        "startRound": null,
        "startTurn": null
      },
      "icon": "systems/tormenta20/icons/racas/trog.webp",
      "label": "Reptiliano (Defesa)",
      "origin": "Item.t7bGdeKlw6DzlNHN",
      "tint": null,
      "transfer": true,
      "_key": "!items.effects!3AyZ8AOGrzH0rHMw.P9FyEx2kKVCKuHMD"
    },
    {
      "_id": "EUk9D2pS6pcnFvTh",
      "changes": [
        {
          "key": "roll",
          "mode": 2,
          "value": "5",
          "priority": 0
        }
      ],
      "disabled": true,
      "duration": {
        "startTime": null,
        "seconds": null,
        "combat": null,
        "rounds": null,
        "turns": null,
        "startRound": null,
        "startTurn": null
      },
      "icon": "icons/svg/upgrade.svg",
      "label": "Reptiliano (Furtividade)",
      "origin": "Item.mZDwn0eLrMz85Cd3",
      "transfer": true,
      "flags": {
        "tormenta20": {
          "onuse": true,
          "skill": true,
          "self": false,
          "attack": false,
          "ability": false,
          "power": false,
          "spell": false,
          "consumable": false,
          "aumenta": false,
          "custo": "",
          "durationScene": false,
          "items": "furtividade"
        }
      },
      "tint": null,
      "_key": "!items.effects!3AyZ8AOGrzH0rHMw.EUk9D2pS6pcnFvTh"
    }
  ],
  "folder": "yZkJsw7mVnvsffNC",
  "sort": 0,
  "flags": {
    "core": {
      "sourceId": "Compendium.tormenta20.poderes.3AyZ8AOGrzH0rHMw"
    },
    "cf": null
  },
  "system": {
    "description": {
      "value": "<p style=\"text-align:justify;\">Você é uma criatura do tipo monstro e recebe visão no escuro, +1 na Defesa e, se estiver sem armadura ou roupas pesadas, +5 em Furtividade.</p>",
      "chat": "",
      "unidentified": ""
    },
    "source": "T20, pg. 31 (JdA)",
    "ativacao": {
      "execucao": "",
      "custo": 0,
      "qtd": "",
      "condicao": "",
      "special": ""
    },
    "duracao": {
      "value": 0,
      "units": "",
      "special": ""
    },
    "target": {
      "value": null,
      "width": null,
      "units": "",
      "type": ""
    },
    "range": {
      "value": null,
      "units": ""
    },
    "consume": {
      "type": "",
      "target": "",
      "amount": null,
      "mpMultiplier": false
    },
    "efeito": "",
    "alcance": "none",
    "alvo": "",
    "area": "",
    "resistencia": {
      "pericia": "",
      "atributo": "sab",
      "bonus": 0,
      "txt": ""
    },
    "rolls": [],
    "tipo": "racial",
    "subtipo": "Trog",
    "chatFlavor": "",
    "origin": "",
    "tags": [],
    "chatGif": ""
  },
  "ownership": {
    "default": 0
  },
  "_stats": {
    "systemId": "tormenta20",
    "systemVersion": "1.4.116",
    "coreVersion": "11.298",
    "createdTime": 1664306183303,
    "modifiedTime": 1684630371462,
    "lastModifiedBy": "ZWR5Tn3AhSIFqwp6"
  },
  "_key": "!items!3AyZ8AOGrzH0rHMw"
}
