{
  "_id": "HUdNN0VdkkDWVpmQ",
  "name": "Sangue de Ferro",
  "type": "poder",
  "img": "systems/tormenta20/icons/poderes/concedidos-guerra.webp",
  "effects": [
    {
      "_id": "yilTRrW10NuRekB7",
      "changes": [
        {
          "key": "system.tracos.resistencias.dano.value",
          "mode": 2,
          "value": "5",
          "priority": null
        },
        {
          "key": "system.modificadores.dano.cac",
          "mode": 2,
          "value": "2",
          "priority": null
        },
        {
          "key": "system.modificadores.dano.ad",
          "mode": 2,
          "value": "2",
          "priority": null
        },
        {
          "key": "system.modificadores.dano.mag",
          "mode": 2,
          "value": "2",
          "priority": null
        }
      ],
      "disabled": false,
      "duration": {
        "rounds": 1,
        "startTime": null,
        "seconds": null,
        "combat": null,
        "turns": null,
        "startRound": null,
        "startTurn": null
      },
      "icon": "systems/tormenta20/icons/poderes/concedidos-guerra.webp",
      "label": "Sangue de Ferro",
      "origin": "Item.9UUP0505YQQyZgGb",
      "transfer": false,
      "flags": {
        "tormenta20": {
          "onuse": false,
          "durationScene": true
        }
      },
      "tint": null,
      "_key": "!items.effects!HUdNN0VdkkDWVpmQ.yilTRrW10NuRekB7"
    }
  ],
  "folder": "kdQy5G7zb5MvHB7N",
  "sort": 0,
  "flags": {
    "core": {
      "sourceId": "Compendium.tormenta20.poderes.HUdNN0VdkkDWVpmQ"
    },
    "cf": null
  },
  "system": {
    "description": {
      "value": "<p style=\"text-align: justify;\">Voc&ecirc; pode pagar 3 PM para receber +2 em rolagens de dano e redu&ccedil;&atilde;o de dano 5 at&eacute; o fim da cena.</p>",
      "chat": "",
      "unidentified": ""
    },
    "source": "T20, pg. 135 (JdA)",
    "ativacao": {
      "execucao": "",
      "custo": 3,
      "qtd": "",
      "condicao": "",
      "special": ""
    },
    "duracao": {
      "value": 0,
      "units": "",
      "special": ""
    },
    "target": {
      "value": null,
      "width": null,
      "units": "",
      "type": ""
    },
    "range": {
      "value": null,
      "units": ""
    },
    "consume": {
      "type": "",
      "target": "",
      "amount": null,
      "mpMultiplier": false
    },
    "efeito": "",
    "alcance": "none",
    "alvo": "",
    "area": "",
    "resistencia": {
      "pericia": "",
      "atributo": "sab",
      "bonus": 0,
      "txt": ""
    },
    "rolls": [],
    "tipo": "concedido",
    "subtipo": "Guerra",
    "chatFlavor": "",
    "origin": "",
    "tags": [],
    "chatGif": ""
  },
  "ownership": {
    "default": 0
  },
  "_stats": {
    "systemId": "tormenta20",
    "systemVersion": "1.4.116",
    "coreVersion": "11.298",
    "createdTime": 1664306183903,
    "modifiedTime": 1684630371462,
    "lastModifiedBy": "ZWR5Tn3AhSIFqwp6"
  },
  "_key": "!items!HUdNN0VdkkDWVpmQ"
}
