{
  "_id": "QEkw59wKjXEN2IMZ",
  "name": "Sentidos Aguçados",
  "type": "poder",
  "img": "systems/tormenta20/icons/poderes/destino.webp",
  "effects": [
    {
      "_id": "0blvcj4jRD8yxeGn",
      "flags": {
        "t20": null,
        "tormenta20": {
          "onuse": false,
          "durationScene": false
        }
      },
      "changes": [
        {
          "key": "system.pericias.perc.bonus",
          "mode": 2,
          "value": "2",
          "priority": null
        }
      ],
      "disabled": false,
      "duration": {
        "startTime": null,
        "seconds": null,
        "combat": null,
        "rounds": null,
        "turns": null,
        "startRound": null,
        "startTurn": null
      },
      "icon": "systems/tormenta20/icons/poderes/destino.webp",
      "label": "Sentidos Aguçados",
      "origin": "Item.q6On6q29Fj6YtXzJ",
      "tint": null,
      "transfer": true,
      "_key": "!items.effects!QEkw59wKjXEN2IMZ.0blvcj4jRD8yxeGn"
    }
  ],
  "folder": "NvFFFNI6JHPuMkck",
  "sort": 0,
  "flags": {
    "core": {
      "sourceId": "Compendium.tormenta20.poderes.QEkw59wKjXEN2IMZ"
    }
  },
  "system": {
    "description": {
      "value": "<p style=\"text-align: justify;\">Voc&ecirc; recebe +2 em Percep&ccedil;&atilde;o, n&atilde;o fica desprevenido contra inimigos que n&atilde;o possa ver e, sempre que erra um ataque devido a camuflagem ou camuflagem total, pode rolar mais uma vez o dado da chance de falha.</p>\n<p style=\"text-align: justify;\"><em>Pr&eacute;-requisitos:</em> Sab 1, treinado em Percep&ccedil;&atilde;o.</p>",
      "chat": "",
      "unidentified": ""
    },
    "source": "T20, pg. 130 (JdA)",
    "ativacao": {
      "execucao": "",
      "custo": 0,
      "qtd": "",
      "condicao": "",
      "special": ""
    },
    "duracao": {
      "value": 0,
      "units": "",
      "special": ""
    },
    "target": {
      "value": null,
      "width": null,
      "units": "",
      "type": ""
    },
    "range": {
      "value": null,
      "units": ""
    },
    "consume": {
      "type": "",
      "target": "",
      "amount": null,
      "mpMultiplier": false
    },
    "efeito": "",
    "alcance": "none",
    "alvo": "",
    "area": "",
    "resistencia": {
      "pericia": "",
      "atributo": "sab",
      "bonus": 0,
      "txt": ""
    },
    "rolls": [],
    "tipo": "geral",
    "subtipo": "Destino",
    "chatFlavor": "",
    "origin": "",
    "tags": [],
    "chatGif": ""
  },
  "ownership": {
    "default": 0
  },
  "_stats": {
    "systemId": "tormenta20",
    "systemVersion": "1.4.116",
    "coreVersion": "11.298",
    "createdTime": 1664306184297,
    "modifiedTime": 1684630371462,
    "lastModifiedBy": "ZWR5Tn3AhSIFqwp6"
  },
  "_key": "!items!QEkw59wKjXEN2IMZ"
}
