{
  "_id": "85VYFnsUNdUTjYtp",
  "name": "Sombra",
  "type": "poder",
  "img": "systems/tormenta20/icons/classes/ladino.webp",
  "effects": [
    {
      "_id": "eQLkWDLqPthuXdML",
      "changes": [
        {
          "key": "system.pericias.furt.bonus",
          "mode": 2,
          "value": "2",
          "priority": null
        }
      ],
      "disabled": false,
      "duration": {
        "startTime": null,
        "seconds": null,
        "combat": null,
        "rounds": null,
        "turns": null,
        "startRound": null,
        "startTurn": null
      },
      "icon": "systems/tormenta20/icons/classes/ladino.webp",
      "label": "Sombra",
      "origin": "Item.Sc713NLhozPmCYAg",
      "transfer": true,
      "flags": {
        "tormenta20": {
          "onuse": false,
          "durationScene": false
        }
      },
      "tint": null,
      "_key": "!items.effects!85VYFnsUNdUTjYtp.eQLkWDLqPthuXdML"
    }
  ],
  "folder": "E9EyD0Wrr8C91ZpV",
  "sort": 0,
  "flags": {
    "core": {
      "sourceId": "Compendium.tormenta20.poderes.85VYFnsUNdUTjYtp"
    },
    "cf": null
  },
  "system": {
    "description": {
      "value": "<p style=\"text-align: justify;\">Voc&ecirc; recebe +2 em <a class=\"content-link\" draggable=\"true\" data-uuid=\"Compendium.tormenta20.pericias.u2FeyQUF5rSu9ec3\" data-id=\"u2FeyQUF5rSu9ec3\" data-type=\"JournalEntry\" data-pack=\"tormenta20.pericias\" data-tooltip=\"Registro de Di&aacute;rio\">Furtividade</a>, n&atilde;o sofre penalidade em testes de Furtividade por se mover no seu deslocamento normal e reduz a penalidade por atacar e fazer outras a&ccedil;&otilde;es chamativas para &ndash;10.</p>\n<p style=\"text-align: justify;\"><em>Pr&eacute;-requisito:</em> treinado em Furtividade.</p>",
      "chat": "",
      "unidentified": ""
    },
    "source": "T20, pg. 74 (JdA)",
    "ativacao": {
      "execucao": "passive",
      "custo": 0,
      "qtd": "",
      "condicao": "",
      "special": ""
    },
    "duracao": {
      "value": 0,
      "units": "",
      "special": ""
    },
    "target": {
      "value": null,
      "width": null,
      "units": "",
      "type": ""
    },
    "range": {
      "value": null,
      "units": ""
    },
    "consume": {
      "type": "",
      "target": "",
      "amount": null,
      "mpMultiplier": false
    },
    "efeito": "",
    "alcance": "none",
    "alvo": "",
    "area": "",
    "resistencia": {
      "pericia": "",
      "atributo": "sab",
      "bonus": 0,
      "txt": ""
    },
    "rolls": [],
    "tipo": "classe",
    "subtipo": "Ladino",
    "chatFlavor": "",
    "origin": "",
    "tags": [],
    "chatGif": ""
  },
  "ownership": {
    "default": 0
  },
  "_stats": {
    "systemId": "tormenta20",
    "systemVersion": "1.4.116",
    "coreVersion": "11.298",
    "createdTime": 1664306183331,
    "modifiedTime": 1684630371462,
    "lastModifiedBy": "ZWR5Tn3AhSIFqwp6"
  },
  "_key": "!items!85VYFnsUNdUTjYtp"
}
