{
  "folder": "VzNpCz1wSE1Ln6lH",
  "name": "Traição",
  "sorting": "a",
  "type": "Item",
  "_id": "s8308RXiyAhaEjoG",
  "sort": 0,
  "flags": {},
  "_stats": {
    "systemId": null,
    "systemVersion": null,
    "coreVersion": null,
    "createdTime": null,
    "modifiedTime": null,
    "lastModifiedBy": null
  },
  "_key": "!folders!s8308RXiyAhaEjoG"
}
