{
  "folder": "VzNpCz1wSE1Ln6lH",
  "name": "Trevas",
  "sorting": "a",
  "type": "Item",
  "_id": "vjNvA2uCSyNhVjrU",
  "sort": 0,
  "flags": {},
  "_stats": {
    "systemId": null,
    "systemVersion": null,
    "coreVersion": null,
    "createdTime": null,
    "modifiedTime": null,
    "lastModifiedBy": null
  },
  "_key": "!folders!vjNvA2uCSyNhVjrU"
}
