{
  "_id": "0PPKBaYtiiMsKj0g",
  "name": "Voadora",
  "type": "poder",
  "img": "systems/tormenta20/icons/classes/lutador.webp",
  "effects": [
    {
      "_id": "gPvalRP6e34Vc6IA",
      "changes": [
        {
          "key": "dano",
          "mode": 2,
          "value": "1d6",
          "priority": null
        }
      ],
      "disabled": true,
      "duration": {
        "startTime": null,
        "seconds": null,
        "combat": null,
        "rounds": null,
        "turns": null,
        "startRound": null,
        "startTurn": null
      },
      "icon": "icons/svg/upgrade.svg",
      "label": "Voadora",
      "origin": "Compendium.tormenta20.poderes.0PPKBaYtiiMsKj0g",
      "transfer": true,
      "flags": {
        "tormenta20": {
          "onuse": true,
          "attack": true,
          "self": false,
          "skill": false,
          "ability": false,
          "power": false,
          "spell": false,
          "consumable": false,
          "aumenta": false,
          "custo": "2",
          "durationScene": false
        }
      },
      "tint": null,
      "_key": "!items.effects!0PPKBaYtiiMsKj0g.gPvalRP6e34Vc6IA"
    },
    {
      "_id": "AtMq2fF2YMvWHHAy",
      "changes": [
        {
          "key": "dano",
          "mode": 2,
          "value": "1d6",
          "priority": 0
        }
      ],
      "disabled": true,
      "duration": {
        "startTime": null,
        "seconds": null,
        "combat": null,
        "rounds": null,
        "turns": null,
        "startRound": null,
        "startTurn": null
      },
      "icon": "icons/svg/upgrade.svg",
      "label": "Voadora: +1d6 pra cada 3m percorrido.",
      "origin": "Compendium.tormenta20.poderes.0PPKBaYtiiMsKj0g",
      "transfer": true,
      "flags": {
        "tormenta20": {
          "onuse": true,
          "attack": true,
          "self": false,
          "skill": false,
          "ability": false,
          "power": false,
          "spell": false,
          "consumable": false,
          "aumenta": true,
          "custo": "",
          "durationScene": false,
          "items": ""
        }
      },
      "tint": null,
      "_key": "!items.effects!0PPKBaYtiiMsKj0g.AtMq2fF2YMvWHHAy"
    }
  ],
  "folder": "csRpG81AedPycko0",
  "sort": 0,
  "flags": {
    "core": {
      "sourceId": "Compendium.tormenta20.poderes.0PPKBaYtiiMsKj0g"
    }
  },
  "system": {
    "description": {
      "value": "<p style=\"text-align: justify;\">Quando faz uma investida desarmada, voc&ecirc; pode gastar 2 PM. Se fizer isso, recebe +1d6 no dano para cada 3m que se deslocar at&eacute; chegar ao oponente, limitado pelo seu n&iacute;vel.</p>",
      "chat": "",
      "unidentified": ""
    },
    "source": "T20, pg. 77 (JdA)",
    "ativacao": {
      "execucao": "reaction",
      "custo": 2,
      "qtd": "",
      "condicao": "",
      "special": ""
    },
    "duracao": {
      "value": 0,
      "units": "",
      "special": ""
    },
    "target": {
      "value": null,
      "width": null,
      "units": "",
      "type": ""
    },
    "range": {
      "value": null,
      "units": ""
    },
    "consume": {
      "type": "",
      "target": "",
      "amount": null,
      "mpMultiplier": false
    },
    "efeito": "",
    "alcance": "none",
    "alvo": "",
    "area": "",
    "resistencia": {
      "pericia": "",
      "atributo": "sab",
      "bonus": 0,
      "txt": ""
    },
    "rolls": [],
    "tipo": "classe",
    "subtipo": "Lutador",
    "origin": "",
    "tags": [],
    "chatFlavor": "",
    "chatGif": ""
  },
  "ownership": {
    "default": 0
  },
  "_stats": {
    "systemId": "tormenta20",
    "systemVersion": "1.4.116",
    "coreVersion": "11.298",
    "createdTime": 1664306183281,
    "modifiedTime": 1684630371462,
    "lastModifiedBy": "ZWR5Tn3AhSIFqwp6"
  },
  "_key": "!items!0PPKBaYtiiMsKj0g"
}
