{
  "name": "Marrada",
  "type": "poder",
  "img": "systems/tormenta20/icons/poderes/ameacas/marrada.webp",
  "system": {
    "description": {
      "value": "<p style=\"text-align: justify;\">O guerreiro de chifres faz uma investida e ataca com seu machado de guerra e seus chifres. Os dois ataques recebem o b&ocirc;nus de +2 da investida, mas devem ser feitos contra o mesmo alvo.</p>",
      "unidentified": ""
    },
    "source": "",
    "ativacao": {
      "execucao": "full",
      "custo": 0,
      "qtd": "",
      "condicao": "",
      "special": ""
    },
    "duracao": {
      "value": 0,
      "units": "",
      "special": ""
    },
    "target": {
      "value": null,
      "width": null,
      "type": ""
    },
    "range": {
      "value": null,
      "units": ""
    },
    "consume": {
      "type": "",
      "target": "",
      "amount": null,
      "mpMultiplier": false
    },
    "efeito": "",
    "alcance": "none",
    "alvo": "",
    "area": "",
    "resistencia": {
      "pericia": "",
      "atributo": "",
      "bonus": 0,
      "txt": ""
    },
    "rolls": [],
    "tipo": "ability",
    "subtipo": "",
    "origin": "",
    "tags": [],
    "chatFlavor": "",
    "chatGif": ""
  },
  "effects": [
    {
      "label": "Marrada",
      "icon": "icons/svg/upgrade.svg",
      "origin": "Item.O33OJJxfLmdoYa33",
      "tint": "#FFFFFF",
      "flags": {
        "tormenta20": {
          "onuse": true,
          "durationScene": false,
          "self": false,
          "attack": true,
          "skill": false,
          "ability": false,
          "power": false,
          "equipment": false,
          "spell": false,
          "consumable": false,
          "items": "",
          "aumenta": false,
          "custo": ""
        }
      },
      "duration": {
        "startTime": null,
        "seconds": null,
        "combat": null,
        "rounds": null,
        "turns": null,
        "startRound": null,
        "startTurn": null
      },
      "disabled": true,
      "_id": "Q9Nx00b81V4boOgR",
      "changes": [
        {
          "key": "ataque",
          "mode": 2,
          "value": "2",
          "priority": 0
        },
        {
          "key": "dano",
          "mode": 2,
          "value": "2",
          "priority": 0
        }
      ],
      "transfer": true,
      "_key": "!items.effects!O33OJJxfLmdoYa33.Q9Nx00b81V4boOgR"
    }
  ],
  "flags": {},
  "_stats": {
    "systemId": "tormenta20",
    "systemVersion": "1.4.101",
    "coreVersion": "10.288",
    "createdTime": 1666321513948,
    "modifiedTime": 1668270615331,
    "lastModifiedBy": "tIn9sSkrT3mDWirx"
  },
  "_id": "O33OJJxfLmdoYa33",
  "folder": null,
  "sort": 0,
  "ownership": {
    "default": 0,
    "tIn9sSkrT3mDWirx": 3
  },
  "_key": "!items!O33OJJxfLmdoYa33"
}
