{
  "name": "Sacrificar Servo",
  "type": "poder",
  "img": "systems/tormenta20/icons/poderes/ameacas/sacrificar-servo.webp",
  "system": {
    "description": {
      "value": "<p style=\"text-align: justify;\">Uma vez por rodada, quando sofre dano, o necromante sacrifica um de seus esqueletos conjurados para reduzir esse dano a 0.</p>",
      "unidentified": ""
    },
    "source": "",
    "ativacao": {
      "execucao": "reaction",
      "custo": 0,
      "qtd": "",
      "condicao": "",
      "special": ""
    },
    "duracao": {
      "value": 0,
      "units": "",
      "special": ""
    },
    "target": {
      "value": null,
      "width": null,
      "type": ""
    },
    "range": {
      "value": null,
      "units": ""
    },
    "consume": {
      "type": "",
      "target": "",
      "amount": null,
      "mpMultiplier": false
    },
    "efeito": "",
    "alcance": "none",
    "alvo": "",
    "area": "",
    "resistencia": {
      "pericia": "",
      "atributo": "",
      "bonus": 0,
      "txt": ""
    },
    "rolls": [],
    "tipo": "ability",
    "subtipo": "",
    "origin": "",
    "tags": [],
    "chatFlavor": "",
    "chatGif": ""
  },
  "effects": [],
  "flags": {},
  "_stats": {
    "systemId": "tormenta20",
    "systemVersion": "1.4.101",
    "coreVersion": "10.288",
    "createdTime": 1667014611157,
    "modifiedTime": 1668270615332,
    "lastModifiedBy": "tIn9sSkrT3mDWirx"
  },
  "_id": "f92G6rEprRvW3FxU",
  "folder": null,
  "sort": 0,
  "ownership": {
    "default": 0,
    "tIn9sSkrT3mDWirx": 3
  },
  "_key": "!items!f92G6rEprRvW3FxU"
}
