{
  "_id": "7TCQN1jw49OLjGb6",
  "name": "Arauto dos Goblinoides",
  "type": "npc",
  "img": "systems/tormenta20/icons/ameacas/arauto-dos-goblinoides.png",
  "items": [
    {
      "type": "poder",
      "name": "O Mundo como Ele É",
      "img": "icons/svg/item-bag.svg",
      "system": {
        "description": {
          "value": "<p>Quando erra um ataque, o arauto dos Goblinoides pode repetir o teste de ataque. Ele pode usar esta habilidade uma vez contra cada oponente a cada cena</p>",
          "chat": "",
          "unidentified": ""
        },
        "source": "",
        "ativacao": {
          "execucao": "reaction",
          "custo": 0,
          "qtd": "",
          "condicao": "",
          "special": ""
        },
        "duracao": {
          "value": 0,
          "units": "",
          "special": ""
        },
        "target": {
          "value": null,
          "width": null,
          "units": "",
          "type": ""
        },
        "range": {
          "value": null,
          "units": ""
        },
        "consume": {
          "type": "",
          "target": "",
          "amount": null,
          "mpMultiplier": false
        },
        "efeito": "",
        "alcance": "none",
        "alvo": "",
        "area": "",
        "resistencia": {
          "pericia": "",
          "atributo": "",
          "bonus": 0,
          "txt": ""
        },
        "rolls": [],
        "tipo": "ability",
        "subtipo": "",
        "origin": "",
        "tags": [],
        "chatFlavor": "",
        "chatGif": ""
      },
      "effects": [],
      "folder": null,
      "sort": 0,
      "ownership": {
        "default": 0,
        "tIn9sSkrT3mDWirx": 3
      },
      "flags": {},
      "_stats": {
        "systemId": "tormenta20",
        "systemVersion": "1.4.1004",
        "coreVersion": "10.286",
        "createdTime": 1667016925192,
        "modifiedTime": 1667016944236,
        "lastModifiedBy": "tIn9sSkrT3mDWirx"
      },
      "_id": "TWeuykc0jo8ne2F2",
      "_key": "!actors.items!7TCQN1jw49OLjGb6.TWeuykc0jo8ne2F2"
    },
    {
      "folder": "0V7x5o397UvG3xKP",
      "name": "Magias",
      "type": "poder",
      "img": "icons/magic/symbols/runes-star-magenta.webp",
      "system": {
        "description": {
          "value": "<p>O arauto dos Goblinoides lan&ccedil;a magias como um cl&eacute;rigo de 4&ordm; n&iacute;vel (CD 18)</p>",
          "chat": "",
          "unidentified": ""
        },
        "source": "",
        "ativacao": {
          "execucao": "",
          "custo": 0,
          "qtd": "",
          "condicao": "",
          "special": ""
        },
        "duracao": {
          "value": 0,
          "units": "",
          "special": ""
        },
        "target": {
          "value": null,
          "width": null,
          "units": "",
          "type": ""
        },
        "range": {
          "value": null,
          "units": ""
        },
        "consume": {
          "type": "",
          "target": "",
          "amount": null,
          "mpMultiplier": false
        },
        "efeito": "",
        "alcance": "none",
        "alvo": "",
        "area": "",
        "resistencia": {
          "pericia": "",
          "atributo": "",
          "bonus": 0,
          "txt": ""
        },
        "rolls": [],
        "tipo": "racial",
        "subtipo": "",
        "origin": "",
        "tags": [],
        "chatFlavor": "",
        "chatGif": ""
      },
      "effects": [],
      "sort": 2100000,
      "ownership": {
        "default": 0,
        "tIn9sSkrT3mDWirx": 3
      },
      "flags": {},
      "_stats": {
        "systemId": "tormenta20",
        "systemVersion": "1.4.1004",
        "coreVersion": "10.286",
        "createdTime": 1666319236120,
        "modifiedTime": 1667016954596,
        "lastModifiedBy": "tIn9sSkrT3mDWirx"
      },
      "_id": "IWMjh7fEpBd2ddsN",
      "_key": "!actors.items!7TCQN1jw49OLjGb6.IWMjh7fEpBd2ddsN"
    },
    {
      "name": "Amedrontar",
      "type": "magia",
      "img": "systems/tormenta20/icons/magias/amedrontar.webp",
      "effects": [
        {
          "_id": "OciQRYsZfkxrckgc",
          "flags": {
            "t20": null,
            "tormenta20": {
              "onuse": true,
              "self": true,
              "custo": "2",
              "attack": false,
              "skill": false,
              "ability": false,
              "power": false,
              "spell": false,
              "consumable": false,
              "aumenta": false,
              "durationScene": false,
              "items": ""
            }
          },
          "changes": [],
          "disabled": true,
          "duration": {
            "startTime": null,
            "seconds": null,
            "combat": null,
            "rounds": null,
            "turns": null,
            "startRound": null,
            "startTurn": null
          },
          "icon": "icons/svg/upgrade.svg",
          "label": "alvos que falhem na resistência ficam apavorados por 1d4+1 rodadas, em vez de apenas 1.",
          "origin": "Item.dx8QPZrPlrOrzLQU",
          "tint": null,
          "transfer": false,
          "_key": "!actors.items.effects!7TCQN1jw49OLjGb6.AyNZLJFQ4Hyjc6vb.OciQRYsZfkxrckgc"
        },
        {
          "_id": "iywixWPGn64reD5Q",
          "flags": {
            "t20": null,
            "tormenta20": {
              "onuse": true,
              "self": true,
              "custo": "2",
              "attack": false,
              "skill": false,
              "ability": false,
              "power": false,
              "spell": false,
              "consumable": false,
              "aumenta": false,
              "durationScene": false,
              "items": ""
            }
          },
          "changes": [],
          "disabled": true,
          "duration": {
            "startTime": null,
            "seconds": null,
            "combat": null,
            "rounds": null,
            "turns": null,
            "startRound": null,
            "startTurn": null
          },
          "icon": "icons/svg/upgrade.svg",
          "label": "muda o alvo para 1 criatura.",
          "origin": "Item.dx8QPZrPlrOrzLQU",
          "tint": null,
          "transfer": false,
          "_key": "!actors.items.effects!7TCQN1jw49OLjGb6.AyNZLJFQ4Hyjc6vb.iywixWPGn64reD5Q"
        },
        {
          "_id": "8UpVbn31ZXEq8328",
          "flags": {
            "t20": null,
            "tormenta20": {
              "onuse": true,
              "self": true,
              "custo": "5"
            }
          },
          "changes": [],
          "disabled": true,
          "duration": {
            "startTime": null,
            "seconds": null,
            "combat": null,
            "rounds": null,
            "turns": null,
            "startRound": null,
            "startTurn": null
          },
          "icon": "icons/svg/upgrade.svg",
          "label": "afeta todos os alvos válidos a sua escolha dentro do alcance.",
          "origin": "Item.dx8QPZrPlrOrzLQU",
          "transfer": false,
          "tint": null,
          "_key": "!actors.items.effects!7TCQN1jw49OLjGb6.AyNZLJFQ4Hyjc6vb.8UpVbn31ZXEq8328"
        },
        {
          "_id": "f4qLZKk0usOOS9yV",
          "changes": [],
          "disabled": false,
          "duration": {
            "rounds": 1,
            "startTime": null,
            "seconds": null,
            "combat": null,
            "turns": null,
            "startRound": null,
            "startTurn": null
          },
          "icon": "systems/tormenta20/icons/magias/amedrontar.webp",
          "label": "Amedrontado",
          "origin": "Item.p238CZtFsOfXHxuZ",
          "transfer": false,
          "flags": {
            "tormenta20": {
              "onuse": false,
              "durationScene": true
            }
          },
          "tint": null,
          "_key": "!actors.items.effects!7TCQN1jw49OLjGb6.AyNZLJFQ4Hyjc6vb.f4qLZKk0usOOS9yV"
        }
      ],
      "flags": {
        "core": {
          "sourceId": "Item.FFmQzSgam5bmfIub"
        }
      },
      "system": {
        "description": {
          "value": "<section class=\"secret\">Amedrontar (Padrão, 3 PM) Um animal ou humanoide em alcance curto fica apavorado por 1d4+1 rodadas e depois abalado (Vontade reduz para abalado apenas)</section><p style=\"text-align: justify;\">O alvo &eacute; envolvido por energias sombrias e assustadoras. Se falhar na resist&ecirc;ncia, fica apavorado por 1 rodada, depois abalado. Se passar, fica abalado por 1d4 rodadas.</p>",
          "chat": "",
          "unidentified": ""
        },
        "source": "T20, pg. 179 (JdA)",
        "ativacao": {
          "execucao": "action",
          "custo": 1,
          "qtd": "",
          "condicao": "",
          "special": ""
        },
        "duracao": {
          "value": 0,
          "units": "scene",
          "special": ""
        },
        "target": {
          "value": null,
          "width": null,
          "units": "",
          "type": ""
        },
        "range": {
          "value": null,
          "units": ""
        },
        "consume": {
          "type": "",
          "target": "",
          "amount": null,
          "mpMultiplier": false
        },
        "efeito": "",
        "alcance": "short",
        "alvo": "1 animal ou humanoide",
        "area": "",
        "resistencia": {
          "pericia": "",
          "atributo": "",
          "bonus": 0,
          "txt": "Vontade parcial"
        },
        "rolls": [],
        "tipo": "arc",
        "circulo": "1",
        "preparada": false,
        "escola": "nec",
        "chatFlavor": "",
        "origin": "",
        "tags": [],
        "chatGif": ""
      },
      "ownership": {
        "default": 0,
        "tIn9sSkrT3mDWirx": 3
      },
      "_stats": {
        "systemId": "tormenta20",
        "systemVersion": "1.4.1004",
        "coreVersion": "10.286",
        "createdTime": 1664310462805,
        "modifiedTime": 1667016925194,
        "lastModifiedBy": "tIn9sSkrT3mDWirx"
      },
      "folder": "lcJeISkhj7LBBvIt",
      "sort": 0,
      "_id": "AyNZLJFQ4Hyjc6vb",
      "_key": "!actors.items!7TCQN1jw49OLjGb6.AyNZLJFQ4Hyjc6vb"
    },
    {
      "name": "Curar Ferimentos",
      "type": "magia",
      "img": "systems/tormenta20/icons/magias/curar-ferimentos.webp",
      "effects": [
        {
          "_id": "E5Ynb8D45IFPkqGc",
          "flags": {
            "t20": null,
            "tormenta20": {
              "onuse": true,
              "self": true,
              "custo": "",
              "aumenta": false
            }
          },
          "changes": [
            {
              "key": "alvo",
              "value": "1 morto-vivo",
              "mode": 5,
              "priority": null
            }
          ],
          "disabled": true,
          "duration": {
            "startTime": null,
            "seconds": null,
            "combat": null,
            "rounds": null,
            "turns": null,
            "startRound": null,
            "startTurn": null
          },
          "icon": "icons/svg/upgrade.svg",
          "label": "muda o alvo para 1 morto-vivo. Em vez do normal, causa 1d8 pontos de dano de luz (Vontade reduz à metade).",
          "origin": "Compendium.tormenta20.magias.soVAGPRWQmKxOrPm",
          "transfer": false,
          "tint": null,
          "_key": "!actors.items.effects!7TCQN1jw49OLjGb6.cEZfIDOH5GcQgTdj.E5Ynb8D45IFPkqGc"
        },
        {
          "_id": "T7W1dpep8KKLNdPQ",
          "flags": {
            "t20": null,
            "tormenta20": {
              "onuse": true,
              "self": true,
              "custo": "1",
              "aumenta": true
            }
          },
          "changes": [
            {
              "key": "dano",
              "value": "1d8+1",
              "mode": 0,
              "priority": null
            }
          ],
          "disabled": true,
          "duration": {
            "startTime": null,
            "seconds": null,
            "combat": null,
            "rounds": null,
            "turns": null,
            "startRound": null,
            "startTurn": null
          },
          "icon": "icons/svg/upgrade.svg",
          "label": "aumenta a cura em +1d8+1.",
          "origin": "Compendium.tormenta20.magias.soVAGPRWQmKxOrPm",
          "transfer": false,
          "tint": null,
          "_key": "!actors.items.effects!7TCQN1jw49OLjGb6.cEZfIDOH5GcQgTdj.T7W1dpep8KKLNdPQ"
        },
        {
          "_id": "xncd3c6sRimZD4nY",
          "flags": {
            "t20": null,
            "tormenta20": {
              "onuse": true,
              "self": true,
              "custo": "2",
              "aumenta": false
            }
          },
          "changes": [],
          "disabled": true,
          "duration": {
            "startTime": null,
            "seconds": null,
            "combat": null,
            "rounds": null,
            "turns": null,
            "startRound": null,
            "startTurn": null
          },
          "icon": "icons/svg/upgrade.svg",
          "label": "também remove uma condição de fadiga do alvo.",
          "origin": "Compendium.tormenta20.magias.soVAGPRWQmKxOrPm",
          "transfer": false,
          "tint": null,
          "_key": "!actors.items.effects!7TCQN1jw49OLjGb6.cEZfIDOH5GcQgTdj.xncd3c6sRimZD4nY"
        },
        {
          "_id": "8NiPKz2Ks17aIGcT",
          "flags": {
            "t20": null,
            "tormenta20": {
              "onuse": true,
              "self": true,
              "custo": "2",
              "aumenta": false
            }
          },
          "changes": [
            {
              "key": "alcance",
              "value": "curto",
              "mode": 5,
              "priority": null
            }
          ],
          "disabled": true,
          "duration": {
            "startTime": null,
            "seconds": null,
            "combat": null,
            "rounds": null,
            "turns": null,
            "startRound": null,
            "startTurn": null
          },
          "icon": "icons/svg/upgrade.svg",
          "label": "muda o alcance para curto.",
          "origin": "Compendium.tormenta20.magias.soVAGPRWQmKxOrPm",
          "transfer": false,
          "tint": null,
          "_key": "!actors.items.effects!7TCQN1jw49OLjGb6.cEZfIDOH5GcQgTdj.8NiPKz2Ks17aIGcT"
        },
        {
          "_id": "lcjBzJa7QT1xtM5I",
          "flags": {
            "t20": null,
            "tormenta20": {
              "onuse": true,
              "self": true,
              "custo": "5",
              "aumenta": false
            }
          },
          "changes": [
            {
              "key": "alcance",
              "value": "curto",
              "mode": 5,
              "priority": null
            },
            {
              "key": "alvo",
              "value": "criaturas escolhidas",
              "mode": 5,
              "priority": null
            }
          ],
          "disabled": true,
          "duration": {
            "startTime": null,
            "seconds": null,
            "combat": null,
            "rounds": null,
            "turns": null,
            "startRound": null,
            "startTurn": null
          },
          "icon": "icons/svg/upgrade.svg",
          "label": "muda o alcance para curto e o alvo para criaturas escolhidas.",
          "origin": "Compendium.tormenta20.magias.soVAGPRWQmKxOrPm",
          "transfer": false,
          "tint": null,
          "_key": "!actors.items.effects!7TCQN1jw49OLjGb6.cEZfIDOH5GcQgTdj.lcjBzJa7QT1xtM5I"
        }
      ],
      "flags": {
        "core": {
          "sourceId": "Item.galK4UUS6FxYz22S"
        }
      },
      "system": {
        "description": {
          "value": "<section class=\"secret\">Curar Ferimentos (Padrão, 4 PM) O arauto cura 5d8+5 PV de uma criatura adjacente</section><p style=\"text-align: justify;\">Voc&ecirc; canaliza energia positiva que recupera 2d8+2 pontos de vida na criatura tocada.</p>",
          "chat": "",
          "unidentified": ""
        },
        "source": "T20, pg. 189 (JdA)",
        "ativacao": {
          "execucao": "action",
          "custo": 1,
          "qtd": "",
          "condicao": "",
          "special": ""
        },
        "duracao": {
          "value": 0,
          "units": "inst",
          "special": ""
        },
        "target": {
          "value": null,
          "width": null,
          "units": "",
          "type": ""
        },
        "range": {
          "value": null,
          "units": ""
        },
        "consume": {
          "type": "",
          "target": "",
          "amount": null,
          "mpMultiplier": false
        },
        "efeito": "",
        "alcance": "touch",
        "alvo": "1 criatura",
        "area": "",
        "resistencia": {
          "pericia": "",
          "atributo": "",
          "bonus": 0,
          "txt": ""
        },
        "rolls": [
          {
            "name": "Cura",
            "key": "dano0",
            "type": "dano",
            "parts": [
              [
                "2d8+2",
                "",
                ""
              ]
            ],
            "versatil": ""
          }
        ],
        "tipo": "div",
        "circulo": "1",
        "preparada": false,
        "escola": "evo",
        "chatFlavor": "",
        "origin": "",
        "tags": [],
        "chatGif": ""
      },
      "ownership": {
        "default": 0,
        "tIn9sSkrT3mDWirx": 3
      },
      "_stats": {
        "systemId": "tormenta20",
        "systemVersion": "1.4.1004",
        "coreVersion": "10.286",
        "createdTime": 1664310462822,
        "modifiedTime": 1667016925195,
        "lastModifiedBy": "tIn9sSkrT3mDWirx"
      },
      "folder": "AOGmSz9kHvitzAbd",
      "sort": 0,
      "_id": "cEZfIDOH5GcQgTdj",
      "_key": "!actors.items!7TCQN1jw49OLjGb6.cEZfIDOH5GcQgTdj"
    },
    {
      "name": "Perdição",
      "type": "magia",
      "img": "systems/tormenta20/icons/magias/perdicao.webp",
      "effects": [
        {
          "_id": "mwaLI4ZQNS2pvBDX",
          "flags": {
            "t20": null,
            "tormenta20": {
              "onuse": true,
              "self": true,
              "custo": "2",
              "aumenta": true,
              "attack": false,
              "skill": false,
              "ability": false,
              "power": false,
              "spell": false,
              "consumable": false,
              "durationScene": false,
              "items": ""
            }
          },
          "changes": [
            {
              "key": "system.modificadores.ataque.geral",
              "mode": 2,
              "value": "-1",
              "priority": 0
            },
            {
              "key": "system.modificadores.dano.geral",
              "mode": 2,
              "value": "-1",
              "priority": 0
            }
          ],
          "disabled": true,
          "duration": {
            "startTime": null,
            "seconds": null,
            "combat": null,
            "rounds": null,
            "turns": null,
            "startRound": null,
            "startTurn": null
          },
          "icon": "icons/svg/upgrade.svg",
          "label": "aumenta as penalidades em –1, limitado pelo círculo máximo de magia que você pode lançar.",
          "origin": "Compendium.tormenta20.magias.ByYEiPmpotMg83gQ",
          "transfer": false,
          "tint": null,
          "_key": "!actors.items.effects!7TCQN1jw49OLjGb6.MVvaf0kVDpWnc62s.mwaLI4ZQNS2pvBDX"
        },
        {
          "_id": "Nzx93ileTOT6jhFR",
          "changes": [
            {
              "key": "system.modificadores.ataque.geral",
              "mode": 2,
              "value": "-1",
              "priority": null
            },
            {
              "key": "system.modificadores.dano.geral",
              "mode": 2,
              "value": "-1",
              "priority": null
            }
          ],
          "disabled": false,
          "duration": {
            "rounds": 1,
            "startTime": null,
            "seconds": null,
            "combat": null,
            "turns": null,
            "startRound": null,
            "startTurn": null
          },
          "icon": "systems/tormenta20/icons/magias/perdicao.webp",
          "label": "Perdição",
          "origin": "Item.sMwaPJUeQEl5NK2f",
          "transfer": false,
          "flags": {
            "tormenta20": {
              "onuse": false,
              "durationScene": true
            },
            "t20": null
          },
          "tint": null,
          "_key": "!actors.items.effects!7TCQN1jw49OLjGb6.MVvaf0kVDpWnc62s.Nzx93ileTOT6jhFR"
        }
      ],
      "flags": {
        "core": {
          "sourceId": "Item.FVpNBFNhi0XAVGXE"
        },
        "tormenta20": {
          "version": "1.3.0.0"
        },
        "importid": "fStd1y5azxP3rRkt",
        "cf": null
      },
      "system": {
        "description": {
          "value": "<section class=\"secret\">Perdição (Padrão, 1 PM) Criaturas escolhidas em alcance curto sofrem -1 em testes de ataque e rolagens de dano até o fim da cena.</section><p style=\"text-align: justify;\">Amaldi&ccedil;oa os alvos, que recebem &ndash;1 em testes de ataque e rolagens de dano. <em>Perdi&ccedil;&atilde;o</em> anula <em>B&ecirc;n&ccedil;&atilde;o</em>.</p>",
          "chat": "",
          "unidentified": ""
        },
        "source": "T20, pg. 201 (JdA)",
        "ativacao": {
          "execucao": "action",
          "custo": 1,
          "qtd": "",
          "condicao": "",
          "special": ""
        },
        "duracao": {
          "value": 0,
          "units": "scene",
          "special": ""
        },
        "target": {
          "value": null,
          "width": null,
          "units": "",
          "type": ""
        },
        "range": {
          "value": null,
          "units": ""
        },
        "consume": {
          "type": "",
          "target": "",
          "amount": null,
          "mpMultiplier": false
        },
        "efeito": "",
        "alcance": "short",
        "alvo": "Criaturas Escolhidas",
        "area": "",
        "resistencia": {
          "pericia": "",
          "atributo": "",
          "bonus": 0,
          "txt": "nenhuma"
        },
        "rolls": [],
        "tipo": "div",
        "circulo": "1",
        "preparada": false,
        "escola": "nec",
        "chatFlavor": "",
        "origin": "",
        "tags": [],
        "chatGif": ""
      },
      "ownership": {
        "default": 0,
        "tIn9sSkrT3mDWirx": 3
      },
      "_stats": {
        "systemId": "tormenta20",
        "systemVersion": "1.4.1004",
        "coreVersion": "10.286",
        "createdTime": 1664310461780,
        "modifiedTime": 1667016925196,
        "lastModifiedBy": "tIn9sSkrT3mDWirx"
      },
      "folder": "BLqXck2VqbFf09PO",
      "sort": 100000,
      "_id": "MVvaf0kVDpWnc62s",
      "_key": "!actors.items!7TCQN1jw49OLjGb6.MVvaf0kVDpWnc62s"
    },
    {
      "name": "Machado de guerra",
      "type": "arma",
      "img": "systems/tormenta20/icons/itens/equipamentos/machado-de-guerra.webp",
      "effects": [],
      "flags": {
        "core": {
          "sourceId": "Compendium.tormenta20.equipamentos.P4MW0Ezhmya6Hm89"
        }
      },
      "system": {
        "description": {
          "value": "<section class=\"secret\">Machado de guerra</section><p style=\"text-align:justify;\">Este imenso machado com lâmina dupla é uma das armas mais perigosas que existem.</p>",
          "chat": "",
          "unidentified": ""
        },
        "source": "T20, pg. 149 (JdA)",
        "equipado": 0,
        "equipado2": {
          "slot": 0,
          "type": "hand"
        },
        "carregado": true,
        "peso": 6,
        "espacos": 2,
        "qtd": 1,
        "preco": 20,
        "pv": {
          "value": 0,
          "min": 0,
          "max": 0
        },
        "rd": 0,
        "rolls": [
          {
            "name": "Ataque",
            "key": "ataque0",
            "type": "ataque",
            "parts": [
              [
                "1d20",
                "",
                ""
              ],
              [
                "luta",
                "",
                ""
              ],
              [
                "+16",
                "",
                ""
              ]
            ]
          },
          {
            "name": "Dano",
            "key": "dano1",
            "type": "dano",
            "parts": [
              [
                "3d6+12",
                "corte",
                ""
              ],
              [
                "",
                "",
                ""
              ]
            ],
            "versatil": ""
          }
        ],
        "criticoM": 20,
        "criticoX": 2,
        "alcance": "",
        "tipoUso": "sim",
        "propriedades": {
          "ada": false,
          "agi": false,
          "alo": false,
          "arr": false,
          "dst": false,
          "dms": false,
          "dup": false,
          "lev": false,
          "mun": false,
          "ver": false,
          "adaptavel": false,
          "agil": false,
          "alongada": false,
          "arremesso": false,
          "ataqueDistancia": false,
          "duasMaos": true,
          "dupla": false,
          "leve": false,
          "municao": false,
          "versatil": false,
          "des": false,
          "hib": false
        },
        "encantos": {
          "arremesso": false,
          "lancinante": false,
          "lancinating": false
        },
        "ativacao": {
          "custo": null,
          "condicao": "",
          "execucao": "",
          "qtd": "",
          "special": ""
        },
        "chatFlavor": "",
        "consume": {
          "type": "",
          "target": "",
          "amount": null,
          "mpMultiplier": false
        },
        "origin": "",
        "tags": [],
        "chatGif": "",
        "upgrades": {
          "melhoria1": "",
          "melhoria2": "",
          "melhoria3": "",
          "melhoria4": "",
          "material": "",
          "encanto1": "",
          "encanto2": "",
          "encanto3": ""
        },
        "melhorias": {},
        "proficiencia": "marcial",
        "proposito": "corpo-a-corpo",
        "empunhadura": "duas",
        "size": "normal",
        "ataques": 0
      },
      "ownership": {
        "default": 0,
        "tIn9sSkrT3mDWirx": 3
      },
      "_stats": {
        "systemId": "tormenta20",
        "systemVersion": "1.4.203d2",
        "coreVersion": "11.315",
        "createdTime": 1664312772404,
        "modifiedTime": 1700236762895,
        "lastModifiedBy": "5frcpPVF3cVfLwZA"
      },
      "folder": "brhICwdHcOUqvMPi",
      "sort": 900000,
      "_id": "foYYoJyt82msEW2i",
      "_key": "!actors.items!7TCQN1jw49OLjGb6.foYYoJyt82msEW2i"
    },
    {
      "folder": "AiwawZwp0Sxn63nF",
      "name": "Símbolo Sagrado",
      "type": "equipamento",
      "img": "systems/tormenta20/icons/itens/gerais/simbolo-sagrado.webp",
      "system": {
        "description": {
          "value": "<p>Um medalh&atilde;o de madeira ou metal com o s&iacute;mbolo de uma divindade. Voc&ecirc; precisa estar vestindo (normalmente com uma corrente ao redor do pesco&ccedil;o) ou empunhando um s&iacute;mbolo sagrado para usar qualquer poder concedido.</p>",
          "chat": "",
          "unidentified": ""
        },
        "source": "T20, pg. 157 (JdA)",
        "equipado": true,
        "carregado": true,
        "peso": 0,
        "espacos": 1,
        "qtd": 1,
        "preco": 5,
        "pv": {
          "value": 0,
          "min": 0,
          "max": 0
        },
        "rd": 0,
        "tipo": "traje",
        "armadura": {
          "value": 0,
          "penalidade": 0,
          "maxAtr": 0
        },
        "origin": "",
        "tags": [],
        "chatFlavor": "",
        "ativacao": {
          "custo": null,
          "condicao": "",
          "execucao": "",
          "qtd": "",
          "special": ""
        },
        "rolls": [],
        "chatGif": "",
        "upgrades": {
          "melhoria1": "",
          "melhoria2": "",
          "melhoria3": "",
          "melhoria4": "",
          "material": "",
          "encanto1": "",
          "encanto2": "",
          "encanto3": ""
        },
        "melhorias": {},
        "encantos": {}
      },
      "effects": [],
      "sort": 0,
      "ownership": {
        "default": 0,
        "RzS5vw1t6rOSWsrq": 3,
        "tIn9sSkrT3mDWirx": 3
      },
      "flags": {
        "core": {
          "sourceId": "Item.GN5S9awu41thdvCn"
        }
      },
      "_stats": {
        "systemId": "tormenta20",
        "systemVersion": "1.4.1004",
        "coreVersion": "10.286",
        "createdTime": 1665712733997,
        "modifiedTime": 1667016971105,
        "lastModifiedBy": "tIn9sSkrT3mDWirx"
      },
      "_id": "BPjJYpGPOvYy3G9j",
      "_key": "!actors.items!7TCQN1jw49OLjGb6.BPjJYpGPOvYy3G9j"
    }
  ],
  "effects": [],
  "folder": "B4HqFOHcZ05v9EUY",
  "sort": 100001,
  "flags": {
    "exportSource": {
      "world": "andreverse-t20",
      "system": "tormenta20",
      "coreVersion": "0.6.6",
      "systemVersion": "0.9.71"
    },
    "editing": false,
    "tormenta20": {
      "sheet": {},
      "lvlconfig": {
        "pv": {},
        "pm": {}
      },
      "version": "1.3.0.0"
    },
    "core": {
      "sourceId": "Compendium.tormenta20.ameacas.7TCQN1jw49OLjGb6"
    }
  },
  "system": {
    "atributos": {
      "for": {
        "value": 0,
        "bonus": 0,
        "base": 3,
        "racial": 0
      },
      "des": {
        "value": 0,
        "bonus": 0,
        "base": 1,
        "racial": 0
      },
      "con": {
        "value": 0,
        "bonus": 0,
        "base": 3,
        "racial": 0
      },
      "int": {
        "value": 0,
        "bonus": 0,
        "base": 0,
        "racial": 0
      },
      "sab": {
        "value": 0,
        "bonus": 0,
        "base": 4,
        "racial": 0
      },
      "car": {
        "value": 0,
        "bonus": 0,
        "base": 0,
        "racial": 0
      }
    },
    "attributes": {
      "cd": 10,
      "pv": {
        "value": 135,
        "min": -500,
        "max": 135,
        "temp": 0
      },
      "pm": {
        "value": 26,
        "min": 0,
        "max": 26,
        "temp": 0
      },
      "movement": {
        "burrow": 0,
        "climb": 0,
        "fly": 0,
        "swim": 0,
        "walk": 6,
        "unit": "m",
        "hover": false,
        "notes": ""
      },
      "defesa": {
        "base": 23,
        "value": 0,
        "outros": 0,
        "atributo": "des",
        "pda": 0,
        "bonus": [],
        "condi": 0
      },
      "sentidos": {
        "value": [],
        "custom": ""
      },
      "conjuracao": "int",
      "nivel": {
        "value": 1,
        "xp": {
          "value": 0,
          "pct": 0,
          "proximo": 0
        }
      },
      "nd": "4",
      "carga": {
        "value": 0,
        "base": 10,
        "bonus": [],
        "max": 0,
        "pct": 0,
        "encumbered": false
      },
      "treino": 0
    },
    "detalhes": {
      "biography": {
        "value": "",
        "public": ""
      },
      "raca": "humano",
      "tipo": "hum",
      "alinhamento": "",
      "divindade": "",
      "nd": "",
      "equipamento": "",
      "resistencias": "",
      "tesouro": "Padrão.",
      "role": "solo",
      "origem": "",
      "ataquescac": "Machado de guerra +16 (3d6+12, x3)."
    },
    "tracos": {
      "tamanho": "med",
      "resistencias": {
        "perda": {
          "value": 0,
          "base": 0,
          "bonus": [],
          "imunidade": false,
          "vulnerabilidade": false
        },
        "acido": {
          "value": 0,
          "base": 0,
          "bonus": [],
          "imunidade": false,
          "vulnerabilidade": false
        },
        "corte": {
          "value": 0,
          "base": 0,
          "bonus": [],
          "imunidade": false,
          "vulnerabilidade": false
        },
        "eletricidade": {
          "value": 0,
          "base": 0,
          "bonus": [],
          "imunidade": false,
          "vulnerabilidade": false
        },
        "essencia": {
          "value": 0,
          "base": 0,
          "bonus": [],
          "imunidade": false,
          "vulnerabilidade": false
        },
        "fogo": {
          "value": 0,
          "base": 0,
          "bonus": [],
          "imunidade": false,
          "vulnerabilidade": false
        },
        "frio": {
          "value": 0,
          "base": 0,
          "bonus": [],
          "imunidade": false,
          "vulnerabilidade": false
        },
        "impacto": {
          "value": 0,
          "base": 0,
          "bonus": [],
          "imunidade": false,
          "vulnerabilidade": false
        },
        "luz": {
          "value": 0,
          "base": 0,
          "bonus": [],
          "imunidade": false,
          "vulnerabilidade": false
        },
        "psiquico": {
          "value": 0,
          "base": 0,
          "bonus": [],
          "imunidade": false,
          "vulnerabilidade": false
        },
        "perfuracao": {
          "value": 0,
          "base": 0,
          "bonus": [],
          "imunidade": false,
          "vulnerabilidade": false
        },
        "trevas": {
          "value": 0,
          "base": 0,
          "bonus": [],
          "imunidade": false,
          "vulnerabilidade": false
        },
        "dano": {
          "value": 0,
          "imunidade": false,
          "vulnerabilidade": false
        }
      },
      "ic": {
        "value": [],
        "custom": ""
      },
      "idiomas": {
        "value": [
          "comum"
        ]
      }
    },
    "dinheiro": {
      "tl": 0,
      "to": 0,
      "tp": 0,
      "tc": 0
    },
    "resources": {
      "primary": {
        "value": 0,
        "max": 0,
        "label": ""
      },
      "secondary": {
        "value": 0,
        "max": 0,
        "label": ""
      },
      "tertiary": {
        "value": 0,
        "max": 0,
        "label": ""
      },
      "deathsave": {
        "value": 0,
        "max": 3,
        "label": ""
      },
      "shadow": {
        "value": 0,
        "max": 5,
        "label": ""
      },
      "catarse": {
        "value": 0,
        "max": 3,
        "label": ""
      }
    },
    "pericias": {
      "acro": {
        "value": 0,
        "atributo": "des",
        "outros": 0,
        "treinado": false,
        "st": false,
        "pda": false,
        "size": false,
        "condi": 0,
        "bonus": [],
        "custom": false,
        "label": "",
        "nome": ""
      },
      "ades": {
        "value": 0,
        "atributo": "car",
        "outros": 0,
        "treinado": false,
        "st": false,
        "pda": false,
        "size": false,
        "condi": 0,
        "bonus": [],
        "custom": false,
        "label": "",
        "nome": ""
      },
      "atle": {
        "value": 0,
        "atributo": "for",
        "outros": 0,
        "treinado": false,
        "st": false,
        "pda": false,
        "size": false,
        "condi": 0,
        "bonus": [],
        "custom": false,
        "label": "",
        "nome": ""
      },
      "atua": {
        "value": 0,
        "atributo": "car",
        "outros": 0,
        "treinado": false,
        "st": false,
        "pda": false,
        "size": false,
        "condi": 0,
        "bonus": [],
        "custom": false,
        "label": "",
        "nome": ""
      },
      "cava": {
        "value": 0,
        "atributo": "des",
        "outros": 0,
        "treinado": false,
        "st": false,
        "pda": false,
        "size": false,
        "condi": 0,
        "bonus": [],
        "custom": false,
        "label": "",
        "nome": ""
      },
      "conh": {
        "value": 0,
        "atributo": "int",
        "outros": 0,
        "treinado": false,
        "st": false,
        "pda": false,
        "size": false,
        "condi": 0,
        "bonus": [],
        "custom": false,
        "label": "",
        "nome": ""
      },
      "cura": {
        "value": 0,
        "atributo": "sab",
        "outros": 0,
        "treinado": false,
        "st": false,
        "pda": false,
        "size": false,
        "condi": 0,
        "bonus": [],
        "custom": false,
        "label": "",
        "nome": ""
      },
      "dipl": {
        "value": 0,
        "atributo": "car",
        "outros": 0,
        "treinado": false,
        "st": false,
        "pda": false,
        "size": false,
        "condi": 0,
        "bonus": [],
        "custom": false,
        "label": "",
        "nome": ""
      },
      "enga": {
        "value": 0,
        "atributo": "car",
        "outros": 0,
        "treinado": false,
        "st": false,
        "pda": false,
        "size": false,
        "condi": 0,
        "bonus": [],
        "custom": false,
        "label": "",
        "nome": ""
      },
      "fort": {
        "value": 10,
        "atributo": "con",
        "outros": 10,
        "treinado": false,
        "st": false,
        "pda": false,
        "size": false,
        "condi": 0,
        "bonus": [],
        "custom": false,
        "label": "",
        "nome": ""
      },
      "furt": {
        "value": 0,
        "atributo": "des",
        "outros": 0,
        "treinado": false,
        "st": false,
        "pda": false,
        "size": false,
        "condi": 0,
        "bonus": [],
        "custom": false,
        "label": "",
        "nome": ""
      },
      "guer": {
        "value": 0,
        "atributo": "int",
        "outros": 0,
        "treinado": false,
        "st": false,
        "pda": false,
        "size": false,
        "condi": 0,
        "bonus": [],
        "custom": false,
        "label": "",
        "nome": ""
      },
      "inic": {
        "value": 5,
        "atributo": "des",
        "outros": 0,
        "treinado": true,
        "st": false,
        "pda": false,
        "size": false,
        "condi": 0,
        "bonus": [],
        "custom": false,
        "label": "",
        "nome": ""
      },
      "inti": {
        "value": 9,
        "atributo": "car",
        "outros": 5,
        "treinado": true,
        "st": false,
        "pda": false,
        "size": false,
        "condi": 0,
        "bonus": [],
        "custom": false,
        "label": "",
        "nome": ""
      },
      "intu": {
        "value": 0,
        "atributo": "sab",
        "outros": 0,
        "treinado": false,
        "label": "",
        "st": false,
        "pda": false,
        "bonus": [],
        "size": false,
        "condi": 0,
        "custom": false,
        "nome": ""
      },
      "inve": {
        "value": 0,
        "atributo": "int",
        "outros": 0,
        "treinado": false,
        "st": false,
        "pda": false,
        "size": false,
        "condi": 0,
        "bonus": [],
        "custom": false,
        "label": "",
        "nome": ""
      },
      "joga": {
        "value": 0,
        "atributo": "car",
        "outros": 0,
        "treinado": false,
        "st": false,
        "pda": false,
        "size": false,
        "condi": 0,
        "bonus": [],
        "custom": false,
        "label": "",
        "nome": ""
      },
      "ladi": {
        "value": 0,
        "atributo": "des",
        "outros": 0,
        "treinado": false,
        "st": false,
        "pda": false,
        "size": false,
        "condi": 0,
        "bonus": [],
        "custom": false,
        "label": "",
        "nome": ""
      },
      "luta": {
        "value": 0,
        "atributo": "for",
        "outros": 0,
        "treinado": false,
        "st": false,
        "pda": false,
        "size": false,
        "condi": 0,
        "bonus": [],
        "custom": false,
        "label": "",
        "nome": ""
      },
      "mist": {
        "value": 0,
        "atributo": "int",
        "outros": 0,
        "treinado": false,
        "st": false,
        "pda": false,
        "size": false,
        "condi": 0,
        "bonus": [],
        "custom": false,
        "label": "",
        "nome": ""
      },
      "nobr": {
        "value": 0,
        "atributo": "int",
        "outros": 0,
        "treinado": false,
        "st": false,
        "pda": false,
        "size": false,
        "condi": 0,
        "bonus": [],
        "custom": false,
        "label": "",
        "nome": ""
      },
      "ofi0": {
        "value": 0,
        "atributo": "int",
        "outros": 0,
        "treinado": false,
        "st": false,
        "pda": false,
        "size": false,
        "condi": 0,
        "bonus": [],
        "custom": false,
        "label": "",
        "nome": ""
      },
      "perc": {
        "value": 8,
        "atributo": "sab",
        "outros": 0,
        "treinado": true,
        "st": false,
        "pda": false,
        "size": false,
        "condi": 0,
        "bonus": [],
        "custom": false,
        "label": "",
        "nome": ""
      },
      "pilo": {
        "value": 0,
        "atributo": "des",
        "outros": 0,
        "treinado": false,
        "st": false,
        "pda": false,
        "size": false,
        "condi": 0,
        "bonus": [],
        "custom": false,
        "label": "",
        "nome": ""
      },
      "pont": {
        "value": 0,
        "atributo": "des",
        "outros": 0,
        "treinado": false,
        "st": false,
        "pda": false,
        "size": false,
        "condi": 0,
        "bonus": [],
        "custom": false,
        "label": "",
        "nome": ""
      },
      "refl": {
        "value": 4,
        "atributo": "des",
        "outros": 4,
        "treinado": false,
        "st": false,
        "pda": false,
        "size": false,
        "condi": 0,
        "bonus": [],
        "custom": false,
        "label": "",
        "nome": ""
      },
      "reli": {
        "value": 8,
        "atributo": "sab",
        "outros": 0,
        "treinado": true,
        "st": false,
        "pda": false,
        "size": false,
        "condi": 0,
        "bonus": [],
        "custom": false,
        "label": "",
        "nome": ""
      },
      "sobr": {
        "value": 0,
        "atributo": "sab",
        "outros": 0,
        "treinado": false,
        "st": false,
        "pda": false,
        "size": false,
        "condi": 0,
        "bonus": [],
        "custom": false,
        "label": "",
        "nome": ""
      },
      "vont": {
        "value": 16,
        "atributo": "sab",
        "outros": 16,
        "treinado": false,
        "st": false,
        "pda": false,
        "size": false,
        "condi": 0,
        "bonus": [],
        "custom": false,
        "label": "",
        "nome": ""
      },
      "_pc0": {
        "value": 0,
        "atributo": "for",
        "outros": 0,
        "treinado": false,
        "st": false,
        "pda": false,
        "size": false,
        "condi": 0,
        "bonus": [],
        "custom": false,
        "label": "",
        "nome": ""
      }
    },
    "modificadores": {
      "atributos": {
        "geral": [
          ""
        ],
        "fisicos": [
          ""
        ],
        "mentais": [
          ""
        ],
        "for": [
          ""
        ],
        "des": [
          ""
        ],
        "con": [
          ""
        ],
        "int": [
          ""
        ],
        "sab": [
          ""
        ],
        "car": [
          ""
        ]
      },
      "dano": {
        "geral": [
          ""
        ],
        "cac": [
          ""
        ],
        "ad": [
          ""
        ],
        "mag": [
          ""
        ],
        "alq": [
          ""
        ]
      },
      "custoPM": "0",
      "pericias": {
        "geral": [
          ""
        ],
        "semataque": [
          ""
        ],
        "ataque": [
          ""
        ],
        "resistencia": [
          ""
        ],
        "atr": {
          "for": [
            ""
          ],
          "des": [
            ""
          ],
          "con": [
            ""
          ],
          "int": [
            ""
          ],
          "sab": [
            ""
          ],
          "car": [
            ""
          ]
        }
      },
      "ataque": {
        "geral": [],
        "cac": [],
        "ad": []
      }
    },
    "builder": {
      "attributes": {
        "cr": "",
        "size": "",
        "attack": {
          "value": 0,
          "cr": ""
        },
        "damage": {
          "value": 0,
          "cr": ""
        },
        "defense": {
          "value": 0,
          "cr": ""
        },
        "fort": {
          "value": 0,
          "rank": 2,
          "cr": ""
        },
        "refl": {
          "value": 0,
          "rank": 1,
          "cr": ""
        },
        "vont": {
          "value": 0,
          "rank": 0,
          "cr": ""
        },
        "topsave": {
          "value": 0,
          "cr": ""
        },
        "midsave": {
          "value": 0,
          "cr": ""
        },
        "botsave": {
          "value": 0,
          "cr": ""
        },
        "hp": {
          "value": 0,
          "cr": ""
        },
        "mp": {
          "value": 0,
          "cr": ""
        },
        "dc": {
          "value": 0,
          "cr": ""
        }
      },
      "details": {
        "concept": "",
        "creatureType": "",
        "role": "",
        "treasure": ""
      }
    }
  },
  "ownership": {
    "default": 0
  },
  "prototypeToken": {
    "flags": {},
    "name": "Arauto dos Goblinóides",
    "displayName": 50,
    "width": 1,
    "height": 1,
    "lockRotation": false,
    "rotation": 0,
    "actorLink": false,
    "disposition": -1,
    "displayBars": 0,
    "bar1": {
      "attribute": "attributes.pv"
    },
    "bar2": {
      "attribute": "attributes.pm"
    },
    "randomImg": false,
    "alpha": 1,
    "light": {
      "dim": 0,
      "bright": 0,
      "angle": 360,
      "color": null,
      "alpha": 1,
      "animation": {
        "speed": 5,
        "intensity": 5,
        "type": null,
        "reverse": false
      },
      "coloration": 1,
      "attenuation": 0.5,
      "luminosity": 0.5,
      "saturation": 0,
      "contrast": 0,
      "shadows": 0,
      "darkness": {
        "min": 0,
        "max": 1
      }
    },
    "texture": {
      "src": "systems/tormenta20/icons/ameacas/arauto-dos-goblinoides.png",
      "tint": null,
      "scaleX": 1.3,
      "scaleY": 1.3,
      "offsetX": 0,
      "offsetY": 0,
      "rotation": 0
    },
    "sight": {
      "angle": 360,
      "enabled": true,
      "range": 0,
      "brightness": 1,
      "visionMode": "basic",
      "color": null,
      "attenuation": 0.1,
      "saturation": 0,
      "contrast": 0
    },
    "detectionModes": [],
    "appendNumber": false,
    "prependAdjective": false
  },
  "_stats": {
    "systemId": "tormenta20",
    "systemVersion": "1.4.203d2",
    "coreVersion": "11.315",
    "createdTime": 1661997945904,
    "modifiedTime": 1700236762895,
    "lastModifiedBy": "5frcpPVF3cVfLwZA"
  },
  "_key": "!actors!7TCQN1jw49OLjGb6"
}
