{
  "_id": "QmbDo3LPMBsBDcno",
  "name": "Cultista da Traição",
  "type": "npc",
  "img": "systems/tormenta20/icons/ameacas/cultista-da-traicao.png",
  "items": [
    {
      "folder": "0V7x5o397UvG3xKP",
      "name": "Ataque Furtivo",
      "type": "poder",
      "img": "icons/magic/perception/silhouette-stealth-shadow.webp",
      "system": {
        "description": {
          "value": "Uma vez por rodada, a cultista da Traição causa +5d6 pontos de dano com ataques corpo a corpo, ou à distância em alcance curto, contra alvos desprevenidos ou que ela esteja flanqueando",
          "unidentified": ""
        },
        "source": "",
        "ativacao": {
          "execucao": "",
          "custo": 0,
          "qtd": "",
          "condicao": "",
          "special": ""
        },
        "duracao": {
          "value": 0,
          "units": "",
          "special": ""
        },
        "target": {
          "value": null,
          "width": null,
          "type": ""
        },
        "range": {
          "value": null,
          "units": ""
        },
        "consume": {
          "type": "",
          "target": "",
          "amount": null,
          "mpMultiplier": false
        },
        "efeito": "",
        "alcance": "none",
        "alvo": "",
        "area": "",
        "resistencia": {
          "pericia": "",
          "atributo": "",
          "bonus": 0,
          "txt": ""
        },
        "rolls": [
          {
            "name": "Dano",
            "key": "dano0",
            "type": "dano",
            "parts": [
              [
                "2d6",
                "corte",
                ""
              ]
            ],
            "versatil": ""
          }
        ],
        "tipo": "ability",
        "subtipo": "",
        "origin": "",
        "tags": [],
        "chatFlavor": "",
        "chatGif": ""
      },
      "effects": [
        {
          "label": "Ataque Furtivo",
          "icon": "icons/svg/upgrade.svg",
          "origin": "Item.4o2kchrTeo495pRf",
          "tint": "#FFFFFF",
          "flags": {
            "tormenta20": {
              "onuse": true,
              "durationScene": false,
              "self": false,
              "attack": true,
              "skill": false,
              "ability": false,
              "power": false,
              "equipment": false,
              "spell": false,
              "consumable": false,
              "items": "",
              "aumenta": false,
              "custo": ""
            }
          },
          "duration": {
            "startTime": null,
            "seconds": null,
            "combat": null,
            "rounds": null,
            "turns": null,
            "startRound": null,
            "startTurn": null
          },
          "disabled": true,
          "_id": "Owew6Yq96mSBToyC",
          "changes": [
            {
              "key": "dano",
              "mode": 2,
              "value": "2d6",
              "priority": 0
            }
          ],
          "transfer": true,
          "_key": "!actors.items.effects!QmbDo3LPMBsBDcno.zaS4yvszWuhJnPBD.Owew6Yq96mSBToyC"
        }
      ],
      "sort": 300000,
      "ownership": {
        "default": 0,
        "tIn9sSkrT3mDWirx": 3
      },
      "flags": {
        "core": {
          "sourceId": "Item.4o2kchrTeo495pRf"
        }
      },
      "_stats": {
        "systemId": "tormenta20",
        "systemVersion": "1.4.1004",
        "coreVersion": "10.286",
        "createdTime": 1666321513948,
        "modifiedTime": 1667020943966,
        "lastModifiedBy": "tIn9sSkrT3mDWirx"
      },
      "_id": "zaS4yvszWuhJnPBD",
      "_key": "!actors.items!QmbDo3LPMBsBDcno.zaS4yvszWuhJnPBD"
    },
    {
      "folder": "0V7x5o397UvG3xKP",
      "name": "Magias",
      "type": "poder",
      "img": "icons/magic/symbols/runes-star-magenta.webp",
      "system": {
        "description": {
          "value": "A cultista de Sszzaas lança magias como uma clériga de 7º nível (CD 22). 1º — Arma Mágica, Comando, Curar Ferimentos, Escuridão; 2º — Enxame de Pestes, Miasma Mefítico",
          "unidentified": ""
        },
        "source": "",
        "ativacao": {
          "execucao": "",
          "custo": 0,
          "qtd": "",
          "condicao": "",
          "special": ""
        },
        "duracao": {
          "value": 0,
          "units": "",
          "special": ""
        },
        "target": {
          "value": null,
          "width": null,
          "type": ""
        },
        "range": {
          "value": null,
          "units": ""
        },
        "consume": {
          "type": "",
          "target": "",
          "amount": null,
          "mpMultiplier": false
        },
        "efeito": "",
        "alcance": "none",
        "alvo": "",
        "area": "",
        "resistencia": {
          "pericia": "",
          "atributo": "",
          "bonus": 0,
          "txt": ""
        },
        "rolls": [],
        "tipo": "racial",
        "subtipo": "",
        "origin": "",
        "tags": [],
        "chatFlavor": "",
        "chatGif": ""
      },
      "effects": [],
      "sort": 2100000,
      "ownership": {
        "default": 0,
        "tIn9sSkrT3mDWirx": 3
      },
      "flags": {},
      "_stats": {
        "systemId": "tormenta20",
        "systemVersion": "1.4.1004",
        "coreVersion": "10.286",
        "createdTime": 1666319236120,
        "modifiedTime": 1667020943966,
        "lastModifiedBy": "tIn9sSkrT3mDWirx"
      },
      "_id": "uJR0jBbCFbOnXYt2",
      "_key": "!actors.items!QmbDo3LPMBsBDcno.uJR0jBbCFbOnXYt2"
    },
    {
      "name": "Olhar Atordoante",
      "type": "poder",
      "img": "systems/tormenta20/icons/racas/medusa.webp",
      "effects": [
        {
          "label": "Atordoado",
          "icon": "systems/tormenta20/icons/conditions/atordoado.svg",
          "origin": "Item.gzTi2g0xClcXNUA6",
          "tint": "#FFFFFF",
          "flags": {
            "tormenta20": {
              "onuse": false,
              "durationScene": false
            }
          },
          "duration": {
            "rounds": 1,
            "startTime": null,
            "seconds": null,
            "combat": null,
            "turns": null,
            "startRound": null,
            "startTurn": null
          },
          "disabled": false,
          "_id": "TnXSqqNFVOJ9W9KA",
          "changes": [],
          "transfer": false,
          "_key": "!actors.items.effects!QmbDo3LPMBsBDcno.DKxOiJEylJzZ3bYU.TnXSqqNFVOJ9W9KA"
        }
      ],
      "flags": {
        "core": {
          "sourceId": "Compendium.tormenta20.poderes.gzTi2g0xClcXNUA6"
        }
      },
      "system": {
        "description": {
          "value": "Uma criatura em alcance curto fica atordoada por uma rodada (apenas uma vez por cena; Fort CD 22 evita)",
          "unidentified": ""
        },
        "source": "T20, pg. 29 (JdA)",
        "ativacao": {
          "execucao": "move",
          "custo": 0,
          "qtd": "",
          "condicao": "",
          "special": ""
        },
        "duracao": {
          "value": 0,
          "units": "",
          "special": ""
        },
        "target": {
          "value": null,
          "width": null,
          "type": ""
        },
        "range": {
          "value": null,
          "units": ""
        },
        "consume": {
          "type": "",
          "target": "",
          "amount": null,
          "mpMultiplier": false
        },
        "efeito": "",
        "alcance": "none",
        "alvo": "",
        "area": "",
        "resistencia": {
          "pericia": "",
          "atributo": "",
          "bonus": 0,
          "txt": "Fortitude"
        },
        "rolls": [],
        "tipo": "racial",
        "subtipo": "Medusa",
        "origin": "",
        "tags": [],
        "chatFlavor": "",
        "chatGif": ""
      },
      "ownership": {
        "default": 0,
        "tIn9sSkrT3mDWirx": 3
      },
      "_stats": {
        "systemId": "tormenta20",
        "systemVersion": "1.4.1004",
        "coreVersion": "10.286",
        "createdTime": 1664306185118,
        "modifiedTime": 1667020943968,
        "lastModifiedBy": "tIn9sSkrT3mDWirx"
      },
      "folder": "hfNKKsaa2aVgydql",
      "sort": 0,
      "_id": "DKxOiJEylJzZ3bYU",
      "_key": "!actors.items!QmbDo3LPMBsBDcno.DKxOiJEylJzZ3bYU"
    },
    {
      "folder": "0V7x5o397UvG3xKP",
      "name": "Veneno",
      "type": "poder",
      "img": "icons/creatures/abilities/stinger-poison-green.webp",
      "system": {
        "description": {
          "value": "Perde 2d12 pontos de vida durante 3 rodadas (Fort CD 22 reduz para uma rodada).",
          "unidentified": ""
        },
        "source": "",
        "ativacao": {
          "execucao": "",
          "custo": 0,
          "qtd": "",
          "condicao": "",
          "special": ""
        },
        "duracao": {
          "value": 0,
          "units": "",
          "special": ""
        },
        "target": {
          "value": null,
          "width": null,
          "type": ""
        },
        "range": {
          "value": null,
          "units": ""
        },
        "consume": {
          "type": "",
          "target": "",
          "amount": null,
          "mpMultiplier": false
        },
        "efeito": "",
        "alcance": "none",
        "alvo": "",
        "area": "",
        "resistencia": {
          "pericia": "",
          "atributo": "",
          "bonus": 0,
          "txt": "Fortitude Varia"
        },
        "rolls": [
          {
            "name": "Dano",
            "key": "dano0",
            "type": "dano",
            "parts": [
              [
                "1d4",
                "perda",
                ""
              ]
            ],
            "versatil": ""
          }
        ],
        "tipo": "ability",
        "subtipo": "",
        "origin": "",
        "tags": [],
        "chatFlavor": "",
        "chatGif": ""
      },
      "effects": [
        {
          "label": "Veneno",
          "icon": "systems/tormenta20/icons/conditions/envenenado.svg",
          "origin": "Item.VWLwiM10pyEr7ZQq",
          "tint": "#FFFFFF",
          "flags": {
            "tormenta20": {
              "onuse": false,
              "durationScene": true
            }
          },
          "duration": {
            "rounds": 1,
            "startTime": null,
            "seconds": null,
            "combat": null,
            "turns": null,
            "startRound": null,
            "startTurn": null
          },
          "disabled": false,
          "_id": "KOklYtxVLCZmrIMF",
          "changes": [
            {
              "key": "dano",
              "mode": 0,
              "value": "roll",
              "priority": null
            }
          ],
          "transfer": false,
          "_key": "!actors.items.effects!QmbDo3LPMBsBDcno.W8OfYNgtIMplAmGM.KOklYtxVLCZmrIMF"
        }
      ],
      "sort": 3500000,
      "ownership": {
        "default": 0,
        "tIn9sSkrT3mDWirx": 3
      },
      "flags": {},
      "_stats": {
        "systemId": "tormenta20",
        "systemVersion": "1.4.1004",
        "coreVersion": "10.286",
        "createdTime": 1666320488703,
        "modifiedTime": 1667020943970,
        "lastModifiedBy": "tIn9sSkrT3mDWirx"
      },
      "_id": "W8OfYNgtIMplAmGM",
      "_key": "!actors.items!QmbDo3LPMBsBDcno.W8OfYNgtIMplAmGM"
    },
    {
      "name": "Adaga",
      "type": "arma",
      "img": "systems/tormenta20/icons/itens/equipamentos/adaga.webp",
      "effects": [],
      "flags": {
        "core": {
          "sourceId": "Compendium.tormenta20.equipamentos.XuObO7LzBBNoIsGv"
        }
      },
      "system": {
        "description": {
          "value": "<section class=\"secret\">Adaga</section><p style=\"text-align: justify;\">Esta faca afiada &eacute; usada por muitos habitantes adultos do Reinado, embora seja favorita de ladr&otilde;es e assassinos, por ser facilmente escondida (fornece +5 em testes de Ladinagem para ocult&aacute;-la). Quando ataca com uma adaga, voc&ecirc; pode usar sua Destreza em vez de For&ccedil;a nos testes de ataque. Uma adaga pode ser arremessada.</p>",
          "chat": "",
          "unidentified": ""
        },
        "source": "T20, pg. 146 (JdA)",
        "equipado": 0,
        "equipado2": {
          "slot": 0,
          "type": "hand"
        },
        "carregado": true,
        "peso": 0.5,
        "espacos": 1,
        "qtd": 1,
        "preco": 2,
        "pv": {
          "value": 0,
          "min": 0,
          "max": 0
        },
        "rd": 0,
        "rolls": [
          {
            "name": "Ataque",
            "key": "ataque0",
            "type": "ataque",
            "parts": [
              [
                "1d20",
                "",
                ""
              ],
              [
                "luta",
                "",
                ""
              ],
              [
                "+22",
                "",
                ""
              ]
            ]
          },
          {
            "name": "Dano",
            "key": "dano1",
            "type": "dano",
            "parts": [
              [
                "1d4+4",
                "perfuracao",
                ""
              ],
              [
                "",
                "",
                ""
              ]
            ],
            "versatil": ""
          }
        ],
        "criticoM": 19,
        "criticoX": 2,
        "alcance": "short",
        "tipoUso": "sim",
        "propriedades": {
          "ada": false,
          "agi": false,
          "alo": false,
          "arr": false,
          "dst": false,
          "dms": false,
          "dup": false,
          "lev": false,
          "mun": false,
          "ver": false,
          "adaptavel": false,
          "agil": false,
          "alongada": false,
          "arremesso": true,
          "ataqueDistancia": false,
          "duasMaos": false,
          "dupla": false,
          "leve": true,
          "municao": false,
          "versatil": false,
          "des": false,
          "hib": false
        },
        "encantos": {
          "arremesso": false,
          "lancinante": false,
          "keen": null,
          "bane": null,
          "throwable": null,
          "assassin": null,
          "seeking": null,
          "frost": null,
          "caster": null,
          "corrosive": null,
          "dancing": null,
          "defending": null,
          "destructive": null,
          "lacerating": null,
          "draining": null,
          "shock": null,
          "energy": null,
          "excruciating": null,
          "flaming": null,
          "formidable": null,
          "lancinating": false,
          "magnificent": null,
          "merciful": null,
          "unholy": null,
          "holy": null,
          "bloodthirsty": null,
          "thundering": null,
          "sepulchral": null,
          "speed": null,
          "poisonous": null
        },
        "ativacao": {
          "custo": null,
          "condicao": "",
          "execucao": "",
          "qtd": "",
          "special": ""
        },
        "chatFlavor": "",
        "consume": {
          "type": "",
          "target": "",
          "amount": null,
          "mpMultiplier": false
        },
        "melhorias": {
          "accurate": null,
          "pungent": null,
          "cruel": null,
          "atrocious": null,
          "balanced": null,
          "harmonized": null,
          "injection": null,
          "massive": null,
          "specialmaterial": null,
          "scope": null,
          "precise": null,
          "golden": null,
          "gems": null,
          "discreet": null,
          "macabre": null
        },
        "origin": "",
        "tags": [],
        "chatGif": "",
        "upgrades": {
          "melhoria1": "accurate",
          "melhoria2": "",
          "melhoria3": "",
          "melhoria4": "",
          "material": "",
          "encanto1": "",
          "encanto2": "",
          "encanto3": ""
        },
        "proficiencia": "simples",
        "proposito": "arremesso",
        "empunhadura": "leve",
        "size": "normal",
        "ataques": 0
      },
      "ownership": {
        "default": 0,
        "tIn9sSkrT3mDWirx": 3
      },
      "_stats": {
        "systemId": "tormenta20",
        "systemVersion": "1.4.203d2",
        "coreVersion": "11.315",
        "createdTime": 1664312772409,
        "modifiedTime": 1700237097110,
        "lastModifiedBy": "5frcpPVF3cVfLwZA"
      },
      "folder": "brhICwdHcOUqvMPi",
      "sort": 2000000,
      "_id": "fei8hAVlerKZRsut",
      "_key": "!actors.items!QmbDo3LPMBsBDcno.fei8hAVlerKZRsut"
    },
    {
      "_id": "zYMLsYG753jmRS9u",
      "name": "Arma Mágica",
      "type": "magia",
      "img": "systems/tormenta20/icons/magias/arma-magica.webp",
      "effects": [
        {
          "_id": "CsxccmtGU6cmoFwn",
          "flags": {
            "t20": null,
            "tormenta20": {
              "onuse": true,
              "self": true,
              "custo": "2",
              "aumenta": true,
              "attack": false,
              "skill": false,
              "ability": false,
              "power": false,
              "spell": false,
              "consumable": false,
              "durationScene": false,
              "items": ""
            }
          },
          "changes": [
            {
              "key": "system.modificadores.dano.cac",
              "mode": 2,
              "value": "1",
              "priority": 0
            },
            {
              "key": "system.modificadores.dano.ad",
              "mode": 2,
              "value": "1",
              "priority": 0
            },
            {
              "key": "system.modificadores.ataque.cac",
              "mode": 2,
              "value": "1",
              "priority": 0
            },
            {
              "key": "system.modificadores.ataque.ad",
              "mode": 2,
              "value": "1",
              "priority": 0
            }
          ],
          "disabled": true,
          "duration": {
            "startTime": null,
            "seconds": null,
            "combat": null,
            "rounds": null,
            "turns": null,
            "startRound": null,
            "startTurn": null
          },
          "icon": "icons/svg/upgrade.svg",
          "label": "aumenta o bônus em +1 (bônus máximo limitado pelo círculo máximo de magia que você pode lançar).",
          "origin": "Item.N0VolSuZqafQ4qdh",
          "tint": null,
          "transfer": false,
          "_key": "!actors.items.effects!QmbDo3LPMBsBDcno.zYMLsYG753jmRS9u.CsxccmtGU6cmoFwn"
        },
        {
          "_id": "2B720KAGoTazOT5e",
          "flags": {
            "t20": null,
            "tormenta20": {
              "onuse": true,
              "self": true,
              "custo": "2",
              "aumenta": false,
              "attack": false,
              "skill": false,
              "ability": false,
              "power": false,
              "spell": false,
              "consumable": false,
              "durationScene": false,
              "items": ""
            }
          },
          "changes": [],
          "disabled": true,
          "duration": {
            "startTime": null,
            "seconds": null,
            "combat": null,
            "rounds": null,
            "turns": null,
            "startRound": null,
            "startTurn": null
          },
          "icon": "icons/svg/upgrade.svg",
          "label": "a arma passa a causar +1d6 de dano de ácido, eletricidade, fogo ou frio, escolhido no momento em que a magia é lançada.",
          "origin": "Item.N0VolSuZqafQ4qdh",
          "tint": null,
          "transfer": false,
          "_key": "!actors.items.effects!QmbDo3LPMBsBDcno.zYMLsYG753jmRS9u.2B720KAGoTazOT5e"
        },
        {
          "label": "Arma Mágica",
          "icon": "systems/tormenta20/icons/magias/arma-magica.webp",
          "origin": "Item.YDxLaaDhfXOkSfnF",
          "tint": "#FFFFFF",
          "flags": {
            "tormenta20": {
              "onuse": false,
              "durationScene": true
            }
          },
          "duration": {
            "rounds": 1,
            "startTime": null,
            "seconds": null,
            "combat": null,
            "turns": null,
            "startRound": null,
            "startTurn": null
          },
          "disabled": false,
          "_id": "QXpQiBZG50N99pgK",
          "changes": [
            {
              "key": "system.modificadores.ataque.cac",
              "mode": 2,
              "value": "1",
              "priority": null
            },
            {
              "key": "system.modificadores.ataque.ad",
              "mode": 2,
              "value": "1",
              "priority": null
            },
            {
              "key": "system.modificadores.dano.cac",
              "mode": 2,
              "value": "1",
              "priority": null
            },
            {
              "key": "system.modificadores.dano.ad",
              "mode": 2,
              "value": "1",
              "priority": null
            }
          ],
          "transfer": false,
          "_key": "!actors.items.effects!QmbDo3LPMBsBDcno.zYMLsYG753jmRS9u.QXpQiBZG50N99pgK"
        },
        {
          "label": "Arma Mágica (dano elemental)",
          "icon": "systems/tormenta20/icons/magias/arma-magica.webp",
          "origin": "Item.YDxLaaDhfXOkSfnF",
          "tint": "#FFFFFF",
          "flags": {
            "tormenta20": {
              "onuse": false,
              "durationScene": true
            }
          },
          "duration": {
            "rounds": 1,
            "startTime": null,
            "seconds": null,
            "combat": null,
            "turns": null,
            "startRound": null,
            "startTurn": null
          },
          "disabled": false,
          "_id": "69s4V6bsQ6M8bgSR",
          "changes": [
            {
              "key": "system.modificadores.dano.cac",
              "mode": 2,
              "value": "1d6",
              "priority": null
            },
            {
              "key": "system.modificadores.dano.ad",
              "mode": 2,
              "value": "1d6",
              "priority": null
            }
          ],
          "transfer": false,
          "_key": "!actors.items.effects!QmbDo3LPMBsBDcno.zYMLsYG753jmRS9u.69s4V6bsQ6M8bgSR"
        }
      ],
      "flags": {
        "core": {
          "sourceId": "Item.GHPogramaHOYtMYH"
        },
        "cf": null
      },
      "system": {
        "description": {
          "value": "<p style=\"text-align: justify;\">A arma fornece um b&ocirc;nus de +1 nos testes de ataque e rolagens de dano e &eacute; considerada m&aacute;gica (n&atilde;o cumulativo com b&ocirc;nus de encantos). Caso voc&ecirc; esteja empunhando a arma, pode usar seu atributo-chave de magias em vez do atributo original nos testes de ataque (n&atilde;o cumulativo com efeitos que somam este atributo).</p>",
          "unidentified": ""
        },
        "source": "T20, pg. 181 (JdA)",
        "ativacao": {
          "execucao": "action",
          "custo": 1,
          "qtd": "",
          "condicao": "",
          "special": ""
        },
        "duracao": {
          "value": 0,
          "units": "scene",
          "special": ""
        },
        "target": {
          "value": null,
          "width": null,
          "type": ""
        },
        "range": {
          "value": null,
          "units": ""
        },
        "consume": {
          "type": "",
          "target": "",
          "amount": null,
          "mpMultiplier": false
        },
        "efeito": "",
        "alcance": "touch",
        "alvo": "1 arma empunhada",
        "area": "",
        "resistencia": {
          "pericia": "",
          "atributo": "",
          "bonus": 0,
          "txt": ""
        },
        "rolls": [],
        "tipo": "uni",
        "circulo": "1",
        "preparada": false,
        "escola": "tra",
        "chatFlavor": "",
        "origin": "",
        "tags": [],
        "chatGif": ""
      },
      "ownership": {
        "default": 0,
        "tIn9sSkrT3mDWirx": 3
      },
      "_stats": {
        "systemId": "tormenta20",
        "systemVersion": "1.4.1004",
        "coreVersion": "10.286",
        "createdTime": 1664310462760,
        "modifiedTime": 1667020969248,
        "lastModifiedBy": "tIn9sSkrT3mDWirx"
      },
      "folder": "rnbokzIN8YadzdmT",
      "sort": 0,
      "_key": "!actors.items!QmbDo3LPMBsBDcno.zYMLsYG753jmRS9u"
    },
    {
      "_id": "uAmsaSF5Jf3M775Y",
      "name": "Comando",
      "type": "magia",
      "img": "systems/tormenta20/icons/magias/comando.webp",
      "effects": [
        {
          "_id": "goAzE0oaWGOVE9Gm",
          "flags": {
            "t20": null,
            "tormenta20": {
              "onuse": true,
              "self": true,
              "custo": "1",
              "aumenta": false
            }
          },
          "changes": [
            {
              "key": "alvo",
              "value": "1 criatura",
              "mode": 5,
              "priority": null
            }
          ],
          "disabled": true,
          "duration": {
            "startTime": null,
            "seconds": null,
            "combat": null,
            "rounds": null,
            "turns": null,
            "startRound": null,
            "startTurn": null
          },
          "icon": "icons/svg/upgrade.svg",
          "label": "muda o alvo para 1 criatura.",
          "origin": "Compendium.tormenta20.magias.rjB5WyNkH0eInOGW",
          "transfer": false,
          "tint": null,
          "_key": "!actors.items.effects!QmbDo3LPMBsBDcno.uAmsaSF5Jf3M775Y.goAzE0oaWGOVE9Gm"
        },
        {
          "_id": "UuprzsbsDv72xAxP",
          "flags": {
            "t20": null,
            "tormenta20": {
              "onuse": true,
              "self": true,
              "custo": "2",
              "aumenta": true
            }
          },
          "changes": [],
          "disabled": true,
          "duration": {
            "startTime": null,
            "seconds": null,
            "combat": null,
            "rounds": null,
            "turns": null,
            "startRound": null,
            "startTurn": null
          },
          "icon": "icons/svg/upgrade.svg",
          "label": "aumenta a quantidade de alvos em +1",
          "origin": "Compendium.tormenta20.magias.rjB5WyNkH0eInOGW",
          "transfer": false,
          "tint": null,
          "_key": "!actors.items.effects!QmbDo3LPMBsBDcno.uAmsaSF5Jf3M775Y.UuprzsbsDv72xAxP"
        },
        {
          "_id": "18JDpeaGFnz9KNKz",
          "changes": [],
          "disabled": false,
          "duration": {
            "rounds": 1,
            "startTime": null,
            "seconds": null,
            "combat": null,
            "turns": null,
            "startRound": null,
            "startTurn": null
          },
          "icon": "systems/tormenta20/icons/magias/comando.webp",
          "label": "Alvo Afetado",
          "origin": "Item.XeTC7eLTsBnZ57CL",
          "transfer": false,
          "flags": {
            "tormenta20": {
              "onuse": false,
              "durationScene": false
            }
          },
          "tint": null,
          "_key": "!actors.items.effects!QmbDo3LPMBsBDcno.uAmsaSF5Jf3M775Y.18JDpeaGFnz9KNKz"
        }
      ],
      "flags": {
        "core": {
          "sourceId": "Item.DClEXhRqbdmK0hPw"
        }
      },
      "system": {
        "description": {
          "value": "<p style=\"text-align: justify;\">Voc&ecirc; d&aacute; uma ordem irresist&iacute;vel, que o alvo deve ser capaz de ouvir (mas n&atilde;o precisa entender). Se falhar na resist&ecirc;ncia, ele deve obedecer ao comando em seu pr&oacute;prio turno da melhor maneira poss&iacute;vel. Escolha um dos efeitos.</p>\n<p style=\"text-align: justify;\"><em>Fuja:</em> o alvo gasta seu turno se afastando de voc&ecirc; (usando todas as suas a&ccedil;&otilde;es).</p>\n<p style=\"text-align: justify;\"><em>Largue:</em> o alvo solta quaisquer itens que esteja segurando e n&atilde;o pode peg&aacute;-los novamente at&eacute; o in&iacute;cio de seu pr&oacute;ximo turno. Como esta &eacute; uma a&ccedil;&atilde;o livre, ele ainda pode executar outras a&ccedil;&otilde;es (exceto pegar aquilo que largou).</p>\n<p style=\"text-align: justify;\"><em>Pare:</em> o alvo fica pasmo (uma vez por cena).</p>\n<p style=\"text-align: justify;\"><em>Senta:</em> com uma a&ccedil;&atilde;o livre, o alvo senta no ch&atilde;o (se estava pendurado ou voando, desce at&eacute; o ch&atilde;o). Ele pode fazer outras a&ccedil;&otilde;es, mas n&atilde;o se levantar at&eacute; o in&iacute;cio de seu pr&oacute;ximo turno.</p>\n<p style=\"text-align: justify;\"><em>Venha:</em> o alvo gasta seu turno se aproximando de voc&ecirc; (usando todas as suas a&ccedil;&otilde;es).</p>",
          "unidentified": ""
        },
        "source": "T20, pg. 184 (JdA)",
        "ativacao": {
          "execucao": "action",
          "custo": 1,
          "qtd": "",
          "condicao": "",
          "special": ""
        },
        "duracao": {
          "value": 1,
          "units": "round",
          "special": ""
        },
        "target": {
          "value": null,
          "width": null,
          "type": ""
        },
        "range": {
          "value": null,
          "units": ""
        },
        "consume": {
          "type": "",
          "target": "",
          "amount": null,
          "mpMultiplier": false
        },
        "efeito": "",
        "alcance": "short",
        "alvo": "1 humanóide",
        "area": "",
        "resistencia": {
          "pericia": "",
          "atributo": "",
          "bonus": 0,
          "txt": "Vontade anula"
        },
        "rolls": [],
        "tipo": "div",
        "circulo": "1",
        "preparada": false,
        "escola": "enc",
        "chatFlavor": "",
        "origin": "",
        "tags": [],
        "chatGif": ""
      },
      "ownership": {
        "default": 0,
        "tIn9sSkrT3mDWirx": 3
      },
      "_stats": {
        "systemId": "tormenta20",
        "systemVersion": "1.4.1004",
        "coreVersion": "10.286",
        "createdTime": 1664310462816,
        "modifiedTime": 1667020980997,
        "lastModifiedBy": "tIn9sSkrT3mDWirx"
      },
      "folder": "6gtpc5J2dUT6qGNG",
      "sort": 0,
      "_key": "!actors.items!QmbDo3LPMBsBDcno.uAmsaSF5Jf3M775Y"
    },
    {
      "_id": "KJi0Nb9mxWJSiCC6",
      "name": "Curar Ferimentos",
      "type": "magia",
      "img": "systems/tormenta20/icons/magias/curar-ferimentos.webp",
      "effects": [
        {
          "_id": "E5Ynb8D45IFPkqGc",
          "flags": {
            "t20": null,
            "tormenta20": {
              "onuse": true,
              "self": true,
              "custo": "",
              "aumenta": false
            }
          },
          "changes": [
            {
              "key": "alvo",
              "value": "1 morto-vivo",
              "mode": 5,
              "priority": null
            }
          ],
          "disabled": true,
          "duration": {
            "startTime": null,
            "seconds": null,
            "combat": null,
            "rounds": null,
            "turns": null,
            "startRound": null,
            "startTurn": null
          },
          "icon": "icons/svg/upgrade.svg",
          "label": "muda o alvo para 1 morto-vivo. Em vez do normal, causa 1d8 pontos de dano de luz (Vontade reduz à metade).",
          "origin": "Compendium.tormenta20.magias.soVAGPRWQmKxOrPm",
          "transfer": false,
          "tint": null,
          "_key": "!actors.items.effects!QmbDo3LPMBsBDcno.KJi0Nb9mxWJSiCC6.E5Ynb8D45IFPkqGc"
        },
        {
          "_id": "T7W1dpep8KKLNdPQ",
          "flags": {
            "t20": null,
            "tormenta20": {
              "onuse": true,
              "self": true,
              "custo": "1",
              "aumenta": true
            }
          },
          "changes": [
            {
              "key": "dano",
              "value": "1d8+1",
              "mode": 0,
              "priority": null
            }
          ],
          "disabled": true,
          "duration": {
            "startTime": null,
            "seconds": null,
            "combat": null,
            "rounds": null,
            "turns": null,
            "startRound": null,
            "startTurn": null
          },
          "icon": "icons/svg/upgrade.svg",
          "label": "aumenta a cura em +1d8+1.",
          "origin": "Compendium.tormenta20.magias.soVAGPRWQmKxOrPm",
          "transfer": false,
          "tint": null,
          "_key": "!actors.items.effects!QmbDo3LPMBsBDcno.KJi0Nb9mxWJSiCC6.T7W1dpep8KKLNdPQ"
        },
        {
          "_id": "xncd3c6sRimZD4nY",
          "flags": {
            "t20": null,
            "tormenta20": {
              "onuse": true,
              "self": true,
              "custo": "2",
              "aumenta": false
            }
          },
          "changes": [],
          "disabled": true,
          "duration": {
            "startTime": null,
            "seconds": null,
            "combat": null,
            "rounds": null,
            "turns": null,
            "startRound": null,
            "startTurn": null
          },
          "icon": "icons/svg/upgrade.svg",
          "label": "também remove uma condição de fadiga do alvo.",
          "origin": "Compendium.tormenta20.magias.soVAGPRWQmKxOrPm",
          "transfer": false,
          "tint": null,
          "_key": "!actors.items.effects!QmbDo3LPMBsBDcno.KJi0Nb9mxWJSiCC6.xncd3c6sRimZD4nY"
        },
        {
          "_id": "8NiPKz2Ks17aIGcT",
          "flags": {
            "t20": null,
            "tormenta20": {
              "onuse": true,
              "self": true,
              "custo": "2",
              "aumenta": false
            }
          },
          "changes": [
            {
              "key": "alcance",
              "value": "curto",
              "mode": 5,
              "priority": null
            }
          ],
          "disabled": true,
          "duration": {
            "startTime": null,
            "seconds": null,
            "combat": null,
            "rounds": null,
            "turns": null,
            "startRound": null,
            "startTurn": null
          },
          "icon": "icons/svg/upgrade.svg",
          "label": "muda o alcance para curto.",
          "origin": "Compendium.tormenta20.magias.soVAGPRWQmKxOrPm",
          "transfer": false,
          "tint": null,
          "_key": "!actors.items.effects!QmbDo3LPMBsBDcno.KJi0Nb9mxWJSiCC6.8NiPKz2Ks17aIGcT"
        },
        {
          "_id": "lcjBzJa7QT1xtM5I",
          "flags": {
            "t20": null,
            "tormenta20": {
              "onuse": true,
              "self": true,
              "custo": "5",
              "aumenta": false
            }
          },
          "changes": [
            {
              "key": "alcance",
              "value": "curto",
              "mode": 5,
              "priority": null
            },
            {
              "key": "alvo",
              "value": "criaturas escolhidas",
              "mode": 5,
              "priority": null
            }
          ],
          "disabled": true,
          "duration": {
            "startTime": null,
            "seconds": null,
            "combat": null,
            "rounds": null,
            "turns": null,
            "startRound": null,
            "startTurn": null
          },
          "icon": "icons/svg/upgrade.svg",
          "label": "muda o alcance para curto e o alvo para criaturas escolhidas.",
          "origin": "Compendium.tormenta20.magias.soVAGPRWQmKxOrPm",
          "transfer": false,
          "tint": null,
          "_key": "!actors.items.effects!QmbDo3LPMBsBDcno.KJi0Nb9mxWJSiCC6.lcjBzJa7QT1xtM5I"
        }
      ],
      "flags": {
        "core": {
          "sourceId": "Item.galK4UUS6FxYz22S"
        }
      },
      "system": {
        "description": {
          "value": "<p style=\"text-align: justify;\">Voc&ecirc; canaliza energia positiva que recupera 2d8+2 pontos de vida na criatura tocada.</p>",
          "unidentified": ""
        },
        "source": "T20, pg. 189 (JdA)",
        "ativacao": {
          "execucao": "action",
          "custo": 1,
          "qtd": "",
          "condicao": "",
          "special": ""
        },
        "duracao": {
          "value": 0,
          "units": "inst",
          "special": ""
        },
        "target": {
          "value": null,
          "width": null,
          "type": ""
        },
        "range": {
          "value": null,
          "units": ""
        },
        "consume": {
          "type": "",
          "target": "",
          "amount": null,
          "mpMultiplier": false
        },
        "efeito": "",
        "alcance": "touch",
        "alvo": "1 criatura",
        "area": "",
        "resistencia": {
          "pericia": "",
          "atributo": "",
          "bonus": 0,
          "txt": ""
        },
        "rolls": [
          {
            "name": "Cura",
            "key": "dano0",
            "type": "dano",
            "parts": [
              [
                "2d8+2",
                "",
                ""
              ]
            ],
            "versatil": ""
          }
        ],
        "tipo": "div",
        "circulo": "1",
        "preparada": false,
        "escola": "evo",
        "chatFlavor": "",
        "origin": "",
        "tags": [],
        "chatGif": ""
      },
      "ownership": {
        "default": 0,
        "tIn9sSkrT3mDWirx": 3
      },
      "_stats": {
        "systemId": "tormenta20",
        "systemVersion": "1.4.1004",
        "coreVersion": "10.286",
        "createdTime": 1664310462822,
        "modifiedTime": 1667020985652,
        "lastModifiedBy": "tIn9sSkrT3mDWirx"
      },
      "folder": "AOGmSz9kHvitzAbd",
      "sort": 0,
      "_key": "!actors.items!QmbDo3LPMBsBDcno.KJi0Nb9mxWJSiCC6"
    },
    {
      "_id": "HrJfJffvmLfSSQ7V",
      "name": "Escuridão",
      "type": "magia",
      "img": "systems/tormenta20/icons/magias/escuridao.webp",
      "effects": [
        {
          "_id": "Uyu4cNLHEutbBxZP",
          "flags": {
            "t20": null,
            "tormenta20": {
              "onuse": true,
              "self": true,
              "custo": "1",
              "aumenta": true
            }
          },
          "changes": [],
          "disabled": true,
          "duration": {
            "startTime": null,
            "seconds": null,
            "combat": null,
            "rounds": null,
            "turns": null,
            "startRound": null,
            "startTurn": null
          },
          "icon": "icons/svg/upgrade.svg",
          "label": "aumenta a área da escuridão em +1,5m de raio.",
          "origin": "Compendium.tormenta20.magias.Bt364TPpNUI1QVPP",
          "transfer": false,
          "tint": null,
          "_key": "!actors.items.effects!QmbDo3LPMBsBDcno.HrJfJffvmLfSSQ7V.Uyu4cNLHEutbBxZP"
        },
        {
          "_id": "0YqIyoJ2KmTHGJbz",
          "flags": {
            "t20": null,
            "tormenta20": {
              "onuse": true,
              "self": true,
              "custo": "2",
              "aumenta": false,
              "attack": false,
              "skill": false,
              "ability": false,
              "power": false,
              "spell": false,
              "consumable": false,
              "durationScene": false,
              "items": ""
            }
          },
          "changes": [],
          "disabled": true,
          "duration": {
            "startTime": null,
            "seconds": null,
            "combat": null,
            "rounds": null,
            "turns": null,
            "startRound": null,
            "startTurn": null
          },
          "icon": "icons/svg/upgrade.svg",
          "label": "muda o efeito para fornecer camuflagem total por escuridão total. As sombras bloqueiam a visão na área e através dela.",
          "origin": "Compendium.tormenta20.magias.Bt364TPpNUI1QVPP",
          "transfer": false,
          "tint": null,
          "_key": "!actors.items.effects!QmbDo3LPMBsBDcno.HrJfJffvmLfSSQ7V.0YqIyoJ2KmTHGJbz"
        },
        {
          "_id": "e70zPpfkALuH0bfC",
          "flags": {
            "t20": null,
            "tormenta20": {
              "onuse": true,
              "self": true,
              "custo": "2",
              "aumenta": false
            }
          },
          "changes": [
            {
              "key": "duracao",
              "value": "1 dia",
              "mode": 5,
              "priority": null
            }
          ],
          "disabled": true,
          "duration": {
            "startTime": null,
            "seconds": null,
            "combat": null,
            "rounds": null,
            "turns": null,
            "startRound": null,
            "startTurn": null
          },
          "icon": "icons/svg/upgrade.svg",
          "label": "muda a duração para 1 dia.",
          "origin": "Compendium.tormenta20.magias.Bt364TPpNUI1QVPP",
          "transfer": false,
          "tint": null,
          "_key": "!actors.items.effects!QmbDo3LPMBsBDcno.HrJfJffvmLfSSQ7V.e70zPpfkALuH0bfC"
        },
        {
          "_id": "7bPquxwkzse2vRjB",
          "flags": {
            "t20": null,
            "tormenta20": {
              "onuse": true,
              "self": true,
              "custo": "2",
              "aumenta": false
            }
          },
          "changes": [
            {
              "key": "alvo",
              "value": "1 criatura",
              "mode": 5,
              "priority": null
            },
            {
              "key": "resistencia",
              "value": "Fortitude parcial",
              "mode": 5,
              "priority": null
            },
            {
              "key": "condicao",
              "value": "cego",
              "mode": 0,
              "priority": null
            },
            {
              "key": "condicao",
              "value": "cego",
              "mode": 0,
              "priority": null
            }
          ],
          "disabled": true,
          "duration": {
            "startTime": null,
            "seconds": null,
            "combat": null,
            "rounds": null,
            "turns": null,
            "startRound": null,
            "startTurn": null
          },
          "icon": "icons/svg/upgrade.svg",
          "label": "muda o alvo para 1 criatura e a resistência para Fortitude parcial. Você lança a magia nos olhos do alvo, que fica cego pela cena. Se passar na resistência, fica cego por 1 rodada. Requer 2º círculo.",
          "origin": "Compendium.tormenta20.magias.Bt364TPpNUI1QVPP",
          "transfer": false,
          "tint": null,
          "_key": "!actors.items.effects!QmbDo3LPMBsBDcno.HrJfJffvmLfSSQ7V.7bPquxwkzse2vRjB"
        },
        {
          "_id": "FJgSE1Jwz7HbX1zB",
          "flags": {
            "t20": null,
            "tormenta20": {
              "onuse": true,
              "self": true,
              "custo": "5",
              "aumenta": false,
              "attack": false,
              "skill": false,
              "ability": false,
              "power": false,
              "spell": false,
              "consumable": false,
              "items": "",
              "durationScene": false
            }
          },
          "changes": [
            {
              "key": "alcance",
              "mode": 5,
              "value": "pessoal",
              "priority": 0
            },
            {
              "key": "alvo",
              "mode": 5,
              "value": "você",
              "priority": 0
            }
          ],
          "disabled": true,
          "duration": {
            "startTime": null,
            "seconds": null,
            "combat": null,
            "rounds": null,
            "turns": null,
            "startRound": null,
            "startTurn": null
          },
          "icon": "icons/svg/upgrade.svg",
          "label": "muda o alcance para pessoal e o alvo para você. Em vez do normal, você é coberto por sombras, recebendo +10 em testes de Furtividade e camuflagem leve. Requer 2º círculo.",
          "origin": "Compendium.tormenta20.magias.Bt364TPpNUI1QVPP",
          "transfer": false,
          "tint": null,
          "_key": "!actors.items.effects!QmbDo3LPMBsBDcno.HrJfJffvmLfSSQ7V.FJgSE1Jwz7HbX1zB"
        },
        {
          "label": "Cego (Aprimoramento de +2 PM)",
          "icon": "systems/tormenta20/icons/magias/escuridao.webp",
          "origin": "Item.Bt364TPpNUI1QVPP",
          "tint": "#FFFFFF",
          "flags": {
            "tormenta20": {
              "onuse": false,
              "durationScene": true
            }
          },
          "duration": {
            "rounds": 1,
            "startTime": null,
            "seconds": null,
            "combat": null,
            "turns": null,
            "startRound": null,
            "startTurn": null
          },
          "disabled": false,
          "_id": "41PPixuYXAVOp2FW",
          "changes": [],
          "transfer": false,
          "_key": "!actors.items.effects!QmbDo3LPMBsBDcno.HrJfJffvmLfSSQ7V.41PPixuYXAVOp2FW"
        },
        {
          "label": "Bônus em Furtividade (Aprimoramento de +5 PM)",
          "icon": "systems/tormenta20/icons/magias/escuridao.webp",
          "origin": "Item.Bt364TPpNUI1QVPP",
          "tint": "#FFFFFF",
          "flags": {
            "tormenta20": {
              "onuse": false,
              "durationScene": true
            }
          },
          "duration": {
            "rounds": 1,
            "startTime": null,
            "seconds": null,
            "combat": null,
            "turns": null,
            "startRound": null,
            "startTurn": null
          },
          "disabled": false,
          "_id": "l1QUv78abT0UKdX7",
          "changes": [
            {
              "key": "system.pericias.furt.bonus",
              "mode": 2,
              "value": "10",
              "priority": null
            }
          ],
          "transfer": false,
          "_key": "!actors.items.effects!QmbDo3LPMBsBDcno.HrJfJffvmLfSSQ7V.l1QUv78abT0UKdX7"
        }
      ],
      "flags": {
        "core": {
          "sourceId": "Item.mLpN1YhbKECOim6V"
        }
      },
      "system": {
        "description": {
          "value": "<p style=\"text-align: justify;\">O alvo emana sombras em uma &aacute;rea com 6m de raio. Criaturas dentro da &aacute;rea recebem camuflagem leve por escurid&atilde;o leve. As sombras n&atilde;o podem ser iluminadas por nenhuma fonte de luz natural. O objeto pode ser guardado (em um bolso, por exemplo) para interromper a escurid&atilde;o, que voltar&aacute; a funcionar caso o objeto seja revelado. Se lan&ccedil;ar a magia num objeto de uma criatura involunt&aacute;ria, ela tem direito a um teste de Vontade para anul&aacute;-la. <em>Escurid&atilde;o</em> anula <em>Luz</em>.</p>",
          "unidentified": ""
        },
        "source": "T20, pg. 193 (JdA)",
        "ativacao": {
          "execucao": "action",
          "custo": 1,
          "qtd": "",
          "condicao": "",
          "special": ""
        },
        "duracao": {
          "value": 0,
          "units": "scene",
          "special": ""
        },
        "target": {
          "value": null,
          "width": null,
          "type": ""
        },
        "range": {
          "value": null,
          "units": ""
        },
        "consume": {
          "type": "",
          "target": "",
          "amount": null,
          "mpMultiplier": false
        },
        "efeito": "",
        "alcance": "short",
        "alvo": "1 objeto",
        "area": "",
        "resistencia": {
          "pericia": "",
          "atributo": "",
          "bonus": 0,
          "txt": "Vontade anula (veja texto)"
        },
        "rolls": [],
        "tipo": "uni",
        "circulo": "1",
        "preparada": false,
        "escola": "nec",
        "chatFlavor": "",
        "origin": "",
        "tags": [],
        "chatGif": ""
      },
      "ownership": {
        "default": 0,
        "tIn9sSkrT3mDWirx": 3
      },
      "_stats": {
        "systemId": "tormenta20",
        "systemVersion": "1.4.1004",
        "coreVersion": "10.286",
        "createdTime": 1664310461779,
        "modifiedTime": 1667020990712,
        "lastModifiedBy": "tIn9sSkrT3mDWirx"
      },
      "folder": "4ssMHtvcpPinK0Zn",
      "sort": 0,
      "_key": "!actors.items!QmbDo3LPMBsBDcno.HrJfJffvmLfSSQ7V"
    },
    {
      "_id": "ccEfBDAfvUmJp4Qh",
      "name": "Enxame de Pestes",
      "type": "magia",
      "img": "systems/tormenta20/icons/magias/enxame-de-pestes.webp",
      "effects": [
        {
          "_id": "rUhHEtwTUVmlsDd2",
          "flags": {
            "t20": null,
            "tormenta20": {
              "onuse": true,
              "self": true,
              "custo": "2",
              "aumenta": true,
              "attack": false,
              "skill": false,
              "ability": false,
              "power": false,
              "spell": false,
              "consumable": false,
              "durationScene": false
            }
          },
          "changes": [
            {
              "key": "dano",
              "mode": 0,
              "value": "1d12",
              "priority": null
            }
          ],
          "disabled": true,
          "duration": {
            "startTime": null,
            "seconds": null,
            "combat": null,
            "rounds": null,
            "turns": null,
            "startRound": null,
            "startTurn": null
          },
          "icon": "icons/svg/upgrade.svg",
          "label": "aumenta o dano em +1d12.",
          "origin": "Compendium.tormenta20.magias.0s9EEKvVnPbFwS1t",
          "transfer": false,
          "tint": null,
          "_key": "!actors.items.effects!QmbDo3LPMBsBDcno.ccEfBDAfvUmJp4Qh.rUhHEtwTUVmlsDd2"
        },
        {
          "_id": "P4pirBwD7xETNzpw",
          "flags": {
            "t20": null,
            "tormenta20": {
              "onuse": true,
              "self": true,
              "custo": "3",
              "aumenta": false
            }
          },
          "changes": [
            {
              "key": "resistencia",
              "value": "Reflexos reduz à metade",
              "mode": 5,
              "priority": null
            },
            {
              "key": "dano",
              "value": "3d12",
              "mode": 0,
              "priority": null
            }
          ],
          "disabled": true,
          "duration": {
            "startTime": null,
            "seconds": null,
            "combat": null,
            "rounds": null,
            "turns": null,
            "startRound": null,
            "startTurn": null
          },
          "icon": "icons/svg/upgrade.svg",
          "label": "muda a resistência para Reflexos reduz à metade e o enxame para criaturas maiores, como gatos, guaxinins, compsognatos ou kobolds. Ele causa 3d12 pontos de dano (a sua escolha entre corte, impacto ou perfuração). O resto da magia segue normal.",
          "origin": "Compendium.tormenta20.magias.0s9EEKvVnPbFwS1t",
          "transfer": false,
          "tint": null,
          "_key": "!actors.items.effects!QmbDo3LPMBsBDcno.ccEfBDAfvUmJp4Qh.P4pirBwD7xETNzpw"
        },
        {
          "_id": "DHpBmH5U3daYrDVC",
          "flags": {
            "t20": null,
            "tormenta20": {
              "onuse": true,
              "self": true,
              "custo": "5",
              "aumenta": true
            }
          },
          "changes": [],
          "disabled": true,
          "duration": {
            "startTime": null,
            "seconds": null,
            "combat": null,
            "rounds": null,
            "turns": null,
            "startRound": null,
            "startTurn": null
          },
          "icon": "icons/svg/upgrade.svg",
          "label": "aumenta o número de enxames em +1. Eles não podem ocupar o mesmo espaço. Requer 3º círculo.",
          "origin": "Compendium.tormenta20.magias.0s9EEKvVnPbFwS1t",
          "transfer": false,
          "tint": null,
          "_key": "!actors.items.effects!QmbDo3LPMBsBDcno.ccEfBDAfvUmJp4Qh.DHpBmH5U3daYrDVC"
        },
        {
          "_id": "ieUdi5tA1oF9QhoP",
          "flags": {
            "t20": null,
            "tormenta20": {
              "onuse": true,
              "self": true,
              "custo": "7",
              "aumenta": false
            }
          },
          "changes": [
            {
              "key": "resistencia",
              "value": "Reflexos reduz à metade",
              "mode": 5,
              "priority": null
            },
            {
              "key": "dano",
              "value": "5d12",
              "mode": 0,
              "priority": null
            }
          ],
          "disabled": true,
          "duration": {
            "startTime": null,
            "seconds": null,
            "combat": null,
            "rounds": null,
            "turns": null,
            "startRound": null,
            "startTurn": null
          },
          "icon": "icons/svg/upgrade.svg",
          "label": "muda a resistência para Reflexos reduz à metade e o enxame para criaturas elementais. Ele causa 5d12 pontos do dano (a sua escolha entre ácido, eletricidade, fogo ou frio). O resto da magia segue normal. Requer 4º círculo.",
          "origin": "Compendium.tormenta20.magias.0s9EEKvVnPbFwS1t",
          "transfer": false,
          "tint": null,
          "_key": "!actors.items.effects!QmbDo3LPMBsBDcno.ccEfBDAfvUmJp4Qh.ieUdi5tA1oF9QhoP"
        }
      ],
      "flags": {
        "core": {
          "sourceId": "Item.4e59kyZdikq2FgSd"
        }
      },
      "system": {
        "description": {
          "value": "<p style=\"text-align: justify;\">Voc&ecirc; conjura um enxame de criaturas a sua escolha, como besouros, gafanhotos, ratos, morcegos ou serpentes. O enxame pode passar pelo espa&ccedil;o de outras criaturas e n&atilde;o impede que outras criaturas entrem no espa&ccedil;o dele. No final de seus turnos, o enxame causa 2d12 pontos de dano de corte a qualquer criatura em seu espa&ccedil;o (Fortitude reduz &agrave; metade). Voc&ecirc; pode gastar uma a&ccedil;&atilde;o de movimento para mover o enxame 12m.</p>",
          "unidentified": ""
        },
        "source": "T20, pg. 192 (JdA)",
        "ativacao": {
          "execucao": "full",
          "custo": 3,
          "qtd": "",
          "condicao": "",
          "special": ""
        },
        "duracao": {
          "value": 0,
          "units": "sust",
          "special": ""
        },
        "target": {
          "value": null,
          "width": null,
          "type": ""
        },
        "range": {
          "value": null,
          "units": ""
        },
        "consume": {
          "type": "",
          "target": "",
          "amount": null,
          "mpMultiplier": false
        },
        "efeito": "1 enxame Médio (quadrado de 1,5m)",
        "alcance": "medium",
        "alvo": "",
        "area": "",
        "resistencia": {
          "pericia": "",
          "atributo": "",
          "bonus": 0,
          "txt": "Fortitude reduz à metade"
        },
        "rolls": [
          {
            "name": "Dano",
            "key": "dano0",
            "type": "dano",
            "parts": [
              [
                "2d12",
                "corte",
                ""
              ]
            ],
            "versatil": ""
          }
        ],
        "tipo": "div",
        "circulo": "2",
        "preparada": false,
        "escola": "con",
        "chatFlavor": "",
        "origin": "",
        "tags": [],
        "chatGif": ""
      },
      "ownership": {
        "default": 0,
        "tIn9sSkrT3mDWirx": 3
      },
      "_stats": {
        "systemId": "tormenta20",
        "systemVersion": "1.4.1004",
        "coreVersion": "10.286",
        "createdTime": 1664310461752,
        "modifiedTime": 1667020999220,
        "lastModifiedBy": "tIn9sSkrT3mDWirx"
      },
      "folder": "T3MhNgiDBZLDmmgC",
      "sort": 0,
      "_key": "!actors.items!QmbDo3LPMBsBDcno.ccEfBDAfvUmJp4Qh"
    },
    {
      "_id": "4VDUR5DwYQEw4vYq",
      "name": "Miasma Mefítico",
      "type": "magia",
      "img": "systems/tormenta20/icons/magias/miasma-mefitico.webp",
      "effects": [
        {
          "_id": "fyrWEjDhKy6MU5of",
          "flags": {
            "t20": null,
            "tormenta20": {
              "onuse": true,
              "self": true,
              "custo": "",
              "aumenta": false,
              "attack": false,
              "skill": false,
              "ability": false,
              "power": false,
              "spell": false,
              "consumable": false,
              "items": "",
              "durationScene": false
            }
          },
          "changes": [
            {
              "key": "alcance",
              "mode": 5,
              "value": "Toque",
              "priority": 0
            },
            {
              "key": "area",
              "mode": 5,
              "value": "alvo (1 criatura com 0 PV ou menos)",
              "priority": 0
            },
            {
              "key": "duracao",
              "mode": 5,
              "value": "instantânea",
              "priority": 0
            },
            {
              "key": "resistencia",
              "mode": 5,
              "value": "Fortitude anula",
              "priority": 0
            }
          ],
          "disabled": true,
          "duration": {
            "startTime": null,
            "seconds": null,
            "combat": null,
            "rounds": null,
            "turns": null,
            "startRound": null,
            "startTurn": null
          },
          "icon": "icons/svg/upgrade.svg",
          "label": "muda o alcance para toque, a área para alvo (1 criatura com 0 PV ou menos), a duração para instantânea e a resistência para Fortitude anula. e adiciona componente material (pó de ônix no valor de T$ 10). Em vez do normal, você canaliza o Miasma contra uma vítima. Se falhar na resistência, ela morre e você recebe +2 na CD de suas magias por 1 dia. Se passar, fica imune a este truque por um dia.",
          "origin": "Compendium.tormenta20.magias.bs3SycPD7ENusrfH",
          "transfer": false,
          "tint": null,
          "_key": "!actors.items.effects!QmbDo3LPMBsBDcno.4VDUR5DwYQEw4vYq.fyrWEjDhKy6MU5of"
        },
        {
          "_id": "1VEcwX3EAmPtckY8",
          "flags": {
            "t20": null,
            "tormenta20": {
              "onuse": true,
              "self": true,
              "custo": "2",
              "aumenta": true,
              "attack": false,
              "skill": false,
              "ability": false,
              "power": false,
              "spell": false,
              "consumable": false,
              "durationScene": false
            }
          },
          "changes": [
            {
              "key": "dano",
              "mode": 0,
              "value": "1d6",
              "priority": null
            }
          ],
          "disabled": true,
          "duration": {
            "startTime": null,
            "seconds": null,
            "combat": null,
            "rounds": null,
            "turns": null,
            "startRound": null,
            "startTurn": null
          },
          "icon": "icons/svg/upgrade.svg",
          "label": "aumenta o dano em +1d6.",
          "origin": "Compendium.tormenta20.magias.bs3SycPD7ENusrfH",
          "transfer": false,
          "tint": null,
          "_key": "!actors.items.effects!QmbDo3LPMBsBDcno.4VDUR5DwYQEw4vYq.1VEcwX3EAmPtckY8"
        },
        {
          "_id": "0jY8pxm5JZUViwRp",
          "flags": {
            "t20": null,
            "tormenta20": {
              "onuse": true,
              "self": true,
              "custo": "3",
              "aumenta": false
            }
          },
          "changes": [],
          "disabled": true,
          "duration": {
            "startTime": null,
            "seconds": null,
            "combat": null,
            "rounds": null,
            "turns": null,
            "startRound": null,
            "startTurn": null
          },
          "icon": "icons/svg/upgrade.svg",
          "label": "muda o tipo do dano para trevas.",
          "origin": "Compendium.tormenta20.magias.bs3SycPD7ENusrfH",
          "transfer": false,
          "tint": null,
          "_key": "!actors.items.effects!QmbDo3LPMBsBDcno.4VDUR5DwYQEw4vYq.0jY8pxm5JZUViwRp"
        }
      ],
      "flags": {
        "core": {
          "sourceId": "Item.54dzN92Dt0iAl0tl"
        }
      },
      "system": {
        "description": {
          "value": "<p style=\"text-align: justify;\">A &aacute;rea &eacute; coberta por emana&ccedil;&otilde;es letais. Criaturas na &aacute;rea sofrem 5d6 pontos de dano de &aacute;cido e ficam enjoadas por 1 rodada. Se passarem na resist&ecirc;ncia, sofrem metade do dano e n&atilde;o ficam enjoadas.</p>",
          "unidentified": ""
        },
        "source": "T20, pg. 199 (JdA)",
        "ativacao": {
          "execucao": "action",
          "custo": 3,
          "qtd": "",
          "condicao": "",
          "special": ""
        },
        "duracao": {
          "value": 0,
          "units": "inst",
          "special": ""
        },
        "target": {
          "value": null,
          "width": null,
          "type": ""
        },
        "range": {
          "value": null,
          "units": ""
        },
        "consume": {
          "type": "",
          "target": "",
          "amount": null,
          "mpMultiplier": false
        },
        "efeito": "",
        "alcance": "medium",
        "alvo": "",
        "area": "nuvem com 6m de raio",
        "resistencia": {
          "pericia": "",
          "atributo": "",
          "bonus": 0,
          "txt": "Fortitude (veja texto)"
        },
        "rolls": [
          {
            "name": "Dano",
            "key": "dano0",
            "type": "dano",
            "parts": [
              [
                "5d6",
                "",
                ""
              ]
            ],
            "versatil": ""
          }
        ],
        "tipo": "div",
        "circulo": "2",
        "preparada": false,
        "escola": "nec",
        "chatFlavor": "",
        "origin": "",
        "tags": [],
        "chatGif": ""
      },
      "ownership": {
        "default": 0,
        "tIn9sSkrT3mDWirx": 3
      },
      "_stats": {
        "systemId": "tormenta20",
        "systemVersion": "1.4.1004",
        "coreVersion": "10.286",
        "createdTime": 1664310462767,
        "modifiedTime": 1667021028425,
        "lastModifiedBy": "tIn9sSkrT3mDWirx"
      },
      "folder": "4De0n0UokAPacrNK",
      "sort": 0,
      "_key": "!actors.items!QmbDo3LPMBsBDcno.4VDUR5DwYQEw4vYq"
    },
    {
      "_id": "LKWo8YnW12nxjQSP",
      "name": "Couraça",
      "type": "equipamento",
      "img": "systems/tormenta20/icons/itens/equipamentos/couraca.webp",
      "effects": [],
      "flags": {
        "core": {
          "sourceId": "Compendium.tormenta20.equipamentos.JVB4JAaxPjf0PFFN"
        }
      },
      "system": {
        "description": {
          "value": "<p style=\"text-align:justify;\">A mais robusta das armaduras leves, formada por uma placa metálica que protege o peito e as costas, presa sobre um casaco de couro.</p>",
          "unidentified": ""
        },
        "source": "T20, pg. 154 (JdA)",
        "equipado": false,
        "carregado": true,
        "peso": 15,
        "espacos": 2,
        "qtd": 1,
        "preco": 500,
        "pv": {
          "value": 0,
          "min": 0,
          "max": 0
        },
        "rd": 0,
        "tipo": "leve",
        "armadura": {
          "value": 5,
          "penalidade": -4,
          "maxAtr": 0
        },
        "rolls": [],
        "origin": "",
        "tags": [],
        "chatFlavor": "",
        "chatGif": "",
        "ativacao": {
          "custo": 0,
          "condicao": "",
          "execucao": "",
          "qtd": "",
          "special": ""
        },
        "upgrades": {
          "melhoria1": "",
          "melhoria2": "",
          "melhoria3": "",
          "melhoria4": "",
          "material": "",
          "encanto1": "",
          "encanto2": "",
          "encanto3": ""
        },
        "melhorias": {},
        "encantos": {}
      },
      "ownership": {
        "default": 0,
        "tIn9sSkrT3mDWirx": 3
      },
      "_stats": {
        "systemId": "tormenta20",
        "systemVersion": "1.4.1004",
        "coreVersion": "10.286",
        "createdTime": 1664312772401,
        "modifiedTime": 1667021089375,
        "lastModifiedBy": "tIn9sSkrT3mDWirx"
      },
      "folder": "rsvFZjPiYXV5s7IN",
      "sort": 112500,
      "_key": "!actors.items!QmbDo3LPMBsBDcno.LKWo8YnW12nxjQSP"
    },
    {
      "_id": "s4GCPkFX0RNLfiNt",
      "name": "Escudo leve",
      "type": "equipamento",
      "img": "systems/tormenta20/icons/itens/equipamentos/escudo-leve.webp",
      "effects": [],
      "flags": {
        "core": {
          "sourceId": "Compendium.tormenta20.equipamentos.0w1vZm2RGM40opxT"
        }
      },
      "system": {
        "description": {
          "value": "<p style=\"text-align:justify;\">Tipicamente feito de madeira, este escudo é amarrado no antebraço, deixando a mão livre. O usuário pode carregar um objeto na mão do escudo, mas não manusear uma arma.</p>",
          "unidentified": ""
        },
        "source": "T20, pg. 154 (JdA)",
        "equipado": false,
        "carregado": true,
        "peso": 3,
        "espacos": 1,
        "qtd": 1,
        "preco": 5,
        "pv": {
          "value": 0,
          "min": 0,
          "max": 0
        },
        "rd": 0,
        "tipo": "escudo",
        "armadura": {
          "value": 1,
          "penalidade": -1,
          "maxAtr": 0
        },
        "rolls": [],
        "melhorias": {
          "thorny": null,
          "adjusted": null,
          "undermeasure": null,
          "delicate": null,
          "specialmaterial": null,
          "polished": null,
          "reinforced": null,
          "sealed": null,
          "golden": null,
          "gems": null,
          "discreet": null,
          "macabre": null
        },
        "encantos": {
          "animateed": null,
          "bashing": null,
          "abascanth": null,
          "blessed": null,
          "acrobatic": null,
          "winged": null,
          "frightful": null,
          "caustic": null,
          "defending": null,
          "slick": null,
          "ghostly": null,
          "ortification": null,
          "frost": null,
          "guardian": null,
          "hypnotic": null,
          "illusory": null,
          "incandescent": null,
          "invulnerable": null,
          "opaque": null,
          "protector": null,
          "reflecting": null,
          "lightning": null,
          "blinding": null,
          "shadow": null,
          "zealous": null
        },
        "origin": "",
        "tags": [],
        "chatFlavor": "",
        "chatGif": "",
        "ativacao": {
          "custo": 0,
          "condicao": "",
          "execucao": "",
          "qtd": "",
          "special": ""
        },
        "upgrades": {
          "melhoria1": "",
          "melhoria2": "",
          "melhoria3": "",
          "melhoria4": "",
          "material": "",
          "encanto1": "",
          "encanto2": "",
          "encanto3": ""
        }
      },
      "ownership": {
        "default": 0,
        "tIn9sSkrT3mDWirx": 3
      },
      "_stats": {
        "systemId": "tormenta20",
        "systemVersion": "1.4.1004",
        "coreVersion": "10.286",
        "createdTime": 1664312772389,
        "modifiedTime": 1667021088528,
        "lastModifiedBy": "tIn9sSkrT3mDWirx"
      },
      "folder": "rsvFZjPiYXV5s7IN",
      "sort": 103125,
      "_key": "!actors.items!QmbDo3LPMBsBDcno.s4GCPkFX0RNLfiNt"
    },
    {
      "folder": "AiwawZwp0Sxn63nF",
      "name": "Símbolo Sagrado",
      "type": "equipamento",
      "img": "systems/tormenta20/icons/itens/gerais/simbolo-sagrado.webp",
      "system": {
        "description": {
          "value": "<p>Um medalh&atilde;o de madeira ou metal com o s&iacute;mbolo de uma divindade. Voc&ecirc; precisa estar vestindo (normalmente com uma corrente ao redor do pesco&ccedil;o) ou empunhando um s&iacute;mbolo sagrado para usar qualquer poder concedido.</p>",
          "unidentified": ""
        },
        "source": "T20, pg. 157 (JdA)",
        "equipado": false,
        "carregado": true,
        "peso": 0,
        "espacos": 1,
        "qtd": 1,
        "preco": 5,
        "pv": {
          "value": 0,
          "min": 0,
          "max": 0
        },
        "rd": 0,
        "tipo": "traje",
        "armadura": {
          "value": 0,
          "penalidade": 0,
          "maxAtr": 0
        },
        "origin": "",
        "tags": [],
        "chatFlavor": "",
        "ativacao": {
          "custo": null,
          "condicao": "",
          "execucao": "",
          "qtd": "",
          "special": ""
        },
        "rolls": [],
        "chatGif": "",
        "upgrades": {
          "melhoria1": "",
          "melhoria2": "",
          "melhoria3": "",
          "melhoria4": "",
          "material": "",
          "encanto1": "",
          "encanto2": "",
          "encanto3": ""
        },
        "melhorias": {},
        "encantos": {}
      },
      "effects": [],
      "sort": 0,
      "ownership": {
        "default": 0,
        "RzS5vw1t6rOSWsrq": 3,
        "tIn9sSkrT3mDWirx": 3
      },
      "flags": {
        "core": {
          "sourceId": "Item.GN5S9awu41thdvCn"
        }
      },
      "_stats": {
        "systemId": "tormenta20",
        "systemVersion": "1.4.1004",
        "coreVersion": "10.286",
        "createdTime": 1665712733997,
        "modifiedTime": 1667021087839,
        "lastModifiedBy": "tIn9sSkrT3mDWirx"
      },
      "_id": "7aYbeLVBzYypdmlE",
      "_key": "!actors.items!QmbDo3LPMBsBDcno.7aYbeLVBzYypdmlE"
    }
  ],
  "effects": [
    {
      "label": "Ataque Furtivo",
      "icon": "icons/svg/upgrade.svg",
      "origin": "Actor.QmbDo3LPMBsBDcno.Item.zaS4yvszWuhJnPBD",
      "tint": "#FFFFFF",
      "flags": {
        "tormenta20": {
          "onuse": true,
          "durationScene": false,
          "self": false,
          "attack": true,
          "skill": false,
          "ability": false,
          "power": false,
          "equipment": false,
          "spell": false,
          "consumable": false,
          "items": "",
          "aumenta": false,
          "custo": ""
        }
      },
      "duration": {
        "startTime": 0,
        "seconds": null,
        "combat": null,
        "rounds": null,
        "turns": null,
        "startRound": null,
        "startTurn": null
      },
      "disabled": true,
      "_id": "Fw8Pi8birjOOE6Bc",
      "changes": [
        {
          "key": "dano",
          "mode": 2,
          "value": "2d6",
          "priority": 0
        }
      ],
      "transfer": false,
      "_key": "!actors.effects!QmbDo3LPMBsBDcno.Fw8Pi8birjOOE6Bc"
    },
    {
      "name": "+5 Resistência a Veneno",
      "icon": "icons/svg/upgrade.svg",
      "origin": "Compendium.tormenta20.ameacas.Actor.WMcZXuIIRzCPzr6a",
      "tint": "#FFFFFF",
      "flags": {
        "tormenta20": {
          "onuse": true,
          "durationScene": false,
          "self": false,
          "attack": false,
          "skill": true,
          "ability": false,
          "power": false,
          "equipment": false,
          "spell": false,
          "consumable": false,
          "items": "Fortitude;Reflexos;Vontade",
          "aumenta": false,
          "custo": ""
        },
        "core": {
          "sourceId": "Compendium.tormenta20.ameacas.Actor.WMcZXuIIRzCPzr6a.ActiveEffect.MHuiS571FAZ5UH6Z"
        }
      },
      "duration": {
        "startTime": 0,
        "seconds": null,
        "combat": null,
        "rounds": null,
        "turns": null,
        "startRound": null,
        "startTurn": null
      },
      "disabled": true,
      "_id": "pfK7XpImWRWjLMEN",
      "changes": [
        {
          "key": "roll",
          "mode": 2,
          "value": "5",
          "priority": 0
        }
      ],
      "description": "",
      "transfer": false,
      "statuses": [],
      "_key": "!actors.effects!QmbDo3LPMBsBDcno.pfK7XpImWRWjLMEN"
    }
  ],
  "folder": "V7cGpJ4M5tIhe0sM",
  "sort": 100001,
  "flags": {
    "exportSource": {
      "world": "andreverse-t20",
      "system": "tormenta20",
      "coreVersion": "0.6.6",
      "systemVersion": "0.9.71"
    },
    "editing": false,
    "tormenta20": {
      "sheet": {},
      "lvlconfig": {
        "pv": {},
        "pm": {}
      },
      "version": "1.3.0.0"
    },
    "core": {
      "sourceId": "Compendium.tormenta20.ameacas.QmbDo3LPMBsBDcno"
    }
  },
  "system": {
    "atributos": {
      "for": {
        "value": 0,
        "bonus": 0,
        "base": 0,
        "racial": 0
      },
      "des": {
        "value": 0,
        "bonus": 0,
        "base": 2,
        "racial": 0
      },
      "con": {
        "value": 0,
        "bonus": 0,
        "base": 0,
        "racial": 0
      },
      "int": {
        "value": 0,
        "bonus": 0,
        "base": 4,
        "racial": 0
      },
      "sab": {
        "value": 0,
        "bonus": 0,
        "base": 4,
        "racial": 0
      },
      "car": {
        "value": 0,
        "bonus": 0,
        "base": 5,
        "racial": 0
      }
    },
    "attributes": {
      "cd": 22,
      "pv": {
        "value": 160,
        "min": -500,
        "max": 160,
        "temp": 0
      },
      "pm": {
        "value": 40,
        "min": 0,
        "max": 40,
        "temp": 0
      },
      "movement": {
        "burrow": 0,
        "climb": 0,
        "fly": 0,
        "swim": 0,
        "walk": 9,
        "unit": "m",
        "hover": false,
        "notes": ""
      },
      "defesa": {
        "base": 29,
        "value": 0,
        "outros": 0,
        "atributo": "des",
        "pda": 0,
        "bonus": [],
        "condi": 0
      },
      "sentidos": {
        "value": [
          "escuro"
        ],
        "custom": ""
      },
      "conjuracao": "int",
      "nivel": {
        "value": 1,
        "xp": {
          "value": 0,
          "pct": 0,
          "proximo": 0
        }
      },
      "nd": "7",
      "carga": {
        "value": 0,
        "base": 10,
        "bonus": [],
        "max": 0,
        "pct": 0,
        "encumbered": false
      },
      "treino": 0
    },
    "detalhes": {
      "biography": {
        "value": "",
        "public": ""
      },
      "raca": "medusa",
      "tipo": "hum",
      "alinhamento": "",
      "divindade": "",
      "nd": "",
      "equipamento": "",
      "resistencias": "resistência a veneno +5",
      "tesouro": "Padrão",
      "role": "special",
      "origem": "",
      "ataquescac": "Adaga +22 (1d4+4 mais veneno, 19)"
    },
    "tracos": {
      "tamanho": "med",
      "resistencias": {
        "perda": {
          "value": 0,
          "base": 0,
          "bonus": [],
          "imunidade": false,
          "vulnerabilidade": false
        },
        "acido": {
          "value": 0,
          "base": 0,
          "bonus": [],
          "imunidade": false,
          "vulnerabilidade": false
        },
        "corte": {
          "value": 0,
          "base": 0,
          "bonus": [],
          "imunidade": false,
          "vulnerabilidade": false
        },
        "eletricidade": {
          "value": 0,
          "base": 0,
          "bonus": [],
          "imunidade": false,
          "vulnerabilidade": false
        },
        "essencia": {
          "value": 0,
          "base": 0,
          "bonus": [],
          "imunidade": false,
          "vulnerabilidade": false
        },
        "fogo": {
          "value": 0,
          "base": 0,
          "bonus": [],
          "imunidade": false,
          "vulnerabilidade": false
        },
        "frio": {
          "value": 0,
          "base": 0,
          "bonus": [],
          "imunidade": false,
          "vulnerabilidade": false
        },
        "impacto": {
          "value": 0,
          "base": 0,
          "bonus": [],
          "imunidade": false,
          "vulnerabilidade": false
        },
        "luz": {
          "value": 0,
          "base": 0,
          "bonus": [],
          "imunidade": false,
          "vulnerabilidade": false
        },
        "psiquico": {
          "value": 0,
          "base": 0,
          "bonus": [],
          "imunidade": false,
          "vulnerabilidade": false
        },
        "perfuracao": {
          "value": 0,
          "base": 0,
          "bonus": [],
          "imunidade": false,
          "vulnerabilidade": false
        },
        "trevas": {
          "value": 0,
          "base": 0,
          "bonus": [],
          "imunidade": false,
          "vulnerabilidade": false
        },
        "dano": {
          "value": 0,
          "imunidade": false,
          "vulnerabilidade": false
        }
      },
      "ic": {
        "value": [],
        "custom": ""
      },
      "idiomas": {
        "value": [
          "comum"
        ]
      }
    },
    "dinheiro": {
      "tl": 0,
      "to": 0,
      "tp": 0,
      "tc": 0
    },
    "resources": {
      "primary": {
        "value": 0,
        "max": 0,
        "label": ""
      },
      "secondary": {
        "value": 0,
        "max": 0,
        "label": ""
      },
      "tertiary": {
        "value": 0,
        "max": 0,
        "label": ""
      },
      "deathsave": {
        "value": 0,
        "max": 3,
        "label": ""
      },
      "shadow": {
        "value": 0,
        "max": 5,
        "label": ""
      },
      "catarse": {
        "value": 0,
        "max": 3,
        "label": ""
      }
    },
    "pericias": {
      "acro": {
        "value": 0,
        "atributo": "des",
        "outros": 0,
        "treinado": false,
        "st": false,
        "pda": false,
        "size": false,
        "condi": 0,
        "bonus": [],
        "custom": false,
        "label": "",
        "nome": ""
      },
      "ades": {
        "value": 0,
        "atributo": "car",
        "outros": 0,
        "treinado": false,
        "st": false,
        "pda": false,
        "size": false,
        "condi": 0,
        "bonus": [],
        "custom": false,
        "label": "",
        "nome": ""
      },
      "atle": {
        "value": 0,
        "atributo": "for",
        "outros": 0,
        "treinado": false,
        "st": false,
        "pda": false,
        "size": false,
        "condi": 0,
        "bonus": [],
        "custom": false,
        "label": "",
        "nome": ""
      },
      "atua": {
        "value": 0,
        "atributo": "car",
        "outros": 0,
        "treinado": false,
        "st": false,
        "pda": false,
        "size": false,
        "condi": 0,
        "bonus": [],
        "custom": false,
        "label": "",
        "nome": ""
      },
      "cava": {
        "value": 0,
        "atributo": "des",
        "outros": 0,
        "treinado": false,
        "st": false,
        "pda": false,
        "size": false,
        "condi": 0,
        "bonus": [],
        "custom": false,
        "label": "",
        "nome": ""
      },
      "conh": {
        "value": 0,
        "atributo": "int",
        "outros": 0,
        "treinado": false,
        "st": false,
        "pda": false,
        "size": false,
        "condi": 0,
        "bonus": [],
        "custom": false,
        "label": "",
        "nome": ""
      },
      "cura": {
        "value": 0,
        "atributo": "sab",
        "outros": 0,
        "treinado": false,
        "st": false,
        "pda": false,
        "size": false,
        "condi": 0,
        "bonus": [],
        "custom": false,
        "label": "",
        "nome": ""
      },
      "dipl": {
        "value": 0,
        "atributo": "car",
        "outros": 0,
        "treinado": false,
        "st": false,
        "pda": false,
        "size": false,
        "condi": 0,
        "bonus": [],
        "custom": false,
        "label": "",
        "nome": ""
      },
      "enga": {
        "value": 20,
        "atributo": "car",
        "outros": 8,
        "treinado": true,
        "st": false,
        "pda": false,
        "size": false,
        "condi": 0,
        "bonus": [],
        "custom": false,
        "label": "",
        "nome": ""
      },
      "fort": {
        "value": 7,
        "atributo": "con",
        "outros": 7,
        "treinado": false,
        "st": false,
        "pda": false,
        "size": false,
        "condi": 0,
        "bonus": [],
        "custom": false,
        "label": "",
        "nome": ""
      },
      "furt": {
        "value": 0,
        "atributo": "des",
        "outros": 0,
        "treinado": false,
        "st": false,
        "pda": false,
        "size": false,
        "condi": 0,
        "bonus": [],
        "custom": false,
        "label": "",
        "nome": ""
      },
      "guer": {
        "value": 0,
        "atributo": "int",
        "outros": 0,
        "treinado": false,
        "st": false,
        "pda": false,
        "size": false,
        "condi": 0,
        "bonus": [],
        "custom": false,
        "label": "",
        "nome": ""
      },
      "inic": {
        "value": 11,
        "atributo": "des",
        "outros": 2,
        "treinado": true,
        "st": false,
        "pda": false,
        "size": false,
        "condi": 0,
        "bonus": [],
        "custom": false,
        "label": "",
        "nome": ""
      },
      "inti": {
        "value": 0,
        "atributo": "car",
        "outros": 0,
        "treinado": false,
        "st": false,
        "pda": false,
        "size": false,
        "condi": 0,
        "bonus": [],
        "custom": false,
        "label": "",
        "nome": ""
      },
      "intu": {
        "value": 20,
        "atributo": "sab",
        "outros": 9,
        "treinado": true,
        "label": "",
        "st": false,
        "pda": false,
        "bonus": [],
        "size": false,
        "condi": 0,
        "custom": false,
        "nome": ""
      },
      "inve": {
        "value": 0,
        "atributo": "int",
        "outros": 0,
        "treinado": false,
        "st": false,
        "pda": false,
        "size": false,
        "condi": 0,
        "bonus": [],
        "custom": false,
        "label": "",
        "nome": ""
      },
      "joga": {
        "value": 0,
        "atributo": "car",
        "outros": 0,
        "treinado": false,
        "st": false,
        "pda": false,
        "size": false,
        "condi": 0,
        "bonus": [],
        "custom": false,
        "label": "",
        "nome": ""
      },
      "ladi": {
        "value": 0,
        "atributo": "des",
        "outros": 0,
        "treinado": false,
        "st": false,
        "pda": false,
        "size": false,
        "condi": 0,
        "bonus": [],
        "custom": false,
        "label": "",
        "nome": ""
      },
      "luta": {
        "value": 0,
        "atributo": "for",
        "outros": 0,
        "treinado": false,
        "st": false,
        "pda": false,
        "size": false,
        "condi": 0,
        "bonus": [],
        "custom": false,
        "label": "",
        "nome": ""
      },
      "mist": {
        "value": 0,
        "atributo": "int",
        "outros": 0,
        "treinado": false,
        "st": false,
        "pda": false,
        "size": false,
        "condi": 0,
        "bonus": [],
        "custom": false,
        "label": "",
        "nome": ""
      },
      "nobr": {
        "value": 0,
        "atributo": "int",
        "outros": 0,
        "treinado": false,
        "st": false,
        "pda": false,
        "size": false,
        "condi": 0,
        "bonus": [],
        "custom": false,
        "label": "",
        "nome": ""
      },
      "ofi0": {
        "value": 0,
        "atributo": "int",
        "outros": 0,
        "treinado": false,
        "st": false,
        "pda": false,
        "size": false,
        "condi": 0,
        "bonus": [],
        "custom": false,
        "label": "",
        "nome": ""
      },
      "perc": {
        "value": 12,
        "atributo": "sab",
        "outros": 1,
        "treinado": true,
        "st": false,
        "pda": false,
        "size": false,
        "condi": 0,
        "bonus": [],
        "custom": false,
        "label": "",
        "nome": ""
      },
      "pilo": {
        "value": 0,
        "atributo": "des",
        "outros": 0,
        "treinado": false,
        "st": false,
        "pda": false,
        "size": false,
        "condi": 0,
        "bonus": [],
        "custom": false,
        "label": "",
        "nome": ""
      },
      "pont": {
        "value": 0,
        "atributo": "des",
        "outros": 0,
        "treinado": false,
        "st": false,
        "pda": false,
        "size": false,
        "condi": 0,
        "bonus": [],
        "custom": false,
        "label": "",
        "nome": ""
      },
      "refl": {
        "value": 14,
        "atributo": "des",
        "outros": 14,
        "treinado": false,
        "st": false,
        "pda": false,
        "size": false,
        "condi": 0,
        "bonus": [],
        "custom": false,
        "label": "",
        "nome": ""
      },
      "reli": {
        "value": 17,
        "atributo": "sab",
        "outros": 6,
        "treinado": true,
        "st": false,
        "pda": false,
        "size": false,
        "condi": 0,
        "bonus": [],
        "custom": false,
        "label": "",
        "nome": ""
      },
      "sobr": {
        "value": 0,
        "atributo": "sab",
        "outros": 0,
        "treinado": false,
        "st": false,
        "pda": false,
        "size": false,
        "condi": 0,
        "bonus": [],
        "custom": false,
        "label": "",
        "nome": ""
      },
      "vont": {
        "value": 20,
        "atributo": "sab",
        "outros": 20,
        "treinado": false,
        "st": false,
        "pda": false,
        "size": false,
        "condi": 0,
        "bonus": [],
        "custom": false,
        "label": "",
        "nome": ""
      },
      "_pc0": {
        "value": 0,
        "atributo": "for",
        "outros": 0,
        "treinado": false,
        "st": false,
        "pda": false,
        "size": false,
        "condi": 0,
        "bonus": [],
        "custom": false,
        "label": "",
        "nome": ""
      }
    },
    "modificadores": {
      "atributos": {
        "geral": [
          ""
        ],
        "fisicos": [
          ""
        ],
        "mentais": [
          ""
        ],
        "for": [
          ""
        ],
        "des": [
          ""
        ],
        "con": [
          ""
        ],
        "int": [
          ""
        ],
        "sab": [
          ""
        ],
        "car": [
          ""
        ]
      },
      "dano": {
        "geral": [
          ""
        ],
        "cac": [
          ""
        ],
        "ad": [
          ""
        ],
        "mag": [
          ""
        ],
        "alq": [
          ""
        ]
      },
      "custoPM": "0",
      "pericias": {
        "geral": [
          ""
        ],
        "semataque": [
          ""
        ],
        "ataque": [
          ""
        ],
        "resistencia": [
          ""
        ],
        "atr": {
          "for": [
            ""
          ],
          "des": [
            ""
          ],
          "con": [
            ""
          ],
          "int": [
            ""
          ],
          "sab": [
            ""
          ],
          "car": [
            ""
          ]
        }
      },
      "ataque": {
        "geral": [],
        "cac": [],
        "ad": []
      }
    },
    "builder": {
      "attributes": {
        "cr": "",
        "size": "",
        "attack": {
          "value": 0,
          "cr": ""
        },
        "damage": {
          "value": 0,
          "cr": ""
        },
        "defense": {
          "value": 0,
          "cr": ""
        },
        "fort": {
          "value": 0,
          "rank": 2,
          "cr": ""
        },
        "refl": {
          "value": 0,
          "rank": 1,
          "cr": ""
        },
        "vont": {
          "value": 0,
          "rank": 0,
          "cr": ""
        },
        "topsave": {
          "value": 0,
          "cr": ""
        },
        "midsave": {
          "value": 0,
          "cr": ""
        },
        "botsave": {
          "value": 0,
          "cr": ""
        },
        "hp": {
          "value": 0,
          "cr": ""
        },
        "mp": {
          "value": 0,
          "cr": ""
        },
        "dc": {
          "value": 0,
          "cr": ""
        }
      },
      "details": {
        "concept": "",
        "creatureType": "",
        "role": "",
        "treasure": ""
      }
    }
  },
  "ownership": {
    "default": 0
  },
  "prototypeToken": {
    "flags": {},
    "name": "Cultista da Traição",
    "displayName": 50,
    "width": 1,
    "height": 1,
    "lockRotation": false,
    "rotation": 0,
    "actorLink": false,
    "disposition": -1,
    "displayBars": 0,
    "bar1": {
      "attribute": "attributes.pv"
    },
    "bar2": {
      "attribute": "attributes.pm"
    },
    "randomImg": false,
    "alpha": 1,
    "light": {
      "dim": 0,
      "bright": 0,
      "angle": 360,
      "color": null,
      "alpha": 1,
      "animation": {
        "speed": 5,
        "intensity": 5,
        "type": null,
        "reverse": false
      },
      "coloration": 1,
      "attenuation": 0.5,
      "luminosity": 0.5,
      "saturation": 0,
      "contrast": 0,
      "shadows": 0,
      "darkness": {
        "min": 0,
        "max": 1
      }
    },
    "texture": {
      "src": "systems/tormenta20/icons/ameacas/cultista-da-traicao.png",
      "tint": null,
      "scaleX": 1,
      "scaleY": 1,
      "offsetX": 0,
      "offsetY": 0,
      "rotation": 0
    },
    "sight": {
      "angle": 360,
      "enabled": true,
      "range": 30,
      "brightness": 1,
      "visionMode": "basic",
      "color": null,
      "attenuation": 0.1,
      "saturation": 0,
      "contrast": 0
    },
    "detectionModes": [],
    "appendNumber": false,
    "prependAdjective": false
  },
  "_stats": {
    "systemId": "tormenta20",
    "systemVersion": "1.4.203d2",
    "coreVersion": "11.315",
    "createdTime": 1661997945953,
    "modifiedTime": 1700237097110,
    "lastModifiedBy": "5frcpPVF3cVfLwZA"
  },
  "_key": "!actors!QmbDo3LPMBsBDcno"
}
