{
  "_id": "nhvQoA8jY5I8stzV",
  "name": "Hobgoblin Mago de Batalha",
  "type": "npc",
  "img": "systems/tormenta20/icons/ameacas/hobgoblin-mago-de-batalha.png",
  "items": [
    {
      "name": "Arcano de Batalha",
      "type": "poder",
      "img": "systems/tormenta20/icons/classes/arcanista.webp",
      "effects": [
        {
          "_id": "HjF23vOdFeOnstqg",
          "changes": [
            {
              "key": "system.modificadores.dano.mag",
              "mode": 2,
              "value": "@atributoChave",
              "priority": null
            }
          ],
          "disabled": false,
          "duration": {
            "startTime": null,
            "seconds": null,
            "combat": null,
            "rounds": null,
            "turns": null,
            "startRound": null,
            "startTurn": null
          },
          "icon": "systems/tormenta20/icons/classes/arcanista.webp",
          "label": "Arcano de Batalha",
          "origin": "Item.NnQmvIaleZYk48Fl",
          "transfer": true,
          "flags": {
            "tormenta20": {
              "onuse": false,
              "durationScene": false
            }
          },
          "tint": null,
          "_key": "!actors.items.effects!nhvQoA8jY5I8stzV.T3k6XgDlLKeqkpcW.HjF23vOdFeOnstqg"
        }
      ],
      "flags": {
        "core": {
          "sourceId": "Compendium.tormenta20.poderes.zujBVkCUtU7KDXgt"
        }
      },
      "system": {
        "description": {
          "value": "O hobgoblin mago de batalha soma sua Inteligência (+4) nas rolagens de dano com magias",
          "chat": "",
          "unidentified": ""
        },
        "source": "T20, pg. 39 (JdA)",
        "ativacao": {
          "execucao": "",
          "custo": 0,
          "qtd": "",
          "condicao": "",
          "special": ""
        },
        "duracao": {
          "value": 0,
          "units": "",
          "special": ""
        },
        "target": {
          "value": null,
          "width": null,
          "units": "",
          "type": ""
        },
        "range": {
          "value": null,
          "units": ""
        },
        "consume": {
          "type": "",
          "target": "",
          "amount": null,
          "mpMultiplier": false
        },
        "efeito": "",
        "alcance": "none",
        "alvo": "",
        "area": "",
        "resistencia": {
          "pericia": "",
          "atributo": "",
          "bonus": 0,
          "txt": ""
        },
        "rolls": [],
        "tipo": "classe",
        "subtipo": "Arcanista",
        "chatFlavor": "",
        "origin": "",
        "tags": [],
        "chatGif": ""
      },
      "ownership": {
        "default": 0,
        "tIn9sSkrT3mDWirx": 3
      },
      "_stats": {
        "systemId": "tormenta20",
        "systemVersion": "1.4.1004",
        "coreVersion": "10.286",
        "createdTime": 1664306185709,
        "modifiedTime": 1667017046673,
        "lastModifiedBy": "tIn9sSkrT3mDWirx"
      },
      "folder": "8PStSNuZv9XwiUfW",
      "sort": 0,
      "_id": "T3k6XgDlLKeqkpcW",
      "_key": "!actors.items!nhvQoA8jY5I8stzV.T3k6XgDlLKeqkpcW"
    },
    {
      "folder": "0V7x5o397UvG3xKP",
      "name": "Magias",
      "type": "poder",
      "img": "icons/magic/symbols/runes-star-magenta.webp",
      "system": {
        "description": {
          "value": "O hobgoblin mago de batalha lança magias como um mago de 5º nível (CD 22)",
          "chat": "",
          "unidentified": ""
        },
        "source": "",
        "ativacao": {
          "execucao": "",
          "custo": 0,
          "qtd": "",
          "condicao": "",
          "special": ""
        },
        "duracao": {
          "value": 0,
          "units": "",
          "special": ""
        },
        "target": {
          "value": null,
          "width": null,
          "units": "",
          "type": ""
        },
        "range": {
          "value": null,
          "units": ""
        },
        "consume": {
          "type": "",
          "target": "",
          "amount": null,
          "mpMultiplier": false
        },
        "efeito": "",
        "alcance": "none",
        "alvo": "",
        "area": "",
        "resistencia": {
          "pericia": "",
          "atributo": "",
          "bonus": 0,
          "txt": ""
        },
        "rolls": [],
        "tipo": "racial",
        "subtipo": "",
        "origin": "",
        "tags": [],
        "chatFlavor": "",
        "chatGif": ""
      },
      "effects": [],
      "sort": 2100000,
      "ownership": {
        "default": 0,
        "tIn9sSkrT3mDWirx": 3
      },
      "flags": {},
      "_stats": {
        "systemId": "tormenta20",
        "systemVersion": "1.4.1004",
        "coreVersion": "10.286",
        "createdTime": 1666319236120,
        "modifiedTime": 1667017046673,
        "lastModifiedBy": "tIn9sSkrT3mDWirx"
      },
      "_id": "ce6zXFNoMsfya88q",
      "_key": "!actors.items!nhvQoA8jY5I8stzV.ce6zXFNoMsfya88q"
    },
    {
      "name": "Amedrontar",
      "type": "magia",
      "img": "systems/tormenta20/icons/magias/amedrontar.webp",
      "effects": [
        {
          "_id": "OciQRYsZfkxrckgc",
          "flags": {
            "t20": null,
            "tormenta20": {
              "onuse": true,
              "self": true,
              "custo": "2",
              "attack": false,
              "skill": false,
              "ability": false,
              "power": false,
              "spell": false,
              "consumable": false,
              "aumenta": false,
              "durationScene": false,
              "items": ""
            }
          },
          "changes": [],
          "disabled": true,
          "duration": {
            "startTime": null,
            "seconds": null,
            "combat": null,
            "rounds": null,
            "turns": null,
            "startRound": null,
            "startTurn": null
          },
          "icon": "icons/svg/upgrade.svg",
          "label": "alvos que falhem na resistência ficam apavorados por 1d4+1 rodadas, em vez de apenas 1.",
          "origin": "Item.dx8QPZrPlrOrzLQU",
          "tint": null,
          "transfer": false,
          "_key": "!actors.items.effects!nhvQoA8jY5I8stzV.L8Hgrhp5elDOlB3A.OciQRYsZfkxrckgc"
        },
        {
          "_id": "iywixWPGn64reD5Q",
          "flags": {
            "t20": null,
            "tormenta20": {
              "onuse": true,
              "self": true,
              "custo": "2",
              "attack": false,
              "skill": false,
              "ability": false,
              "power": false,
              "spell": false,
              "consumable": false,
              "aumenta": false,
              "durationScene": false,
              "items": ""
            }
          },
          "changes": [],
          "disabled": true,
          "duration": {
            "startTime": null,
            "seconds": null,
            "combat": null,
            "rounds": null,
            "turns": null,
            "startRound": null,
            "startTurn": null
          },
          "icon": "icons/svg/upgrade.svg",
          "label": "muda o alvo para 1 criatura.",
          "origin": "Item.dx8QPZrPlrOrzLQU",
          "tint": null,
          "transfer": false,
          "_key": "!actors.items.effects!nhvQoA8jY5I8stzV.L8Hgrhp5elDOlB3A.iywixWPGn64reD5Q"
        },
        {
          "_id": "8UpVbn31ZXEq8328",
          "flags": {
            "t20": null,
            "tormenta20": {
              "onuse": true,
              "self": true,
              "custo": "5"
            }
          },
          "changes": [],
          "disabled": true,
          "duration": {
            "startTime": null,
            "seconds": null,
            "combat": null,
            "rounds": null,
            "turns": null,
            "startRound": null,
            "startTurn": null
          },
          "icon": "icons/svg/upgrade.svg",
          "label": "afeta todos os alvos válidos a sua escolha dentro do alcance.",
          "origin": "Item.dx8QPZrPlrOrzLQU",
          "transfer": false,
          "tint": null,
          "_key": "!actors.items.effects!nhvQoA8jY5I8stzV.L8Hgrhp5elDOlB3A.8UpVbn31ZXEq8328"
        },
        {
          "_id": "f4qLZKk0usOOS9yV",
          "changes": [],
          "disabled": false,
          "duration": {
            "rounds": 1,
            "startTime": null,
            "seconds": null,
            "combat": null,
            "turns": null,
            "startRound": null,
            "startTurn": null
          },
          "icon": "systems/tormenta20/icons/magias/amedrontar.webp",
          "label": "Amedrontado",
          "origin": "Item.p238CZtFsOfXHxuZ",
          "transfer": false,
          "flags": {
            "tormenta20": {
              "onuse": false,
              "durationScene": true
            }
          },
          "tint": null,
          "_key": "!actors.items.effects!nhvQoA8jY5I8stzV.L8Hgrhp5elDOlB3A.f4qLZKk0usOOS9yV"
        }
      ],
      "flags": {
        "core": {
          "sourceId": "Item.FFmQzSgam5bmfIub"
        }
      },
      "system": {
        "description": {
          "value": "<section class=\"secret\">Amedrontar (Padrão, 3 PM) Um animal ou humanoide em alcance curto fica apavorado por 1d4+1 rodadas e depois abalado (Vontade reduz para abalado apenas)</section><p style=\"text-align: justify;\">O alvo &eacute; envolvido por energias sombrias e assustadoras. Se falhar na resist&ecirc;ncia, fica apavorado por 1 rodada, depois abalado. Se passar, fica abalado por 1d4 rodadas.</p>",
          "chat": "",
          "unidentified": ""
        },
        "source": "T20, pg. 179 (JdA)",
        "ativacao": {
          "execucao": "action",
          "custo": 1,
          "qtd": "",
          "condicao": "",
          "special": ""
        },
        "duracao": {
          "value": 0,
          "units": "scene",
          "special": ""
        },
        "target": {
          "value": null,
          "width": null,
          "units": "",
          "type": ""
        },
        "range": {
          "value": null,
          "units": ""
        },
        "consume": {
          "type": "",
          "target": "",
          "amount": null,
          "mpMultiplier": false
        },
        "efeito": "",
        "alcance": "short",
        "alvo": "1 animal ou humanoide",
        "area": "",
        "resistencia": {
          "pericia": "",
          "atributo": "",
          "bonus": 0,
          "txt": "Vontade parcial"
        },
        "rolls": [],
        "tipo": "arc",
        "circulo": "1",
        "preparada": false,
        "escola": "nec",
        "chatFlavor": "",
        "origin": "",
        "tags": [],
        "chatGif": ""
      },
      "ownership": {
        "default": 0,
        "tIn9sSkrT3mDWirx": 3
      },
      "_stats": {
        "systemId": "tormenta20",
        "systemVersion": "1.4.1004",
        "coreVersion": "10.286",
        "createdTime": 1664310462805,
        "modifiedTime": 1667017046674,
        "lastModifiedBy": "tIn9sSkrT3mDWirx"
      },
      "folder": "lcJeISkhj7LBBvIt",
      "sort": 0,
      "_id": "L8Hgrhp5elDOlB3A",
      "_key": "!actors.items!nhvQoA8jY5I8stzV.L8Hgrhp5elDOlB3A"
    },
    {
      "name": "Armadura Arcana",
      "type": "magia",
      "img": "systems/tormenta20/icons/magias/armadura-arcana.webp",
      "effects": [
        {
          "_id": "W1WgvYbVsADr5MNL",
          "flags": {
            "t20": null,
            "tormenta20": {
              "onuse": true,
              "self": true,
              "custo": "1",
              "aumenta": false,
              "attack": false,
              "skill": false,
              "ability": false,
              "power": false,
              "spell": false,
              "consumable": false,
              "durationScene": false
            }
          },
          "changes": [
            {
              "key": "execucao",
              "mode": 5,
              "value": "reacao",
              "priority": null
            },
            {
              "key": "system.attributes.defesa.bonus",
              "mode": 2,
              "value": "2",
              "priority": null
            },
            {
              "key": "duracao",
              "mode": 5,
              "value": "1 turno",
              "priority": null
            }
          ],
          "disabled": true,
          "duration": {
            "startTime": null,
            "seconds": null,
            "combat": null,
            "rounds": null,
            "turns": null,
            "startRound": null,
            "startTurn": null
          },
          "icon": "icons/svg/upgrade.svg",
          "label": "muda a execução para reação. Em vez do normal, você cria um escudo mágico que fornece +6 na Defesa contra o próximo ataque que sofrer até o fim do turno atual (cumulativo com o bônus fornecido pelo efeito básico desta magia e armaduras).",
          "origin": "Item.6tacmHJDvuMoxe8v",
          "tint": null,
          "transfer": false,
          "_key": "!actors.items.effects!nhvQoA8jY5I8stzV.GpOxHuaicdw7y29i.W1WgvYbVsADr5MNL"
        },
        {
          "_id": "cOarntwGdXunJRyH",
          "flags": {
            "t20": null,
            "tormenta20": {
              "onuse": true,
              "self": true,
              "custo": "2",
              "aumenta": true,
              "attack": false,
              "skill": false,
              "ability": false,
              "power": false,
              "spell": false,
              "consumable": false,
              "durationScene": false
            }
          },
          "changes": [
            {
              "key": "system.attributes.defesa.bonus",
              "mode": 2,
              "value": "1",
              "priority": null
            }
          ],
          "disabled": true,
          "duration": {
            "startTime": null,
            "seconds": null,
            "combat": null,
            "rounds": null,
            "turns": null,
            "startRound": null,
            "startTurn": null
          },
          "icon": "icons/svg/upgrade.svg",
          "label": "aumenta o bônus na Defesa em +1.",
          "origin": "Item.6tacmHJDvuMoxe8v",
          "tint": null,
          "transfer": false,
          "_key": "!actors.items.effects!nhvQoA8jY5I8stzV.GpOxHuaicdw7y29i.cOarntwGdXunJRyH"
        },
        {
          "_id": "CRwrKNwVnkcuyYGR",
          "flags": {
            "t20": null,
            "tormenta20": {
              "onuse": true,
              "self": true,
              "custo": "2",
              "aumenta": false,
              "attack": false,
              "skill": false,
              "ability": false,
              "power": false,
              "spell": false,
              "consumable": false,
              "durationScene": false
            }
          },
          "changes": [
            {
              "key": "duracao",
              "value": "1 dia",
              "mode": 5,
              "priority": null
            }
          ],
          "disabled": true,
          "duration": {
            "startTime": null,
            "seconds": null,
            "combat": null,
            "rounds": null,
            "turns": null,
            "startRound": null,
            "startTurn": null
          },
          "icon": "icons/svg/upgrade.svg",
          "label": "muda a duração para 1 dia. Requer 2º círculo.",
          "origin": "Item.6tacmHJDvuMoxe8v",
          "tint": null,
          "transfer": false,
          "_key": "!actors.items.effects!nhvQoA8jY5I8stzV.GpOxHuaicdw7y29i.CRwrKNwVnkcuyYGR"
        },
        {
          "_id": "DXFHELXQkzrakHqN",
          "flags": {
            "t20": null,
            "tormenta20": {
              "onuse": false,
              "durationScene": true
            }
          },
          "changes": [
            {
              "key": "system.attributes.defesa.bonus",
              "mode": 2,
              "value": "4",
              "priority": null
            }
          ],
          "disabled": false,
          "duration": {
            "startTime": null,
            "rounds": 999,
            "seconds": null,
            "combat": null,
            "turns": null,
            "startRound": null,
            "startTurn": null
          },
          "icon": "systems/tormenta20/icons/magias/armadura-arcana.webp",
          "label": "Armadura Arcana",
          "origin": "Item.6tacmHJDvuMoxe8v",
          "tint": null,
          "transfer": false,
          "_key": "!actors.items.effects!nhvQoA8jY5I8stzV.GpOxHuaicdw7y29i.DXFHELXQkzrakHqN"
        }
      ],
      "flags": {
        "core": {
          "sourceId": "Item.tgkYUPq9MY1YItoL"
        }
      },
      "system": {
        "description": {
          "value": "<section class=\"secret\">Armadura Arcana (Padrão, 5 PM) O hobgoblin recebe +6 na Defesa por um dia</section><p style=\"text-align:justify;\">Esta magia cria uma pel&iacute;cula protetora invis&iacute;vel, mas tang&iacute;vel, fornecendo +4 na Defesa. Esse b&ocirc;nus &eacute; cumulativo com outras magias, mas n&atilde;o com b&ocirc;nus fornecido por armaduras.</p>",
          "chat": "",
          "unidentified": ""
        },
        "source": "T20, pg. 181 (JdA)",
        "ativacao": {
          "execucao": "action",
          "custo": 1,
          "qtd": "",
          "condicao": "",
          "special": ""
        },
        "duracao": {
          "value": 0,
          "units": "scene",
          "special": ""
        },
        "target": {
          "value": null,
          "width": null,
          "units": "",
          "type": ""
        },
        "range": {
          "value": null,
          "units": ""
        },
        "consume": {
          "type": "",
          "target": "",
          "amount": null,
          "mpMultiplier": false
        },
        "efeito": "",
        "alcance": "self",
        "alvo": "Você",
        "area": "",
        "resistencia": {
          "pericia": "",
          "atributo": "",
          "bonus": 0,
          "txt": ""
        },
        "rolls": [],
        "tipo": "arc",
        "circulo": "1",
        "preparada": false,
        "escola": "abj",
        "chatFlavor": "",
        "origin": "",
        "tags": [],
        "chatGif": ""
      },
      "ownership": {
        "default": 0,
        "tIn9sSkrT3mDWirx": 3
      },
      "_stats": {
        "systemId": "tormenta20",
        "systemVersion": "1.4.1004",
        "coreVersion": "10.286",
        "createdTime": 1664310462898,
        "modifiedTime": 1667017046676,
        "lastModifiedBy": "tIn9sSkrT3mDWirx"
      },
      "folder": "NYUuIsxegsarXqXr",
      "sort": 0,
      "_id": "GpOxHuaicdw7y29i",
      "_key": "!actors.items!nhvQoA8jY5I8stzV.GpOxHuaicdw7y29i"
    },
    {
      "name": "Bola de Fogo",
      "type": "magia",
      "img": "systems/tormenta20/icons/magias/bola-de-fogo.webp",
      "effects": [
        {
          "_id": "UWydlNbe3IFFWSmJ",
          "flags": {
            "t20": null,
            "tormenta20": {
              "onuse": true,
              "self": true,
              "custo": "2",
              "aumenta": true
            }
          },
          "changes": [
            {
              "key": "dano",
              "value": "2d6",
              "mode": 0,
              "priority": null
            }
          ],
          "disabled": true,
          "duration": {
            "startTime": null,
            "seconds": null,
            "combat": null,
            "rounds": null,
            "turns": null,
            "startRound": null,
            "startTurn": null
          },
          "icon": "icons/svg/upgrade.svg",
          "label": "aumenta o dano em +2d6.",
          "origin": "Compendium.tormenta20.magias.gcjCsjzpk2OtClSt",
          "transfer": false,
          "tint": null,
          "_key": "!actors.items.effects!nhvQoA8jY5I8stzV.6tf6AEuTnfNhqB1d.UWydlNbe3IFFWSmJ"
        },
        {
          "_id": "54Cbq85qzDbWg4SB",
          "flags": {
            "t20": null,
            "tormenta20": {
              "onuse": true,
              "self": true,
              "custo": "2",
              "aumenta": false
            }
          },
          "changes": [
            {
              "key": "area",
              "value": "efeito de esfera flamejante com tamanho Médio",
              "mode": 5,
              "priority": null
            },
            {
              "key": "duracao",
              "value": "Cena",
              "mode": 5,
              "priority": null
            },
            {
              "key": "dano",
              "value": "3d6",
              "mode": 0,
              "priority": null
            }
          ],
          "disabled": true,
          "duration": {
            "startTime": null,
            "seconds": null,
            "combat": null,
            "rounds": null,
            "turns": null,
            "startRound": null,
            "startTurn": null
          },
          "icon": "icons/svg/upgrade.svg",
          "label": "muda a área para efeito de esfera flamejante com tamanho Médio e a duração para cena. Em vez do normal, cria uma esfera flamejante com 1,5m de diâmetro que causa 3d6 pontos de dano a qualquer criatura no mesmo espaço. Você pode gastar uma ação de movimento para fazer a esfera voar 9m em qualquer direção. Ela é imune a dano, mas pode ser apagada com água. Uma criatura só pode sofrer dano da esfera uma vez por rodada.",
          "origin": "Compendium.tormenta20.magias.gcjCsjzpk2OtClSt",
          "transfer": false,
          "tint": null,
          "_key": "!actors.items.effects!nhvQoA8jY5I8stzV.6tf6AEuTnfNhqB1d.54Cbq85qzDbWg4SB"
        },
        {
          "_id": "EOLJ5ChVkU6V1DAg",
          "flags": {
            "t20": null,
            "tormenta20": {
              "onuse": true,
              "self": true,
              "custo": "3",
              "aumenta": false,
              "attack": false,
              "skill": false,
              "ability": false,
              "power": false,
              "spell": false,
              "consumable": false,
              "durationScene": false,
              "items": ""
            }
          },
          "changes": [
            {
              "key": "duracao",
              "mode": 5,
              "value": "1 dia ou até ser descarregada",
              "priority": 0
            }
          ],
          "disabled": true,
          "duration": {
            "startTime": null,
            "seconds": null,
            "combat": null,
            "rounds": null,
            "turns": null,
            "startRound": null,
            "startTurn": null
          },
          "icon": "icons/svg/upgrade.svg",
          "label": "muda a duração para 1 dia ou até ser descarregada. Em vez do normal, você cria uma pequena pedra flamejante, que pode detonar como uma reação, descarregando a magia. A pedra pode ser usada como uma arma de arremesso com alcance curto. Uma vez detonada, causa o dano da magia numa área de esfera de 6m com raio.",
          "origin": "Compendium.tormenta20.magias.gcjCsjzpk2OtClSt",
          "transfer": false,
          "tint": null,
          "_key": "!actors.items.effects!nhvQoA8jY5I8stzV.6tf6AEuTnfNhqB1d.EOLJ5ChVkU6V1DAg"
        }
      ],
      "flags": {
        "core": {
          "sourceId": "Item.LSj3INZ0KooRr5bs"
        }
      },
      "system": {
        "description": {
          "value": "<section class=\"secret\">Bola de Fogo (Padrão, 5 PM) O hobgoblin cria uma poderosa explosão em alcance médio que causa 8d6+5 pontos de dano de fogo em todas as criaturas em um raio de 6m (Reflexos reduz à metade)</section><p style=\"text-align:justify;\">Esta famosa magia de ataque cria uma poderosa explosão, causando 6d6 pontos de dano de fogo em todas as criaturas e objetos livres na área.</p>",
          "chat": "",
          "unidentified": ""
        },
        "source": "T20, pg. 182 (JdA)",
        "ativacao": {
          "execucao": "action",
          "custo": 3,
          "qtd": "",
          "condicao": "",
          "special": ""
        },
        "duracao": {
          "value": 0,
          "units": "inst",
          "special": ""
        },
        "target": {
          "value": null,
          "width": null,
          "units": "",
          "type": ""
        },
        "range": {
          "value": null,
          "units": ""
        },
        "consume": {
          "type": "",
          "target": "",
          "amount": null,
          "mpMultiplier": false
        },
        "efeito": "",
        "alcance": "medium",
        "alvo": "",
        "area": "esfera com 6m de raio",
        "resistencia": {
          "pericia": "",
          "atributo": "",
          "bonus": 0,
          "txt": "Reflexos reduz à metade"
        },
        "rolls": [
          {
            "name": "Dano",
            "key": "dano0",
            "type": "dano",
            "parts": [
              [
                "6d6",
                "fogo",
                ""
              ]
            ],
            "versatil": ""
          }
        ],
        "tipo": "arc",
        "circulo": "2",
        "preparada": false,
        "escola": "evo",
        "chatFlavor": "",
        "origin": "",
        "tags": [],
        "chatGif": ""
      },
      "ownership": {
        "default": 0,
        "tIn9sSkrT3mDWirx": 3
      },
      "_stats": {
        "systemId": "tormenta20",
        "systemVersion": "1.4.1004",
        "coreVersion": "10.286",
        "createdTime": 1664310462779,
        "modifiedTime": 1667017046677,
        "lastModifiedBy": "tIn9sSkrT3mDWirx"
      },
      "folder": "IZ1QZMcdpiRqtF8O",
      "sort": 0,
      "_id": "6tf6AEuTnfNhqB1d",
      "_key": "!actors.items!nhvQoA8jY5I8stzV.6tf6AEuTnfNhqB1d"
    },
    {
      "name": "Concentração de Combate",
      "type": "magia",
      "img": "systems/tormenta20/icons/magias/concentracao-de-combate.webp",
      "effects": [
        {
          "_id": "LvHT31M1UBY6eqIL",
          "flags": {
            "t20": null,
            "tormenta20": {
              "onuse": true,
              "self": true,
              "custo": "2",
              "aumenta": false
            }
          },
          "changes": [
            {
              "key": "execucao",
              "value": "padrão",
              "mode": 5,
              "priority": null
            },
            {
              "key": "duracao",
              "value": "Cena",
              "mode": 5,
              "priority": null
            }
          ],
          "disabled": true,
          "duration": {
            "startTime": null,
            "seconds": null,
            "combat": null,
            "rounds": null,
            "turns": null,
            "startRound": null,
            "startTurn": null
          },
          "icon": "icons/svg/upgrade.svg",
          "label": "muda a execução para padrão e a duração para cena. Requer 2º círculo.",
          "origin": "Compendium.tormenta20.magias.lAsj1NrA2J6GbvDi",
          "transfer": false,
          "tint": null,
          "_key": "!actors.items.effects!nhvQoA8jY5I8stzV.HEeL4HewFNyPgmI4.LvHT31M1UBY6eqIL"
        },
        {
          "_id": "2XHxvPBjrqijXw9I",
          "flags": {
            "t20": null,
            "tormenta20": {
              "onuse": true,
              "self": true,
              "custo": "5",
              "aumenta": false
            }
          },
          "changes": [],
          "disabled": true,
          "duration": {
            "startTime": null,
            "seconds": null,
            "combat": null,
            "rounds": null,
            "turns": null,
            "startRound": null,
            "startTurn": null
          },
          "icon": "icons/svg/upgrade.svg",
          "label": "além do normal, ao atacar você, um inimigo deve rolar dois dados e usar o pior resultado. Requer 3º círculo.",
          "origin": "Compendium.tormenta20.magias.lAsj1NrA2J6GbvDi",
          "transfer": false,
          "tint": null,
          "_key": "!actors.items.effects!nhvQoA8jY5I8stzV.HEeL4HewFNyPgmI4.2XHxvPBjrqijXw9I"
        },
        {
          "_id": "NrEAsxaqpXAWVZ5d",
          "flags": {
            "t20": null,
            "tormenta20": {
              "onuse": true,
              "self": true,
              "custo": "9",
              "aumenta": false
            }
          },
          "changes": [
            {
              "key": "execucao",
              "value": "padrão",
              "mode": 5,
              "priority": null
            },
            {
              "key": "alcance",
              "value": "curto",
              "mode": 5,
              "priority": null
            },
            {
              "key": "alvo",
              "value": "criaturas escolhidas",
              "mode": 5,
              "priority": null
            },
            {
              "key": "duracao",
              "value": "Cena",
              "mode": 5,
              "priority": null
            }
          ],
          "disabled": true,
          "duration": {
            "startTime": null,
            "seconds": null,
            "combat": null,
            "rounds": null,
            "turns": null,
            "startRound": null,
            "startTurn": null
          },
          "icon": "icons/svg/upgrade.svg",
          "label": "muda a execução para padrão, o alcance para curto, o alvo para criaturas escolhidas e a duração para cena. Requer 4º círculo.",
          "origin": "Compendium.tormenta20.magias.lAsj1NrA2J6GbvDi",
          "transfer": false,
          "tint": null,
          "_key": "!actors.items.effects!nhvQoA8jY5I8stzV.HEeL4HewFNyPgmI4.NrEAsxaqpXAWVZ5d"
        },
        {
          "_id": "Q9xwXkqN6t3iEhBD",
          "flags": {
            "t20": null,
            "tormenta20": {
              "onuse": true,
              "self": true,
              "custo": "14",
              "aumenta": false
            }
          },
          "changes": [
            {
              "key": "execucao",
              "value": "padrão",
              "mode": 5,
              "priority": null
            },
            {
              "key": "duracao",
              "value": "1 dia",
              "mode": 5,
              "priority": null
            },
            {
              "key": "condicao",
              "value": "surpreendido",
              "mode": 0,
              "priority": null
            },
            {
              "key": "condicao",
              "value": "desprevenido",
              "mode": 0,
              "priority": null
            }
          ],
          "disabled": true,
          "duration": {
            "startTime": null,
            "seconds": null,
            "combat": null,
            "rounds": null,
            "turns": null,
            "startRound": null,
            "startTurn": null
          },
          "icon": "icons/svg/upgrade.svg",
          "label": "muda a execução para padrão e a duração para 1 dia. Além do normal, você recebe um sexto sentido que o avisa de qualquer perigo ou ameaça. Você fica imune às condições surpreendido e desprevenido e recebe +10 em Defesa e Reflexos. Requer 5º círculo.",
          "origin": "Compendium.tormenta20.magias.lAsj1NrA2J6GbvDi",
          "transfer": false,
          "tint": null,
          "_key": "!actors.items.effects!nhvQoA8jY5I8stzV.HEeL4HewFNyPgmI4.Q9xwXkqN6t3iEhBD"
        },
        {
          "_id": "WxhX0zABmEAJkQ13",
          "changes": [],
          "disabled": false,
          "duration": {
            "rounds": 1,
            "startTime": null,
            "seconds": null,
            "combat": null,
            "turns": null,
            "startRound": null,
            "startTurn": null
          },
          "icon": "systems/tormenta20/icons/magias/concentracao-de-combate.webp",
          "label": "Concentração de Combate (Cena)",
          "origin": "Item.jZYdLUCwQx3e9Odi",
          "transfer": false,
          "flags": {
            "tormenta20": {
              "onuse": false,
              "durationScene": true
            }
          },
          "tint": null,
          "_key": "!actors.items.effects!nhvQoA8jY5I8stzV.HEeL4HewFNyPgmI4.WxhX0zABmEAJkQ13"
        },
        {
          "_id": "5QruiDpfvtxwupil",
          "changes": [
            {
              "key": "system.pericias.refl.bonus",
              "mode": 2,
              "value": "10",
              "priority": null
            },
            {
              "key": "system.attributes.defesa.bonus",
              "mode": 2,
              "value": "10",
              "priority": null
            }
          ],
          "disabled": false,
          "duration": {
            "rounds": 1,
            "startTime": null,
            "seconds": null,
            "combat": null,
            "turns": null,
            "startRound": null,
            "startTurn": null
          },
          "icon": "systems/tormenta20/icons/magias/concentracao-de-combate.webp",
          "label": "Concentração de Combate (Aprimoramento +14 PM)",
          "origin": "Item.JbY4RCfiRXJEG8JU",
          "transfer": false,
          "flags": {
            "tormenta20": {
              "onuse": false,
              "durationScene": true
            }
          },
          "tint": null,
          "_key": "!actors.items.effects!nhvQoA8jY5I8stzV.HEeL4HewFNyPgmI4.5QruiDpfvtxwupil"
        }
      ],
      "flags": {
        "core": {
          "sourceId": "Item.1UBi6j1FJdnCdLH1"
        },
        "cf": null
      },
      "system": {
        "description": {
          "value": "<section class=\"secret\">Concentração de Combate (Livre, 1 PM) Quando faz um ataque, o hobgoblin rola dois dados e usa o melhor resultado</section><p style=\"text-align: justify;\">Voc&ecirc; amplia sua percep&ccedil;&atilde;o, antecipando movimentos dos inimigos e achando brechas em sua defesa. Quando faz&nbsp;um teste de ataque, voc&ecirc; rola dois dados e usa o melhor resultado</p>",
          "chat": "",
          "unidentified": ""
        },
        "source": "T20, pg. 185 (JdA)",
        "ativacao": {
          "execucao": "free",
          "custo": 1,
          "qtd": "",
          "condicao": "",
          "special": ""
        },
        "duracao": {
          "value": 1,
          "units": "round",
          "special": ""
        },
        "target": {
          "value": null,
          "width": null,
          "units": "",
          "type": ""
        },
        "range": {
          "value": null,
          "units": ""
        },
        "consume": {
          "type": "",
          "target": "",
          "amount": null,
          "mpMultiplier": false
        },
        "efeito": "",
        "alcance": "self",
        "alvo": "Você",
        "area": "",
        "resistencia": {
          "pericia": "",
          "atributo": "",
          "bonus": 0,
          "txt": ""
        },
        "rolls": [],
        "tipo": "arc",
        "circulo": "1",
        "preparada": false,
        "escola": "adv",
        "chatFlavor": "",
        "origin": "",
        "tags": [],
        "chatGif": ""
      },
      "ownership": {
        "default": 0,
        "tIn9sSkrT3mDWirx": 3
      },
      "_stats": {
        "systemId": "tormenta20",
        "systemVersion": "1.4.1004",
        "coreVersion": "10.286",
        "createdTime": 1664310462798,
        "modifiedTime": 1667017046678,
        "lastModifiedBy": "tIn9sSkrT3mDWirx"
      },
      "folder": "In6moJ7otV739bAV",
      "sort": 0,
      "_id": "HEeL4HewFNyPgmI4",
      "_key": "!actors.items!nhvQoA8jY5I8stzV.HEeL4HewFNyPgmI4"
    },
    {
      "name": "Toque Vampírico",
      "type": "magia",
      "img": "systems/tormenta20/icons/magias/toque-vampirico.webp",
      "effects": [
        {
          "_id": "5E8DwOxwvQNlJJN4",
          "flags": {
            "t20": null,
            "tormenta20": {
              "onuse": true,
              "self": true,
              "custo": "1",
              "aumenta": false,
              "attack": false,
              "skill": false,
              "ability": false,
              "power": false,
              "spell": false,
              "consumable": false,
              "items": "",
              "durationScene": false
            }
          },
          "changes": [],
          "disabled": true,
          "duration": {
            "startTime": null,
            "seconds": null,
            "combat": null,
            "rounds": null,
            "turns": null,
            "startRound": null,
            "startTurn": null
          },
          "icon": "icons/svg/upgrade.svg",
          "label": "muda a resistência para nenhum. Como parte da execução da magia, você pode fazer um ataque corpo a corpo contra o alvo. Se acertar, causa o dano do ataque e da magia, e recupera pontos de vida iguais à metade do dano da magia.",
          "origin": "Compendium.tormenta20.magias.6KvwDBikOdbzhRGv",
          "transfer": false,
          "tint": null,
          "_key": "!actors.items.effects!nhvQoA8jY5I8stzV.VApFrrNxNrScDi3b.5E8DwOxwvQNlJJN4"
        },
        {
          "_id": "Fp3cotDEql0E2Dur",
          "flags": {
            "t20": null,
            "tormenta20": {
              "onuse": true,
              "self": true,
              "custo": "2",
              "aumenta": true
            }
          },
          "changes": [
            {
              "key": "dano",
              "value": "2d6",
              "mode": 0,
              "priority": null
            }
          ],
          "disabled": true,
          "duration": {
            "startTime": null,
            "seconds": null,
            "combat": null,
            "rounds": null,
            "turns": null,
            "startRound": null,
            "startTurn": null
          },
          "icon": "icons/svg/upgrade.svg",
          "label": "aumenta o dano em +2d6.",
          "origin": "Compendium.tormenta20.magias.6KvwDBikOdbzhRGv",
          "transfer": false,
          "tint": null,
          "_key": "!actors.items.effects!nhvQoA8jY5I8stzV.VApFrrNxNrScDi3b.Fp3cotDEql0E2Dur"
        },
        {
          "_id": "F7eldvQNlVrQTK7z",
          "flags": {
            "t20": null,
            "tormenta20": {
              "onuse": true,
              "self": true,
              "custo": "2",
              "aumenta": false
            }
          },
          "changes": [
            {
              "key": "alcance",
              "value": "pessoal",
              "mode": 5,
              "priority": null
            },
            {
              "key": "alvo",
              "value": "você",
              "mode": 5,
              "priority": null
            },
            {
              "key": "duracao",
              "value": "Cena",
              "mode": 5,
              "priority": null
            },
            {
              "key": "dano",
              "value": "3d6",
              "mode": 0,
              "priority": null
            }
          ],
          "disabled": true,
          "duration": {
            "startTime": null,
            "seconds": null,
            "combat": null,
            "rounds": null,
            "turns": null,
            "startRound": null,
            "startTurn": null
          },
          "icon": "icons/svg/upgrade.svg",
          "label": "muda o alcance para pessoal, o alvo para você e a duração para cena. Em vez do normal, a cada rodada você pode gastar uma ação padrão para tocar 1 criatura e causar 3d6 pontos de dano. Você recupera pontos de vida iguais à metade do dano causado. Requer 3º círculo.",
          "origin": "Compendium.tormenta20.magias.6KvwDBikOdbzhRGv",
          "transfer": false,
          "tint": null,
          "_key": "!actors.items.effects!nhvQoA8jY5I8stzV.VApFrrNxNrScDi3b.F7eldvQNlVrQTK7z"
        },
        {
          "label": "Toque Vampírico (Cena)",
          "icon": "systems/tormenta20/icons/magias/toque-vampirico.webp",
          "origin": "Item.6KvwDBikOdbzhRGv",
          "tint": "#FFFFFF",
          "flags": {
            "tormenta20": {
              "onuse": false,
              "durationScene": true
            }
          },
          "duration": {
            "rounds": 1,
            "startTime": null,
            "seconds": null,
            "combat": null,
            "turns": null,
            "startRound": null,
            "startTurn": null
          },
          "disabled": false,
          "_id": "RB6jjU1XtXMWaS9K",
          "changes": [],
          "transfer": false,
          "_key": "!actors.items.effects!nhvQoA8jY5I8stzV.VApFrrNxNrScDi3b.RB6jjU1XtXMWaS9K"
        }
      ],
      "flags": {
        "core": {
          "sourceId": "Item.pXsAXnZf1UW8Jc1z"
        }
      },
      "system": {
        "description": {
          "value": "<section class=\"secret\">Toque Vampírico (Padrão, 5 PM) O hobgoblin faz um ataque com sua espada longa. Se acertar, além do dano da arma ele causa 6d6+5 pontos de dano de trevas e recupera pontos de vida iguais à metade desse dano de trevas.</section><p style=\"text-align:justify;\">Sua mão brilha com energia sombria, causando 6d6 pontos de dano de trevas. Você recupera pontos de vida iguais à metade do dano causado (se causou algum dano).</p>",
          "chat": "",
          "unidentified": ""
        },
        "source": "T20, pg. 209 (JdA)",
        "ativacao": {
          "execucao": "action",
          "custo": 3,
          "qtd": "",
          "condicao": "",
          "special": ""
        },
        "duracao": {
          "value": 0,
          "units": "inst",
          "special": ""
        },
        "target": {
          "value": null,
          "width": null,
          "units": "",
          "type": ""
        },
        "range": {
          "value": null,
          "units": ""
        },
        "consume": {
          "type": "",
          "target": "",
          "amount": null,
          "mpMultiplier": false
        },
        "efeito": "",
        "alcance": "touch",
        "alvo": "1 criatura",
        "area": "",
        "resistencia": {
          "pericia": "",
          "atributo": "",
          "bonus": 0,
          "txt": "Fortitude reduz à metade"
        },
        "rolls": [
          {
            "name": "Dano",
            "key": "dano0",
            "type": "dano",
            "parts": [
              [
                "6d6",
                "trevas",
                ""
              ]
            ],
            "versatil": ""
          }
        ],
        "tipo": "arc",
        "circulo": "2",
        "preparada": false,
        "escola": "nec",
        "chatFlavor": "",
        "origin": "",
        "tags": [],
        "chatGif": ""
      },
      "ownership": {
        "default": 0,
        "tIn9sSkrT3mDWirx": 3
      },
      "_stats": {
        "systemId": "tormenta20",
        "systemVersion": "1.4.1004",
        "coreVersion": "10.286",
        "createdTime": 1664310461763,
        "modifiedTime": 1667017046679,
        "lastModifiedBy": "tIn9sSkrT3mDWirx"
      },
      "folder": "On2IxWYbBpvDPuP1",
      "sort": 0,
      "_id": "VApFrrNxNrScDi3b",
      "_key": "!actors.items!nhvQoA8jY5I8stzV.VApFrrNxNrScDi3b"
    },
    {
      "name": "Espada longa",
      "type": "arma",
      "img": "systems/tormenta20/icons/itens/equipamentos/espada-longa.webp",
      "effects": [],
      "flags": {
        "core": {
          "sourceId": "Compendium.tormenta20.equipamentos.LirOBCaOzAEWQpFk"
        }
      },
      "system": {
        "description": {
          "value": "<section class=\"secret\">Espada longa</section><p style=\"text-align:justify;\">Arma típica de soldados e guerreiros, esta espada de dois gumes tem lâmina reta medindo entre 80cm e 1m.</p>",
          "chat": "",
          "unidentified": ""
        },
        "source": "T20, pg. 148 (JdA)",
        "equipado": 0,
        "equipado2": {
          "slot": 0,
          "type": "hand"
        },
        "carregado": true,
        "peso": 2,
        "espacos": 1,
        "qtd": 1,
        "preco": 15,
        "pv": {
          "value": 0,
          "min": 0,
          "max": 0
        },
        "rd": 0,
        "rolls": [
          {
            "name": "Ataque",
            "key": "ataque0",
            "type": "ataque",
            "parts": [
              [
                "1d20",
                "",
                ""
              ],
              [
                "luta",
                "",
                ""
              ],
              [
                "+14",
                "",
                ""
              ]
            ]
          },
          {
            "name": "Dano",
            "key": "dano1",
            "type": "dano",
            "parts": [
              [
                "1d8+3",
                "corte",
                ""
              ],
              [
                "",
                "",
                ""
              ]
            ],
            "versatil": ""
          }
        ],
        "criticoM": 19,
        "criticoX": 2,
        "alcance": "",
        "tipoUso": "sim",
        "propriedades": {
          "ada": false,
          "agi": false,
          "alo": false,
          "arr": false,
          "dst": false,
          "dms": false,
          "dup": false,
          "lev": false,
          "mun": false,
          "ver": false,
          "adaptavel": false,
          "agil": false,
          "alongada": false,
          "arremesso": false,
          "ataqueDistancia": false,
          "duasMaos": false,
          "dupla": false,
          "leve": false,
          "municao": false,
          "versatil": false,
          "des": false,
          "hib": false
        },
        "encantos": {
          "arremesso": false,
          "lancinante": false,
          "lancinating": false
        },
        "ativacao": {
          "custo": null,
          "condicao": "",
          "execucao": "",
          "qtd": "",
          "special": ""
        },
        "chatFlavor": "",
        "consume": {
          "type": "",
          "target": "",
          "amount": null,
          "mpMultiplier": false
        },
        "origin": "",
        "tags": [],
        "chatGif": "",
        "upgrades": {
          "melhoria1": "",
          "melhoria2": "",
          "melhoria3": "",
          "melhoria4": "",
          "material": "",
          "encanto1": "",
          "encanto2": "",
          "encanto3": ""
        },
        "melhorias": {},
        "proficiencia": "marcial",
        "proposito": "corpo-a-corpo",
        "empunhadura": "uma",
        "size": "normal",
        "ataques": 0
      },
      "ownership": {
        "default": 0,
        "tIn9sSkrT3mDWirx": 3
      },
      "_stats": {
        "systemId": "tormenta20",
        "systemVersion": "1.4.203d2",
        "coreVersion": "11.315",
        "createdTime": 1664312772402,
        "modifiedTime": 1700236922465,
        "lastModifiedBy": "5frcpPVF3cVfLwZA"
      },
      "folder": "brhICwdHcOUqvMPi",
      "sort": 2200000,
      "_id": "fGWtnl3gSGiF4qFF",
      "_key": "!actors.items!nhvQoA8jY5I8stzV.fGWtnl3gSGiF4qFF"
    },
    {
      "_id": "VyyJPN8zjRI7qvqc",
      "name": "Essência de mana",
      "type": "consumivel",
      "img": "systems/tormenta20/icons/itens/gerais/essencia-mana.webp",
      "effects": [],
      "flags": {
        "core": {
          "sourceId": "Compendium.tormenta20.equipamentos.JC6bm2uh4g7oaGge"
        }
      },
      "system": {
        "description": {
          "value": "<p style=\"text-align: justify;\">Esta po&ccedil;&atilde;o feita de ervas raras e compostos alqu&iacute;micos recupera energia pessoal. Beber a ess&ecirc;ncia de mana &eacute; uma a&ccedil;&atilde;o padr&atilde;o e recupera 1d4 pontos de mana.&nbsp;</p>",
          "chat": "",
          "unidentified": ""
        },
        "source": "T20, pg. 160 (JdA)",
        "equipado": false,
        "carregado": true,
        "peso": 0.1,
        "espacos": 0.5,
        "qtd": 1,
        "preco": 50,
        "pv": {
          "value": 0,
          "min": 0,
          "max": 0
        },
        "rd": 0,
        "ativacao": {
          "execucao": "action",
          "custo": 0,
          "qtd": "",
          "condicao": "",
          "special": ""
        },
        "duracao": {
          "value": 0,
          "units": "inst",
          "special": ""
        },
        "target": {
          "value": null,
          "width": null,
          "units": "",
          "type": ""
        },
        "range": {
          "value": null,
          "units": ""
        },
        "consume": {
          "type": "",
          "target": "",
          "amount": null,
          "mpMultiplier": false
        },
        "efeito": "",
        "alcance": "none",
        "alvo": "",
        "area": "",
        "resistencia": {
          "pericia": "",
          "atributo": "sab",
          "bonus": 0,
          "txt": ""
        },
        "rolls": [
          {
            "name": "Dano",
            "key": "dano0",
            "type": "dano",
            "parts": [
              [
                "1d4",
                "curapm",
                ""
              ]
            ],
            "versatil": ""
          }
        ],
        "tipo": "alchemy",
        "uses": {
          "autoDestroy": false
        },
        "chatFlavor": "",
        "origin": "",
        "tags": [],
        "chatGif": "",
        "upgrades": {
          "melhoria1": "",
          "melhoria2": "",
          "melhoria3": "",
          "melhoria4": "",
          "material": "",
          "encanto1": "",
          "encanto2": "",
          "encanto3": ""
        },
        "melhorias": {},
        "encantos": {},
        "subtipo": ""
      },
      "ownership": {
        "default": 0,
        "tIn9sSkrT3mDWirx": 3
      },
      "_stats": {
        "systemId": "tormenta20",
        "systemVersion": "1.4.1004",
        "coreVersion": "10.286",
        "createdTime": 1664312772400,
        "modifiedTime": 1667017059858,
        "lastModifiedBy": "tIn9sSkrT3mDWirx"
      },
      "folder": "Rvyvmtb2gy31hYRB",
      "sort": 500000,
      "_key": "!actors.items!nhvQoA8jY5I8stzV.VyyJPN8zjRI7qvqc"
    }
  ],
  "effects": [
    {
      "_id": "KpZwpzhn7m6SqNl0",
      "changes": [
        {
          "key": "system.modificadores.dano.mag",
          "mode": 2,
          "value": "@atributoChave",
          "priority": null
        }
      ],
      "disabled": false,
      "duration": {
        "startTime": 0,
        "seconds": null,
        "combat": null,
        "rounds": null,
        "turns": null,
        "startRound": null,
        "startTurn": null
      },
      "icon": "systems/tormenta20/icons/classes/arcanista.webp",
      "label": "Arcano de Batalha",
      "origin": "Actor.nhvQoA8jY5I8stzV.Item.T3k6XgDlLKeqkpcW",
      "transfer": false,
      "flags": {
        "tormenta20": {
          "onuse": false,
          "durationScene": false
        }
      },
      "tint": null,
      "_key": "!actors.effects!nhvQoA8jY5I8stzV.KpZwpzhn7m6SqNl0"
    }
  ],
  "folder": "3f9xztQPcDuxpro9",
  "sort": 100001,
  "flags": {
    "exportSource": {
      "world": "andreverse-t20",
      "system": "tormenta20",
      "coreVersion": "0.6.6",
      "systemVersion": "0.9.71"
    },
    "editing": false,
    "tormenta20": {
      "sheet": {},
      "lvlconfig": {
        "pv": {},
        "pm": {}
      },
      "version": "1.3.0.0"
    },
    "core": {
      "sourceId": "Compendium.tormenta20.ameacas.nhvQoA8jY5I8stzV"
    }
  },
  "system": {
    "atributos": {
      "for": {
        "value": 0,
        "bonus": 0,
        "base": 3,
        "racial": 0
      },
      "des": {
        "value": 0,
        "bonus": 0,
        "base": 1,
        "racial": 0
      },
      "con": {
        "value": 0,
        "bonus": 0,
        "base": 3,
        "racial": 0
      },
      "int": {
        "value": 0,
        "bonus": 0,
        "base": 4,
        "racial": 0
      },
      "sab": {
        "value": 0,
        "bonus": 0,
        "base": 0,
        "racial": 0
      },
      "car": {
        "value": 0,
        "bonus": 0,
        "base": -1,
        "racial": 0
      }
    },
    "attributes": {
      "cd": 10,
      "pv": {
        "value": 120,
        "min": -500,
        "max": 120,
        "temp": 0
      },
      "pm": {
        "value": 35,
        "min": 0,
        "max": 35,
        "temp": 0
      },
      "movement": {
        "burrow": 0,
        "climb": 0,
        "fly": 0,
        "swim": 0,
        "walk": 9,
        "unit": "m",
        "hover": false,
        "notes": ""
      },
      "defesa": {
        "base": 17,
        "value": 0,
        "outros": 0,
        "atributo": "des",
        "pda": 0,
        "bonus": [],
        "condi": 0
      },
      "sentidos": {
        "value": [],
        "custom": ""
      },
      "conjuracao": "int",
      "nivel": {
        "value": 1,
        "xp": {
          "value": 0,
          "pct": 0,
          "proximo": 0
        }
      },
      "nd": "5",
      "carga": {
        "value": 0,
        "base": 10,
        "bonus": [],
        "max": 0,
        "pct": 0,
        "encumbered": false
      },
      "treino": 0
    },
    "detalhes": {
      "biography": {
        "value": "",
        "public": ""
      },
      "raca": "hobgoblin",
      "tipo": "hum",
      "alinhamento": "",
      "divindade": "",
      "nd": "",
      "equipamento": "",
      "resistencias": "",
      "tesouro": "Padrão.",
      "role": "special",
      "origem": "",
      "ataquescac": "Espada longa +14 (1d8+3, 19)."
    },
    "tracos": {
      "tamanho": "med",
      "resistencias": {
        "perda": {
          "value": 0,
          "base": 0,
          "bonus": [],
          "imunidade": false,
          "vulnerabilidade": false
        },
        "acido": {
          "value": 0,
          "base": 0,
          "bonus": [],
          "imunidade": false,
          "vulnerabilidade": false
        },
        "corte": {
          "value": 0,
          "base": 0,
          "bonus": [],
          "imunidade": false,
          "vulnerabilidade": false
        },
        "eletricidade": {
          "value": 0,
          "base": 0,
          "bonus": [],
          "imunidade": false,
          "vulnerabilidade": false
        },
        "essencia": {
          "value": 0,
          "base": 0,
          "bonus": [],
          "imunidade": false,
          "vulnerabilidade": false
        },
        "fogo": {
          "value": 0,
          "base": 0,
          "bonus": [],
          "imunidade": false,
          "vulnerabilidade": false
        },
        "frio": {
          "value": 0,
          "base": 0,
          "bonus": [],
          "imunidade": false,
          "vulnerabilidade": false
        },
        "impacto": {
          "value": 0,
          "base": 0,
          "bonus": [],
          "imunidade": false,
          "vulnerabilidade": false
        },
        "luz": {
          "value": 0,
          "base": 0,
          "bonus": [],
          "imunidade": false,
          "vulnerabilidade": false
        },
        "psiquico": {
          "value": 0,
          "base": 0,
          "bonus": [],
          "imunidade": false,
          "vulnerabilidade": false
        },
        "perfuracao": {
          "value": 0,
          "base": 0,
          "bonus": [],
          "imunidade": false,
          "vulnerabilidade": false
        },
        "trevas": {
          "value": 0,
          "base": 0,
          "bonus": [],
          "imunidade": false,
          "vulnerabilidade": false
        },
        "dano": {
          "value": 0,
          "imunidade": false,
          "vulnerabilidade": false
        }
      },
      "ic": {
        "value": [],
        "custom": ""
      },
      "idiomas": {
        "value": [
          "comum"
        ]
      }
    },
    "dinheiro": {
      "tl": 0,
      "to": 0,
      "tp": 0,
      "tc": 0
    },
    "resources": {
      "primary": {
        "value": 0,
        "max": 0,
        "label": ""
      },
      "secondary": {
        "value": 0,
        "max": 0,
        "label": ""
      },
      "tertiary": {
        "value": 0,
        "max": 0,
        "label": ""
      },
      "deathsave": {
        "value": 0,
        "max": 3,
        "label": ""
      },
      "shadow": {
        "value": 0,
        "max": 5,
        "label": ""
      },
      "catarse": {
        "value": 0,
        "max": 3,
        "label": ""
      }
    },
    "pericias": {
      "acro": {
        "value": 0,
        "atributo": "des",
        "outros": 0,
        "treinado": false,
        "st": false,
        "pda": false,
        "size": false,
        "condi": 0,
        "bonus": [],
        "custom": false,
        "label": "",
        "nome": ""
      },
      "ades": {
        "value": 0,
        "atributo": "car",
        "outros": 0,
        "treinado": false,
        "st": false,
        "pda": false,
        "size": false,
        "condi": 0,
        "bonus": [],
        "custom": false,
        "label": "",
        "nome": ""
      },
      "atle": {
        "value": 0,
        "atributo": "for",
        "outros": 0,
        "treinado": false,
        "st": false,
        "pda": false,
        "size": false,
        "condi": 0,
        "bonus": [],
        "custom": false,
        "label": "",
        "nome": ""
      },
      "atua": {
        "value": 0,
        "atributo": "car",
        "outros": 0,
        "treinado": false,
        "st": false,
        "pda": false,
        "size": false,
        "condi": 0,
        "bonus": [],
        "custom": false,
        "label": "",
        "nome": ""
      },
      "cava": {
        "value": 0,
        "atributo": "des",
        "outros": 0,
        "treinado": false,
        "st": false,
        "pda": false,
        "size": false,
        "condi": 0,
        "bonus": [],
        "custom": false,
        "label": "",
        "nome": ""
      },
      "conh": {
        "value": 0,
        "atributo": "int",
        "outros": 0,
        "treinado": false,
        "st": false,
        "pda": false,
        "size": false,
        "condi": 0,
        "bonus": [],
        "custom": false,
        "label": "",
        "nome": ""
      },
      "cura": {
        "value": 0,
        "atributo": "sab",
        "outros": 0,
        "treinado": false,
        "st": false,
        "pda": false,
        "size": false,
        "condi": 0,
        "bonus": [],
        "custom": false,
        "label": "",
        "nome": ""
      },
      "dipl": {
        "value": 0,
        "atributo": "car",
        "outros": 0,
        "treinado": false,
        "st": false,
        "pda": false,
        "size": false,
        "condi": 0,
        "bonus": [],
        "custom": false,
        "label": "",
        "nome": ""
      },
      "enga": {
        "value": 0,
        "atributo": "car",
        "outros": 0,
        "treinado": false,
        "st": false,
        "pda": false,
        "size": false,
        "condi": 0,
        "bonus": [],
        "custom": false,
        "label": "",
        "nome": ""
      },
      "fort": {
        "value": 11,
        "atributo": "con",
        "outros": 11,
        "treinado": false,
        "st": false,
        "pda": false,
        "size": false,
        "condi": 0,
        "bonus": [],
        "custom": false,
        "label": "",
        "nome": ""
      },
      "furt": {
        "value": 0,
        "atributo": "des",
        "outros": 0,
        "treinado": false,
        "st": false,
        "pda": false,
        "size": false,
        "condi": 0,
        "bonus": [],
        "custom": false,
        "label": "",
        "nome": ""
      },
      "guer": {
        "value": 9,
        "atributo": "int",
        "outros": 1,
        "treinado": true,
        "st": false,
        "pda": false,
        "size": false,
        "condi": 0,
        "bonus": [],
        "custom": false,
        "label": "",
        "nome": ""
      },
      "inic": {
        "value": 5,
        "atributo": "des",
        "outros": 0,
        "treinado": true,
        "st": false,
        "pda": false,
        "size": false,
        "condi": 0,
        "bonus": [],
        "custom": false,
        "label": "",
        "nome": ""
      },
      "inti": {
        "value": 0,
        "atributo": "car",
        "outros": 0,
        "treinado": false,
        "st": false,
        "pda": false,
        "size": false,
        "condi": 0,
        "bonus": [],
        "custom": false,
        "label": "",
        "nome": ""
      },
      "intu": {
        "value": 0,
        "atributo": "sab",
        "outros": 0,
        "treinado": false,
        "label": "",
        "st": false,
        "pda": false,
        "bonus": [],
        "size": false,
        "condi": 0,
        "custom": false,
        "nome": ""
      },
      "inve": {
        "value": 0,
        "atributo": "int",
        "outros": 0,
        "treinado": false,
        "st": false,
        "pda": false,
        "size": false,
        "condi": 0,
        "bonus": [],
        "custom": false,
        "label": "",
        "nome": ""
      },
      "joga": {
        "value": 0,
        "atributo": "car",
        "outros": 0,
        "treinado": false,
        "st": false,
        "pda": false,
        "size": false,
        "condi": 0,
        "bonus": [],
        "custom": false,
        "label": "",
        "nome": ""
      },
      "ladi": {
        "value": 0,
        "atributo": "des",
        "outros": 0,
        "treinado": false,
        "st": false,
        "pda": false,
        "size": false,
        "condi": 0,
        "bonus": [],
        "custom": false,
        "label": "",
        "nome": ""
      },
      "luta": {
        "value": 0,
        "atributo": "for",
        "outros": 0,
        "treinado": false,
        "st": false,
        "pda": false,
        "size": false,
        "condi": 0,
        "bonus": [],
        "custom": false,
        "label": "",
        "nome": ""
      },
      "mist": {
        "value": 9,
        "atributo": "int",
        "outros": 1,
        "treinado": true,
        "st": false,
        "pda": false,
        "size": false,
        "condi": 0,
        "bonus": [],
        "custom": false,
        "label": "",
        "nome": ""
      },
      "nobr": {
        "value": 0,
        "atributo": "int",
        "outros": 0,
        "treinado": false,
        "st": false,
        "pda": false,
        "size": false,
        "condi": 0,
        "bonus": [],
        "custom": false,
        "label": "",
        "nome": ""
      },
      "ofi0": {
        "value": 0,
        "atributo": "int",
        "outros": 0,
        "treinado": false,
        "st": false,
        "pda": false,
        "size": false,
        "condi": 0,
        "bonus": [],
        "custom": false,
        "label": "",
        "nome": ""
      },
      "perc": {
        "value": 4,
        "atributo": "sab",
        "outros": 0,
        "treinado": true,
        "st": false,
        "pda": false,
        "size": false,
        "condi": 0,
        "bonus": [],
        "custom": false,
        "label": "",
        "nome": ""
      },
      "pilo": {
        "value": 0,
        "atributo": "des",
        "outros": 0,
        "treinado": false,
        "st": false,
        "pda": false,
        "size": false,
        "condi": 0,
        "bonus": [],
        "custom": false,
        "label": "",
        "nome": ""
      },
      "pont": {
        "value": 0,
        "atributo": "des",
        "outros": 0,
        "treinado": false,
        "st": false,
        "pda": false,
        "size": false,
        "condi": 0,
        "bonus": [],
        "custom": false,
        "label": "",
        "nome": ""
      },
      "refl": {
        "value": 5,
        "atributo": "des",
        "outros": 5,
        "treinado": false,
        "st": false,
        "pda": false,
        "size": false,
        "condi": 0,
        "bonus": [],
        "custom": false,
        "label": "",
        "nome": ""
      },
      "reli": {
        "value": 0,
        "atributo": "sab",
        "outros": 0,
        "treinado": false,
        "st": false,
        "pda": false,
        "size": false,
        "condi": 0,
        "bonus": [],
        "custom": false,
        "label": "",
        "nome": ""
      },
      "sobr": {
        "value": 0,
        "atributo": "sab",
        "outros": 0,
        "treinado": false,
        "st": false,
        "pda": false,
        "size": false,
        "condi": 0,
        "bonus": [],
        "custom": false,
        "label": "",
        "nome": ""
      },
      "vont": {
        "value": 17,
        "atributo": "sab",
        "outros": 17,
        "treinado": false,
        "st": false,
        "pda": false,
        "size": false,
        "condi": 0,
        "bonus": [],
        "custom": false,
        "label": "",
        "nome": ""
      },
      "_pc0": {
        "value": 0,
        "atributo": "for",
        "outros": 0,
        "treinado": false,
        "st": false,
        "pda": false,
        "size": false,
        "condi": 0,
        "bonus": [],
        "custom": false,
        "label": "",
        "nome": ""
      },
      "ofi1": {
        "treinado": true,
        "label": "Armeiro",
        "atributo": "int",
        "outros": 3,
        "condi": 0
      }
    },
    "modificadores": {
      "atributos": {
        "geral": [
          ""
        ],
        "fisicos": [
          ""
        ],
        "mentais": [
          ""
        ],
        "for": [
          ""
        ],
        "des": [
          ""
        ],
        "con": [
          ""
        ],
        "int": [
          ""
        ],
        "sab": [
          ""
        ],
        "car": [
          ""
        ]
      },
      "dano": {
        "geral": [
          ""
        ],
        "cac": [
          ""
        ],
        "ad": [
          ""
        ],
        "mag": [
          ""
        ],
        "alq": [
          ""
        ]
      },
      "custoPM": "0",
      "pericias": {
        "geral": [
          ""
        ],
        "semataque": [
          ""
        ],
        "ataque": [
          ""
        ],
        "resistencia": [
          ""
        ],
        "atr": {
          "for": [
            ""
          ],
          "des": [
            ""
          ],
          "con": [
            ""
          ],
          "int": [
            ""
          ],
          "sab": [
            ""
          ],
          "car": [
            ""
          ]
        }
      },
      "ataque": {
        "geral": [],
        "cac": [],
        "ad": []
      }
    },
    "builder": {
      "attributes": {
        "cr": "",
        "size": "",
        "attack": {
          "value": 0,
          "cr": ""
        },
        "damage": {
          "value": 0,
          "cr": ""
        },
        "defense": {
          "value": 0,
          "cr": ""
        },
        "fort": {
          "value": 0,
          "rank": 2,
          "cr": ""
        },
        "refl": {
          "value": 0,
          "rank": 1,
          "cr": ""
        },
        "vont": {
          "value": 0,
          "rank": 0,
          "cr": ""
        },
        "topsave": {
          "value": 0,
          "cr": ""
        },
        "midsave": {
          "value": 0,
          "cr": ""
        },
        "botsave": {
          "value": 0,
          "cr": ""
        },
        "hp": {
          "value": 0,
          "cr": ""
        },
        "mp": {
          "value": 0,
          "cr": ""
        },
        "dc": {
          "value": 0,
          "cr": ""
        }
      },
      "details": {
        "concept": "",
        "creatureType": "",
        "role": "",
        "treasure": ""
      }
    }
  },
  "ownership": {
    "default": 0
  },
  "prototypeToken": {
    "flags": {},
    "name": "Hobgoblin Mago de Batalha",
    "displayName": 50,
    "width": 1,
    "height": 1,
    "lockRotation": false,
    "rotation": 0,
    "actorLink": false,
    "disposition": -1,
    "displayBars": 0,
    "bar1": {
      "attribute": "attributes.pv"
    },
    "bar2": {
      "attribute": "attributes.pm"
    },
    "randomImg": false,
    "alpha": 1,
    "light": {
      "dim": 0,
      "bright": 0,
      "angle": 360,
      "color": null,
      "alpha": 1,
      "animation": {
        "speed": 5,
        "intensity": 5,
        "type": null,
        "reverse": false
      },
      "coloration": 1,
      "attenuation": 0.5,
      "luminosity": 0.5,
      "saturation": 0,
      "contrast": 0,
      "shadows": 0,
      "darkness": {
        "min": 0,
        "max": 1
      }
    },
    "texture": {
      "src": "systems/tormenta20/icons/ameacas/hobgoblin-mago-de-batalha.png",
      "tint": null,
      "scaleX": 1.2,
      "scaleY": 1.2,
      "offsetX": 0,
      "offsetY": 0,
      "rotation": 0
    },
    "sight": {
      "angle": 360,
      "enabled": true,
      "range": 30,
      "brightness": 1,
      "visionMode": "basic",
      "color": null,
      "attenuation": 0.1,
      "saturation": 0,
      "contrast": 0
    },
    "detectionModes": [],
    "appendNumber": false,
    "prependAdjective": false
  },
  "_stats": {
    "systemId": "tormenta20",
    "systemVersion": "1.4.203d2",
    "coreVersion": "11.315",
    "createdTime": 1661997946016,
    "modifiedTime": 1700236922465,
    "lastModifiedBy": "5frcpPVF3cVfLwZA"
  },
  "_key": "!actors!nhvQoA8jY5I8stzV"
}
