{
  "folder": null,
  "name": "ND 17",
  "sorting": "a",
  "type": "Actor",
  "_id": "P1nSVzoCE7FHynVo",
  "sort": 0,
  "flags": {},
  "_stats": {
    "systemId": null,
    "systemVersion": null,
    "coreVersion": null,
    "createdTime": null,
    "modifiedTime": null,
    "lastModifiedBy": null
  },
  "_key": "!folders!P1nSVzoCE7FHynVo"
}
