{
  "_id": "iYY0Jr19T5ERm43G",
  "name": "Besta pesada",
  "type": "arma",
  "img": "systems/tormenta20/icons/itens/equipamentos/besta-pesada.webp",
  "effects": [],
  "folder": "HkeRANb2t5R9UKLQ",
  "sort": 150000,
  "flags": {
    "core": {
      "sourceId": "Compendium.tormenta20.equipamentos.iYY0Jr19T5ERm43G"
    }
  },
  "system": {
    "description": {
      "value": "<p style=\"text-align: justify;\">Vers&atilde;o maior e mais potente da besta leve. Recarregar uma besta pesada &eacute; uma a&ccedil;&atilde;o padr&atilde;o.</p>",
      "chat": "",
      "unidentified": ""
    },
    "source": "T20, pg. 146 (JdA)",
    "equipado": 0,
    "equipado2": {
      "slot": 0,
      "type": "hand"
    },
    "carregado": true,
    "peso": 4,
    "espacos": 2,
    "qtd": 1,
    "preco": 50,
    "pv": {
      "value": 0,
      "min": 0,
      "max": 0
    },
    "rd": 0,
    "rolls": [
      {
        "name": "Ataque",
        "key": "ataque0",
        "type": "ataque",
        "parts": [
          [
            "1d20",
            "",
            ""
          ],
          [
            "pont",
            "",
            ""
          ],
          [
            "0",
            "",
            ""
          ]
        ],
        "versatil": ""
      },
      {
        "name": "Dano",
        "key": "dano1",
        "type": "dano",
        "parts": [
          [
            "1d12",
            "perfuracao",
            ""
          ],
          [
            "",
            "",
            ""
          ]
        ],
        "versatil": ""
      }
    ],
    "criticoM": 19,
    "criticoX": 2,
    "alcance": "medium",
    "tipoUso": "sim",
    "propriedades": {
      "ada": false,
      "agi": false,
      "alo": false,
      "dup": false,
      "ver": false,
      "adaptavel": false,
      "agil": false,
      "alongada": false,
      "arremesso": false,
      "ataqueDistancia": true,
      "duasMaos": true,
      "dupla": false,
      "leve": false,
      "municao": true,
      "versatil": false,
      "des": false
    },
    "encantos": {
      "arremesso": false,
      "lancinante": false,
      "lancinating": false
    },
    "ativacao": {
      "custo": null,
      "condicao": "",
      "execucao": "",
      "qtd": "",
      "special": ""
    },
    "chatFlavor": "",
    "consume": {
      "type": "",
      "target": "",
      "amount": null,
      "mpMultiplier": false
    },
    "origin": "",
    "tags": [],
    "chatGif": "",
    "upgrades": {
      "melhoria1": "",
      "melhoria2": "",
      "melhoria3": "",
      "melhoria4": "",
      "material": "",
      "encanto1": "",
      "encanto2": "",
      "encanto3": ""
    },
    "melhorias": {},
    "ataques": 0,
    "proficiencia": "marcial",
    "proposito": "disparo",
    "empunhadura": "duas",
    "size": "normal"
  },
  "ownership": {
    "default": 0
  },
  "_stats": {
    "systemId": "tormenta20",
    "systemVersion": "1.4.116",
    "coreVersion": "11.298",
    "createdTime": 1664312772417,
    "modifiedTime": 1684809353177,
    "lastModifiedBy": "ZWR5Tn3AhSIFqwp6"
  },
  "_key": "!items!iYY0Jr19T5ERm43G"
}
