{
  "name": "Botas Reforçadas",
  "type": "equipamento",
  "img": "systems/tormenta20/icons/itens/gerais/botas-reforcadas.webp",
  "system": {
    "description": {
      "value": "<p style=\"text-align: justify;\">Grossas e resistentes, estas botas de cano alto protegem contra perigos do&nbsp; terreno. Aumentam seu deslocamento em +1,5m se ele for reduzido por terreno dif&iacute;cil (ap&oacute;s a redu&ccedil;&atilde;o).<br><br></p>",
      "chat": "",
      "unidentified": ""
    },
    "source": "T20, pg. 159 (JdA)",
    "equipado": false,
    "equipado2": {
      "slot": 0,
      "type": "body"
    },
    "carregado": true,
    "peso": 1,
    "espacos": 1,
    "qtd": 1,
    "preco": 20,
    "pv": {
      "value": 0,
      "min": 0,
      "max": 0
    },
    "rd": 0,
    "tipo": "traje",
    "armadura": {
      "value": 0,
      "penalidade": 0,
      "maxAtr": 0
    },
    "rolls": [],
    "origin": "",
    "tags": [],
    "chatFlavor": "",
    "ativacao": {
      "custo": null,
      "condicao": "",
      "execucao": "",
      "qtd": "",
      "special": ""
    },
    "melhorias": {
      "enhanced": null,
      "golden": null,
      "gems": null,
      "discreet": null,
      "macabre": null
    },
    "chatGif": "",
    "upgrades": {
      "melhoria1": "",
      "melhoria2": "",
      "melhoria3": "",
      "melhoria4": "",
      "material": "",
      "encanto1": "",
      "encanto2": "",
      "encanto3": ""
    },
    "encantos": {}
  },
  "effects": [],
  "flags": {},
  "_stats": {
    "systemId": "tormenta20",
    "systemVersion": "1.4.116",
    "coreVersion": "11.298",
    "createdTime": 1663532558587,
    "modifiedTime": 1684809353177,
    "lastModifiedBy": "ZWR5Tn3AhSIFqwp6"
  },
  "_id": "v0pLpRxMPgWR4OUQ",
  "folder": "3kNyXnAknru6qWyM",
  "sort": 1900000,
  "ownership": {
    "default": 0,
    "tIn9sSkrT3mDWirx": 3
  },
  "_key": "!items!v0pLpRxMPgWR4OUQ"
}
