{
  "name": "Bruma Sonolenta",
  "type": "consumivel",
  "img": "systems/tormenta20/icons/itens/gerais/veneno.webp",
  "effects": [
    {
      "label": "Bruma Sonolenta",
      "icon": "systems/tormenta20/icons/itens/gerais/veneno.webp",
      "origin": "Item.bOB6wziZ6QSoP5Gc",
      "tint": "#FFFFFF",
      "flags": {
        "tormenta20": {
          "onuse": false,
          "durationScene": false
        }
      },
      "duration": {
        "rounds": 1,
        "startTime": null,
        "seconds": null,
        "combat": null,
        "turns": null,
        "startRound": null,
        "startTurn": null
      },
      "disabled": false,
      "_id": "1oavfzDRZov8ik8m",
      "changes": [],
      "transfer": false,
      "_key": "!items.effects!bOB6wziZ6QSoP5Gc.1oavfzDRZov8ik8m"
    }
  ],
  "flags": {
    "scene-packer": {
      "sourceId": "Item.ysNO31VnHbYQXDnE",
      "defaultPermission": 2,
      "hash": "f833ca1330e3bed65b2d30c53c9a910bddc60436"
    },
    "cf": null,
    "core": {
      "sourceId": "Compendium.world.world-arielton-1663050699947.CZZfTO5ixPdjjv95"
    }
  },
  "system": {
    "description": {
      "value": "<p style=\"text-align: justify;\">Um g&aacute;s son&iacute;fero.</p>\n<p style=\"text-align: justify;\"><strong>Tipo:</strong> <em>Inala&ccedil;&atilde;o.</em><br><strong>Efeito:</strong><em> V&iacute;tima fica inconsciente (enjoada por 1 rodada).</em></p>",
      "chat": "",
      "unidentified": ""
    },
    "source": "T20, pg. 161 (JdA)",
    "equipado": false,
    "equipado2": {
      "slot": 0,
      "type": ""
    },
    "carregado": true,
    "peso": 0.5,
    "espacos": 0.5,
    "qtd": 1,
    "preco": 150,
    "pv": {
      "value": 0,
      "min": 0,
      "max": 0
    },
    "rd": 0,
    "ativacao": {
      "execucao": "",
      "custo": 0,
      "qtd": "",
      "condicao": "Contato",
      "special": ""
    },
    "duracao": {
      "value": 0,
      "units": "",
      "special": ""
    },
    "target": {
      "value": null,
      "width": null,
      "units": "",
      "type": ""
    },
    "range": {
      "value": null,
      "units": ""
    },
    "consume": {
      "type": "",
      "target": "",
      "amount": null,
      "mpMultiplier": false
    },
    "efeito": "",
    "alcance": "none",
    "alvo": "",
    "area": "",
    "resistencia": {
      "pericia": "",
      "atributo": "for",
      "bonus": 25,
      "txt": ""
    },
    "rolls": [],
    "tipo": "alchemy",
    "uses": {
      "autoDestroy": false
    },
    "chatFlavor": "",
    "origin": "",
    "tags": [],
    "subtipo": "",
    "chatGif": "",
    "upgrades": {
      "melhoria1": "",
      "melhoria2": "",
      "melhoria3": "",
      "melhoria4": "",
      "material": "",
      "encanto1": "",
      "encanto2": "",
      "encanto3": ""
    },
    "melhorias": {},
    "encantos": {}
  },
  "_stats": {
    "systemId": "tormenta20",
    "systemVersion": "1.4.116",
    "coreVersion": "11.298",
    "createdTime": 1663051718188,
    "modifiedTime": 1684617163687,
    "lastModifiedBy": "ZWR5Tn3AhSIFqwp6"
  },
  "_id": "bOB6wziZ6QSoP5Gc",
  "folder": "bxpHxgHjOuykr5Rh",
  "sort": 200000,
  "ownership": {
    "default": 0,
    "tIn9sSkrT3mDWirx": 3
  },
  "_key": "!items!bOB6wziZ6QSoP5Gc"
}
