{
  "name": "Catalisadores",
  "sorting": "a",
  "folder": "vJ3nxvT9nhOts2Xv",
  "type": "Item",
  "_id": "QiIu6dfsnRA5FIHj",
  "sort": 0,
  "color": null,
  "flags": {},
  "_stats": {
    "systemId": "tormenta20",
    "systemVersion": "1.4.200",
    "coreVersion": "11.299",
    "createdTime": null,
    "modifiedTime": 1685245540618,
    "lastModifiedBy": "ZWR5Tn3AhSIFqwp6"
  },
  "_key": "!folders!QiIu6dfsnRA5FIHj"
}
