{
  "name": "Engrenagens",
  "type": "tesouro",
  "img": "systems/tormenta20/icons/itens/gerais/engrenagens.webp",
  "system": {
    "description": {
      "value": "<p><span class=\"fontstyle0\"><strong style=\"text-align: justify;\">[Tesouro Especial]</strong></span></p>\n<p><span class=\"fontstyle0\" style=\"font-family: var(--font-primary); font-size: var(--font-size-14);\">As engrenagens conta como T$ 1.000 em mat&eacute;ria-prima para fabricar engenhocas (CD para extrair 29).</span></p>",
      "chat": "",
      "unidentified": ""
    },
    "source": "T20, pg. 296 (JdA)",
    "equipado": false,
    "equipado2": {
      "slot": 0,
      "type": ""
    },
    "carregado": true,
    "peso": 0,
    "espacos": 1,
    "qtd": 1,
    "preco": 1000,
    "pv": {
      "value": 0,
      "min": 0,
      "max": 0
    },
    "rd": 0,
    "container": false,
    "origin": "",
    "chatFlavor": "",
    "rolls": [],
    "tags": [],
    "chatGif": "",
    "ativacao": {
      "custo": 0,
      "condicao": "",
      "execucao": "",
      "qtd": "",
      "special": ""
    },
    "consume": {
      "amount": 0,
      "mpMultiplier": false,
      "target": "",
      "type": ""
    },
    "duracao": {
      "units": "",
      "value": 0,
      "special": ""
    },
    "range": {
      "units": "",
      "value": 0
    },
    "target": {
      "type": "",
      "value": 0,
      "width": 0
    },
    "alcance": "",
    "alvo": "",
    "area": "",
    "efeito": "",
    "resistencia": {
      "txt": "",
      "pericia": "",
      "atributo": "",
      "bonus": 0
    }
  },
  "effects": [],
  "flags": {},
  "_stats": {
    "systemId": "tormenta20",
    "systemVersion": "1.4.116",
    "coreVersion": "11.298",
    "createdTime": 1664672967531,
    "modifiedTime": 1684617363229,
    "lastModifiedBy": "ZWR5Tn3AhSIFqwp6"
  },
  "_id": "0rmobUebP6LxbNV3",
  "folder": "5PDivJJGRX0EFLEP",
  "sort": 125000,
  "ownership": {
    "default": 0,
    "tIn9sSkrT3mDWirx": 3
  },
  "_key": "!items!0rmobUebP6LxbNV3"
}
