{
  "_id": "JC6bm2uh4g7oaGge",
  "name": "Essência de mana",
  "type": "consumivel",
  "img": "systems/tormenta20/icons/itens/gerais/essencia-mana.webp",
  "effects": [],
  "folder": "FUrcrKKV6smuHI1v",
  "sort": 600000,
  "flags": {
    "core": {
      "sourceId": "Compendium.tormenta20.equipamentos.JC6bm2uh4g7oaGge"
    }
  },
  "system": {
    "description": {
      "value": "<p style=\"text-align: justify;\">Esta po&ccedil;&atilde;o feita de ervas raras e compostos alqu&iacute;micos recupera energia pessoal. Beber a ess&ecirc;ncia de mana &eacute; uma a&ccedil;&atilde;o padr&atilde;o e recupera 1d4 pontos de mana.&nbsp;</p>",
      "chat": "",
      "unidentified": ""
    },
    "source": "T20, pg. 160 (JdA)",
    "equipado": false,
    "equipado2": {
      "slot": 0,
      "type": ""
    },
    "carregado": true,
    "peso": 0.1,
    "espacos": 0.5,
    "qtd": 1,
    "preco": 50,
    "pv": {
      "value": 0,
      "min": 0,
      "max": 0
    },
    "rd": 0,
    "ativacao": {
      "execucao": "action",
      "custo": 0,
      "qtd": "",
      "condicao": "",
      "special": ""
    },
    "duracao": {
      "value": 0,
      "units": "inst",
      "special": ""
    },
    "target": {
      "value": null,
      "width": null,
      "units": "",
      "type": ""
    },
    "range": {
      "value": null,
      "units": ""
    },
    "consume": {
      "type": "",
      "target": "",
      "amount": null,
      "mpMultiplier": false
    },
    "efeito": "",
    "alcance": "none",
    "alvo": "",
    "area": "",
    "resistencia": {
      "pericia": "",
      "atributo": "sab",
      "bonus": 0,
      "txt": ""
    },
    "rolls": [
      {
        "name": "Dano",
        "key": "dano0",
        "type": "dano",
        "parts": [
          [
            "1d4",
            "curapm",
            ""
          ]
        ],
        "versatil": ""
      }
    ],
    "tipo": "alchemy",
    "uses": {
      "autoDestroy": false
    },
    "chatFlavor": "",
    "origin": "",
    "tags": [],
    "chatGif": "",
    "upgrades": {
      "melhoria1": "",
      "melhoria2": "",
      "melhoria3": "",
      "melhoria4": "",
      "material": "",
      "encanto1": "",
      "encanto2": "",
      "encanto3": ""
    },
    "melhorias": {},
    "encantos": {},
    "subtipo": ""
  },
  "ownership": {
    "default": 0
  },
  "_stats": {
    "systemId": "tormenta20",
    "systemVersion": "1.4.116",
    "coreVersion": "11.298",
    "createdTime": 1664312772400,
    "modifiedTime": 1684617643124,
    "lastModifiedBy": "ZWR5Tn3AhSIFqwp6"
  },
  "_key": "!items!JC6bm2uh4g7oaGge"
}
