{
  "name": "Orbe Cristalina",
  "type": "equipamento",
  "img": "systems/tormenta20/icons/itens/gerais/orbe-cristalina.webp",
  "effects": [
    {
      "label": "Orbe: O limite de PM que você pode gastar em magias aumenta em +1.",
      "icon": "icons/svg/upgrade.svg",
      "origin": "Item.FLmuXN3wg9KxC3BH",
      "tint": "#FFFFFF",
      "flags": {
        "tormenta20": {
          "onuse": true,
          "durationScene": false,
          "self": false,
          "attack": false,
          "skill": false,
          "ability": false,
          "power": false,
          "spell": true,
          "consumable": false,
          "items": "",
          "aumenta": false,
          "custo": ""
        }
      },
      "duration": {
        "startTime": null,
        "seconds": null,
        "combat": null,
        "rounds": null,
        "turns": null,
        "startRound": null,
        "startTurn": null
      },
      "disabled": true,
      "_id": "H6DQFuSF71NcRSIr",
      "changes": [],
      "transfer": true,
      "_key": "!items.effects!kc5hodyP1AIeDJnv.H6DQFuSF71NcRSIr"
    }
  ],
  "flags": {
    "core": {
      "sourceId": "Compendium.tormenta20.equipamentos-magicos.WAObGl5rjxba8J8s"
    }
  },
  "system": {
    "description": {
      "value": "<p style=\"text-align: justify;\">Esta esfera perfeita concentra seu poder m&aacute;gico. O limite de PM que voc&ecirc; pode gastar em magias arcanas aumenta em +1.</p>",
      "chat": "",
      "unidentified": ""
    },
    "source": "T20, pg. 160 (JdA)",
    "equipado": false,
    "equipado2": {
      "slot": 0,
      "type": "hand"
    },
    "carregado": true,
    "peso": 0,
    "espacos": 1,
    "qtd": 1,
    "preco": 750,
    "pv": {
      "value": 0,
      "min": 0,
      "max": 0
    },
    "rd": 0,
    "tipo": "esoterico",
    "armadura": {
      "value": 0,
      "penalidade": 0,
      "maxAtr": 0
    },
    "rolls": [],
    "origin": "",
    "tags": [],
    "chatFlavor": "",
    "ativacao": {
      "custo": null,
      "condicao": "",
      "execucao": "",
      "qtd": "",
      "special": ""
    },
    "chatGif": "",
    "upgrades": {
      "melhoria1": "",
      "melhoria2": "",
      "melhoria3": "",
      "melhoria4": "",
      "material": "",
      "encanto1": "",
      "encanto2": "",
      "encanto3": ""
    },
    "melhorias": {},
    "encantos": {}
  },
  "_stats": {
    "systemId": "tormenta20",
    "systemVersion": "1.4.116",
    "coreVersion": "11.298",
    "createdTime": 1663377681721,
    "modifiedTime": 1684809353177,
    "lastModifiedBy": "ZWR5Tn3AhSIFqwp6"
  },
  "_id": "kc5hodyP1AIeDJnv",
  "folder": "q5xr48fQpaZDdVTn",
  "sort": 101563,
  "ownership": {
    "default": 0,
    "tIn9sSkrT3mDWirx": 3
  },
  "_key": "!items!kc5hodyP1AIeDJnv"
}
