{
  "folder": null,
  "name": "Arqueiro Arcano",
  "sorting": "a",
  "type": "Item",
  "_id": "Rj1a3BRGbCJZHIUT",
  "sort": 0,
  "flags": {},
  "_stats": {
    "systemId": null,
    "systemVersion": null,
    "coreVersion": null,
    "createdTime": null,
    "modifiedTime": null,
    "lastModifiedBy": null
  },
  "_key": "!folders!Rj1a3BRGbCJZHIUT"
}
