{
  "name": "Arremesso de Rochas",
  "type": "poder",
  "img": "systems/tormenta20/icons/poderes/distincao.webp",
  "system": {
    "description": {
      "value": "<blockquote>\n<p style=\"text-align: justify;\">Qualquer oponente que tente correr de um gigante furioso descobrir&aacute; rapidamente que eles s&atilde;o letais em qualquer dist&acirc;ncia.</p>\n</blockquote>\n<p style=\"text-align: justify;\">Enquanto estiver em f&uacute;ria, voc&ecirc; pode gastar uma a&ccedil;&atilde;o padr&atilde;o e 1 PM para arrancar uma rocha do ch&atilde;o e arremess&aacute;-la contra seus oponentes. Trate essa rocha como uma arma de arremesso com alcance m&eacute;dio que causa 2d6 pontos de dano de impacto e atinge todas as criaturas em um raio de 1,5m. Para atacar com a rocha, fa&ccedil;a um ataque &agrave; dist&acirc;ncia de arremesso e compare-o com a Defesa de cada criatura na &aacute;rea. Ent&atilde;o, fa&ccedil;a uma &uacute;nica rolagem de dano e aplique-a em cada inimigo atingido. Para cada categoria de tamanho que voc&ecirc; tiver acima de M&eacute;dio, o dano da rocha aumenta em um passo e sua &aacute;rea aumenta em +1,5m de raio.</p>\n<p style=\"text-align: justify;\">Pr&eacute;-requisito: F&uacute;ria dos Gigantes.</p>",
      "chat": "",
      "unidentified": ""
    },
    "source": "Distinções, pg. 22",
    "ativacao": {
      "execucao": "action",
      "custo": 1,
      "qtd": "",
      "condicao": "",
      "special": ""
    },
    "duracao": {
      "value": 0,
      "units": "inst",
      "special": ""
    },
    "target": {
      "value": null,
      "width": null,
      "units": "",
      "type": ""
    },
    "range": {
      "value": null,
      "units": ""
    },
    "consume": {
      "type": "",
      "target": "",
      "amount": null,
      "mpMultiplier": false
    },
    "efeito": "",
    "alcance": "medium",
    "alvo": "",
    "area": "esfera com 1,5m de raio",
    "resistencia": {
      "pericia": "",
      "atributo": "",
      "bonus": 0,
      "txt": ""
    },
    "rolls": [
      {
        "name": "Dano",
        "key": "dano0",
        "type": "dano",
        "parts": [
          [
            "2d6",
            "impacto",
            ""
          ]
        ],
        "versatil": ""
      }
    ],
    "tipo": "distincao",
    "subtipo": "Gigante Furioso",
    "origin": "",
    "tags": [
      "GiganteFurioso"
    ],
    "chatFlavor": "",
    "chatGif": ""
  },
  "effects": [
    {
      "label": "Aumento de raio",
      "icon": "icons/svg/upgrade.svg",
      "origin": "Item.kNFyUqWxqOFE6Jpp",
      "tint": "#FFFFFF",
      "flags": {
        "tormenta20": {
          "onuse": true,
          "durationScene": false,
          "self": true,
          "attack": false,
          "skill": false,
          "ability": false,
          "power": false,
          "equipment": false,
          "spell": false,
          "consumable": false,
          "items": "",
          "aumenta": true,
          "custo": ""
        }
      },
      "duration": {
        "startTime": null,
        "seconds": null,
        "combat": null,
        "rounds": null,
        "turns": null,
        "startRound": null,
        "startTurn": null
      },
      "disabled": true,
      "_id": "EEWqEJ6khFEY8H87",
      "changes": [
        {
          "key": "area",
          "mode": 2,
          "value": "1,5m",
          "priority": 0
        }
      ],
      "transfer": false,
      "_key": "!items.effects!kNFyUqWxqOFE6Jpp.EEWqEJ6khFEY8H87"
    }
  ],
  "flags": {},
  "_stats": {
    "systemId": "tormenta20",
    "systemVersion": "1.4.116",
    "coreVersion": "11.298",
    "createdTime": 1667075515824,
    "modifiedTime": 1684614605298,
    "lastModifiedBy": "ZWR5Tn3AhSIFqwp6"
  },
  "_id": "kNFyUqWxqOFE6Jpp",
  "folder": "Zr1HgroTTH1NqRJ3",
  "sort": 0,
  "ownership": {
    "default": 0,
    "tIn9sSkrT3mDWirx": 3
  },
  "_key": "!items!kNFyUqWxqOFE6Jpp"
}
