{
  "name": "Destruir o Crime",
  "type": "poder",
  "img": "systems/tormenta20/icons/poderes/distincao.webp",
  "system": {
    "description": {
      "value": "<blockquote>\n<p style=\"text-align: justify;\">O poder sagrado do sol flui pelas balas de suas armas.</p>\n</blockquote>\n<p class=\"MsoNormal\">Voc&ecirc; pode usar a habilidade @UUID[Item.FXGduQkI6D6rGEA9]{Golpe Divino} em ataques &agrave; dist&acirc;ncia com armas de fogo.</p>\n<p class=\"MsoNormal\"><em>Pr&eacute;-requisitos:</em> profici&ecirc;ncia em armas de fogo, Golpe Divino, O Longo Bra&ccedil;o da Lei.</p>",
      "chat": "",
      "unidentified": ""
    },
    "source": "Distinções, pg. 33-35",
    "ativacao": {
      "execucao": "",
      "custo": 0,
      "qtd": "",
      "condicao": "",
      "special": ""
    },
    "duracao": {
      "value": 0,
      "units": "",
      "special": ""
    },
    "target": {
      "value": null,
      "width": null,
      "units": "",
      "type": ""
    },
    "range": {
      "value": null,
      "units": ""
    },
    "consume": {
      "type": "",
      "target": "",
      "amount": null,
      "mpMultiplier": false
    },
    "efeito": "",
    "alcance": "none",
    "alvo": "",
    "area": "",
    "resistencia": {
      "pericia": "",
      "atributo": "",
      "bonus": 0,
      "txt": ""
    },
    "rolls": [],
    "tipo": "distincao",
    "subtipo": "Xerife do Sol",
    "origin": "",
    "tags": [
      "XerifedoSol"
    ],
    "chatFlavor": "",
    "chatGif": ""
  },
  "effects": [],
  "flags": {
    "core": {
      "sourceId": "Item.HkVDWzvGSMxF3Yx8"
    }
  },
  "_stats": {
    "systemId": "tormenta20",
    "systemVersion": "1.4.116",
    "coreVersion": "11.298",
    "createdTime": 1667083101946,
    "modifiedTime": 1684614605298,
    "lastModifiedBy": "ZWR5Tn3AhSIFqwp6"
  },
  "_id": "Hv17dNT4vWHl7doU",
  "folder": "TcfLBMkSXCsZliFQ",
  "sort": 0,
  "ownership": {
    "default": 0,
    "tIn9sSkrT3mDWirx": 3
  },
  "_key": "!items!Hv17dNT4vWHl7doU"
}
