{
  "name": "Domínio de Terreno: Urbano",
  "type": "poder",
  "img": "systems/tormenta20/icons/poderes/distincao.webp",
  "system": {
    "description": {
      "value": "<blockquote>\n<p>Outros exploradores conhecem determinados tipos de terreno. O andarilho do horizonte os domina.</p>\n</blockquote>\n<p style=\"text-align: justify;\">Escolha dois tipos de terreno entre os tipos a seguir. Voc&ecirc; recebe os benef&iacute;cios dos tipos escolhidos mesmo que n&atilde;o esteja neste terreno. Voc&ecirc; pode escolher este poder outras vezes para terrenos diferentes. <em>Pr&eacute;-requisitos:</em> treinado em Conhecimento, Fortitude e Sobreviv&ecirc;ncia.</p>\n<p style=\"text-align: justify;\"><strong>Urbano.</strong> Voc&ecirc; recebe resist&ecirc;ncia mental 5 e pode usar Sobreviv&ecirc;ncia no lugar de Investiga&ccedil;&atilde;o.</p>",
      "chat": "",
      "unidentified": ""
    },
    "source": "Distinções, pg. 12",
    "ativacao": {
      "execucao": "passive",
      "custo": 0,
      "qtd": "",
      "condicao": "",
      "special": ""
    },
    "duracao": {
      "value": 0,
      "units": "",
      "special": ""
    },
    "target": {
      "value": null,
      "width": null,
      "units": "",
      "type": ""
    },
    "range": {
      "value": null,
      "units": ""
    },
    "consume": {
      "type": "",
      "target": "",
      "amount": null,
      "mpMultiplier": false
    },
    "efeito": "",
    "alcance": "none",
    "alvo": "",
    "area": "",
    "resistencia": {
      "pericia": "",
      "atributo": "",
      "bonus": 0,
      "txt": ""
    },
    "rolls": [],
    "tipo": "distincao",
    "subtipo": "Andarilho do Horizonte",
    "origin": "",
    "tags": [
      "AndarilhodoHorizonte"
    ],
    "chatFlavor": "",
    "chatGif": ""
  },
  "effects": [
    {
      "label": "Domínio de Terreno: Urbano",
      "icon": "systems/tormenta20/icons/poderes/distincao.webp",
      "origin": "Item.bmB9RtgIjIXt19AX",
      "tint": "#FFFFFF",
      "flags": {
        "tormenta20": {
          "onuse": false,
          "durationScene": false
        }
      },
      "duration": {
        "startTime": null,
        "seconds": null,
        "combat": null,
        "rounds": null,
        "turns": null,
        "startRound": null,
        "startTurn": null
      },
      "disabled": false,
      "_id": "WGm7Ce9twB60OxO0",
      "changes": [
        {
          "key": "system.tracos.resistencias.psiquico.value",
          "mode": 2,
          "value": "5",
          "priority": null
        }
      ],
      "transfer": true,
      "_key": "!items.effects!bmB9RtgIjIXt19AX.WGm7Ce9twB60OxO0"
    }
  ],
  "flags": {},
  "_stats": {
    "systemId": "tormenta20",
    "systemVersion": "1.4.116",
    "coreVersion": "11.298",
    "createdTime": 1665850170299,
    "modifiedTime": 1684614605298,
    "lastModifiedBy": "ZWR5Tn3AhSIFqwp6"
  },
  "_id": "bmB9RtgIjIXt19AX",
  "folder": "CivN4iqFKpA5ogfm",
  "sort": 0,
  "ownership": {
    "default": 0,
    "tIn9sSkrT3mDWirx": 3
  },
  "_key": "!items!bmB9RtgIjIXt19AX"
}
