{
  "name": "Estou Bem, Pessoal!",
  "type": "poder",
  "img": "systems/tormenta20/icons/poderes/distincao.webp",
  "system": {
    "description": {
      "value": "<blockquote>\n<p>Por mais que o aeronauta saiba pilotar, acidentes acontecem, mas ele aprendeu a estar pronto para eles.</p>\n</blockquote>\n<p style=\"text-align: justify;\">Voc&ecirc; recebe resist&ecirc;ncia a impacto 5 e sofre apenas metade do dano de quedas. Estes benef&iacute;cios se estendem a qualquer aeronave que voc&ecirc; estiver pilotando. <em>Pr&eacute;-requisito:</em> Combate A&eacute;reo.</p>",
      "chat": "",
      "unidentified": ""
    },
    "source": "Distinções, pg. 9",
    "ativacao": {
      "execucao": "passive",
      "custo": 0,
      "qtd": "",
      "condicao": "",
      "special": ""
    },
    "duracao": {
      "value": 0,
      "units": "",
      "special": ""
    },
    "target": {
      "value": null,
      "width": null,
      "units": "",
      "type": ""
    },
    "range": {
      "value": null,
      "units": ""
    },
    "consume": {
      "type": "",
      "target": "",
      "amount": null,
      "mpMultiplier": false
    },
    "efeito": "",
    "alcance": "none",
    "alvo": "",
    "area": "",
    "resistencia": {
      "pericia": "",
      "atributo": "",
      "bonus": 0,
      "txt": ""
    },
    "rolls": [],
    "tipo": "distincao",
    "subtipo": "Aeronauta Goblin",
    "origin": "",
    "tags": [
      "AeronautaGoblin"
    ],
    "chatFlavor": "",
    "chatGif": ""
  },
  "effects": [
    {
      "label": "Estou Bem, Pessoal!",
      "icon": "systems/tormenta20/icons/poderes/distincao.webp",
      "origin": "Item.GAkbEClbwEcoP94B",
      "tint": "#FFFFFF",
      "flags": {
        "tormenta20": {
          "onuse": false,
          "durationScene": false
        }
      },
      "duration": {
        "startTime": null,
        "seconds": null,
        "combat": null,
        "rounds": null,
        "turns": null,
        "startRound": null,
        "startTurn": null
      },
      "disabled": false,
      "_id": "rvRQyEoPOuD4kdrd",
      "changes": [
        {
          "key": "system.tracos.resistencias.impacto.value",
          "mode": 2,
          "value": "5",
          "priority": null
        }
      ],
      "transfer": true,
      "_key": "!items.effects!GAkbEClbwEcoP94B.rvRQyEoPOuD4kdrd"
    }
  ],
  "flags": {},
  "_stats": {
    "systemId": "tormenta20",
    "systemVersion": "1.4.116",
    "coreVersion": "11.298",
    "createdTime": 1665847889294,
    "modifiedTime": 1684614605298,
    "lastModifiedBy": "ZWR5Tn3AhSIFqwp6"
  },
  "_id": "GAkbEClbwEcoP94B",
  "folder": "62pUBDtKHHsJNktu",
  "sort": 0,
  "ownership": {
    "default": 0,
    "tIn9sSkrT3mDWirx": 3
  },
  "_key": "!items!GAkbEClbwEcoP94B"
}
