{
  "name": "Manobras Defensivas",
  "type": "poder",
  "img": "systems/tormenta20/icons/poderes/distincao.webp",
  "system": {
    "description": {
      "value": "<blockquote>\n<p style=\"text-align: justify;\">&Agrave;s vezes, mais importante que preservar a pr&oacute;pria vida<br>&eacute; proteger sua aeronave &mdash; afinal, se ela cair, o piloto pode<br>virar mingau!</p>\n</blockquote>\n<p style=\"text-align: justify;\">Voc&ecirc; soma seu b&ocirc;nus de Intelig&ecirc;ncia na Defesa das aeronaves que estiver pilotando. Al&eacute;m disso, uma vez por rodada, quando voc&ecirc; ou uma aeronave que estiver pilotando sofrer dano, voc&ecirc; pode gastar uma rea&ccedil;&atilde;o e 2 PM para executar uma manobra defensiva. Fa&ccedil;a um teste de Pilotagem e reduza o dano sofrido em um valor igual ao resultado deste teste. <em>Pr&eacute;-requisitos:</em> treinado em Reflexos, Combate A&eacute;reo.</p>",
      "chat": "",
      "unidentified": ""
    },
    "source": "Distinções, pg. 9",
    "ativacao": {
      "execucao": "reaction",
      "custo": 2,
      "qtd": "",
      "condicao": "",
      "special": ""
    },
    "duracao": {
      "value": 0,
      "units": "",
      "special": ""
    },
    "target": {
      "value": null,
      "width": null,
      "units": "",
      "type": ""
    },
    "range": {
      "value": null,
      "units": ""
    },
    "consume": {
      "type": "",
      "target": "",
      "amount": null,
      "mpMultiplier": false
    },
    "efeito": "",
    "alcance": "none",
    "alvo": "",
    "area": "",
    "resistencia": {
      "pericia": "",
      "atributo": "",
      "bonus": 0,
      "txt": ""
    },
    "rolls": [],
    "tipo": "distincao",
    "subtipo": "Aeronauta Goblin",
    "origin": "",
    "tags": [
      "AeronautaGoblin"
    ],
    "chatFlavor": "",
    "chatGif": ""
  },
  "effects": [],
  "flags": {},
  "_stats": {
    "systemId": "tormenta20",
    "systemVersion": "1.4.116",
    "coreVersion": "11.298",
    "createdTime": 1665848599377,
    "modifiedTime": 1684614605298,
    "lastModifiedBy": "ZWR5Tn3AhSIFqwp6"
  },
  "_id": "bxADA0p1oWtQLFUe",
  "folder": "62pUBDtKHHsJNktu",
  "sort": 0,
  "ownership": {
    "default": 0,
    "tIn9sSkrT3mDWirx": 3
  },
  "_key": "!items!bxADA0p1oWtQLFUe"
}
