{
  "name": "Técnica Endiabrada",
  "type": "poder",
  "img": "systems/tormenta20/icons/poderes/distincao.webp",
  "system": {
    "description": {
      "value": "<blockquote>\n<p class=\"MsoNormal\" style=\"text-align: justify;\">Para a maior parte dos artonianos, sua alma imortal &eacute; muito mais valiosa que a habilidade com um instrumento musical. Muitos m&uacute;sicos pensam da mesma forma. Por&eacute;m, ao ouvir um menestrel maldito tocar, n&atilde;o &eacute; dif&iacute;cil considerar que uma mera alma seja um pre&ccedil;o pequeno a se pagar por um dom t&atilde;o poderoso.</p>\n</blockquote>\n<p class=\"MsoNormal\" style=\"text-align: justify;\">Quando usa o instrumento afinado pelo dem&ocirc;nio azul, voc&ecirc; recebe +1 em Atua&ccedil;&atilde;o e a CD para resistir &agrave;s suas habilidades de bardo aumenta em +1. Esses b&ocirc;nus aumentam em +1 para cada outros dois poderes de menestrel maldito.</p>\n<p class=\"MsoNormal\" style=\"text-align: justify;\"><em>Pr&eacute;-requisito</em>: treinado em Atua&ccedil;&atilde;o, Inspira&ccedil;&atilde;o.</p>",
      "chat": "",
      "unidentified": ""
    },
    "source": "Distinções, pg. 38-39",
    "ativacao": {
      "execucao": "",
      "custo": 0,
      "qtd": "",
      "condicao": "",
      "special": ""
    },
    "duracao": {
      "value": 0,
      "units": "",
      "special": ""
    },
    "target": {
      "value": null,
      "width": null,
      "units": "",
      "type": ""
    },
    "range": {
      "value": null,
      "units": ""
    },
    "consume": {
      "type": "",
      "target": "",
      "amount": null,
      "mpMultiplier": false
    },
    "efeito": "",
    "alcance": "none",
    "alvo": "",
    "area": "",
    "resistencia": {
      "pericia": "",
      "atributo": "",
      "bonus": 0,
      "txt": ""
    },
    "rolls": [],
    "tipo": "distincao",
    "subtipo": "Menestrel Maldito",
    "origin": "",
    "tags": [
      "MenestrelMaldito"
    ],
    "chatFlavor": "",
    "chatGif": ""
  },
  "effects": [
    {
      "label": "Técnica Endiabrada",
      "icon": "systems/tormenta20/icons/poderes/distincao.webp",
      "origin": "Item.eJLvdwjqdhRe0ntx",
      "tint": "#FFFFFF",
      "flags": {
        "tormenta20": {
          "onuse": false,
          "durationScene": false
        }
      },
      "duration": {
        "startTime": null,
        "seconds": null,
        "combat": null,
        "rounds": null,
        "turns": null,
        "startRound": null,
        "startTurn": null
      },
      "disabled": false,
      "_id": "p1DLLcOsALlVf4q1",
      "changes": [
        {
          "key": "system.pericias.atua.bonus",
          "mode": 2,
          "value": "(@MenestrelMaldito2*1)",
          "priority": null
        }
      ],
      "transfer": true,
      "_key": "!items.effects!eJLvdwjqdhRe0ntx.p1DLLcOsALlVf4q1"
    }
  ],
  "flags": {
    "core": {
      "sourceId": "Item.HkVDWzvGSMxF3Yx8"
    }
  },
  "_stats": {
    "systemId": "tormenta20",
    "systemVersion": "1.4.116",
    "coreVersion": "11.298",
    "createdTime": 1667083101946,
    "modifiedTime": 1684614605298,
    "lastModifiedBy": "ZWR5Tn3AhSIFqwp6"
  },
  "_id": "eJLvdwjqdhRe0ntx",
  "folder": "y8ETZkiSeolvnkXp",
  "sort": 0,
  "ownership": {
    "default": 0,
    "tIn9sSkrT3mDWirx": 3
  },
  "_key": "!items!eJLvdwjqdhRe0ntx"
}
