{
  "name": "Três Se Tornam Um",
  "type": "poder",
  "img": "systems/tormenta20/icons/poderes/distincao.webp",
  "system": {
    "description": {
      "value": "<blockquote>\n<p style=\"text-align: justify;\">O estilo de luta dos Presas de Coral usa lan&ccedil;as e espadas. Os mais habilidosos entre esses guerreiros de elite aprendem a extrair o m&aacute;ximo de cada uma dessas armas.</p>\n</blockquote>\n<p class=\"MsoNormal\" style=\"text-align: justify;\">Quando est&aacute; empunhando uma azagaia, cimitarra, espada curta, espada longa ou lan&ccedil;a voc&ecirc; pode gastar uma a&ccedil;&atilde;o de movimento e 1 PM para conceder &agrave; arma a habilidade adapt&aacute;vel, alongada ou &aacute;gil at&eacute; o final da cena. Al&eacute;m disso, o custo de todos os seus poderes de Presa de Coral &eacute; reduzido em &ndash;1 PM.</p>\n<p class=\"MsoNormal\" style=\"text-align: justify;\"><em>Pr&eacute;-requisitos</em>: Foco em Arma (azagaia, cimitarra, espada curta, espada longa ou lan&ccedil;a), Presa &Uacute;nica: Azagaia de &Aacute;gua, Presa Dupla: Corte da Correnteza.</p>",
      "chat": "",
      "unidentified": ""
    },
    "source": "Distinções, pg. 40-41",
    "ativacao": {
      "execucao": "move",
      "custo": 1,
      "qtd": "",
      "condicao": "",
      "special": ""
    },
    "duracao": {
      "value": 0,
      "units": "",
      "special": ""
    },
    "target": {
      "value": null,
      "width": null,
      "units": "",
      "type": ""
    },
    "range": {
      "value": null,
      "units": ""
    },
    "consume": {
      "type": "",
      "target": "",
      "amount": null,
      "mpMultiplier": false
    },
    "efeito": "",
    "alcance": "none",
    "alvo": "",
    "area": "",
    "resistencia": {
      "pericia": "",
      "atributo": "",
      "bonus": 0,
      "txt": ""
    },
    "rolls": [],
    "tipo": "distincao",
    "subtipo": "Presa de Coral",
    "origin": "",
    "tags": [
      "PresadeCoral"
    ],
    "chatFlavor": "",
    "chatGif": ""
  },
  "effects": [],
  "flags": {
    "core": {
      "sourceId": "Item.HkVDWzvGSMxF3Yx8"
    }
  },
  "_stats": {
    "systemId": "tormenta20",
    "systemVersion": "1.4.116",
    "coreVersion": "11.298",
    "createdTime": 1667083101946,
    "modifiedTime": 1684614605298,
    "lastModifiedBy": "ZWR5Tn3AhSIFqwp6"
  },
  "_id": "LkQZCQcWDqQakUFG",
  "folder": "vsGbYK3LgW5Oreol",
  "sort": 0,
  "ownership": {
    "default": 0,
    "tIn9sSkrT3mDWirx": 3
  },
  "_key": "!items!LkQZCQcWDqQakUFG"
}
